Name,time,Position
mouse_head_joint,0.0,0.0
mouse_head_joint,0.02,0.0
mouse_head_joint,0.04,0.0
mouse_head_joint,0.06,0.0
mouse_head_joint,0.08,0.0
mouse_head_joint,0.1,0.0
mouse_head_joint,0.12000000000000001,0.0
mouse_head_joint,0.14,0.0
mouse_head_joint,0.16,0.0
mouse_head_joint,0.18,0.0
mouse_head_joint,0.19999999999999998,8.701780469877463e-05
mouse_head_joint,0.21999999999999997,-0.0014946604248988749
mouse_head_joint,0.23999999999999996,-0.00022180075501321284
mouse_head_joint,0.25999999999999995,3.231963890915068e-05
mouse_head_joint,0.27999999999999997,7.04142522689466e-06
mouse_head_joint,0.3,6.526700548903364e-06
mouse_head_joint,0.32,-6.79851977380963e-06
mouse_head_joint,0.34,-7.621832122772787e-06
mouse_head_joint,0.36000000000000004,-8.531858064486642e-06
mouse_head_joint,0.38000000000000006,-9.757387898545744e-06
mouse_head_joint,0.4000000000000001,-1.1259087242976307e-05
mouse_head_joint,0.4200000000000001,-1.2514430316024061e-05
mouse_head_joint,0.4400000000000001,-1.4233680885489264e-05
mouse_head_joint,0.46000000000000013,-1.6126213441935988e-05
mouse_head_joint,0.48000000000000015,-1.773568426877148e-05
mouse_head_joint,0.5000000000000001,-1.9375649544350892e-05
mouse_head_joint,0.5200000000000001,-2.1159156720962358e-05
mouse_head_joint,0.5400000000000001,-2.303756649268962e-05
mouse_head_joint,0.5600000000000002,-2.4728116025052316e-05
mouse_head_joint,0.5800000000000002,-2.6490152810865197e-05
mouse_head_joint,0.6000000000000002,-2.821799446639517e-05
mouse_head_joint,0.6200000000000002,-2.9882257669200385e-05
mouse_head_joint,0.6400000000000002,-3.158938401259803e-05
mouse_head_joint,0.6600000000000003,-3.358456254431985e-05
mouse_head_joint,0.6800000000000003,-3.5257157608548084e-05
mouse_head_joint,0.7000000000000003,-3.7036579555227434e-05
mouse_head_joint,0.7200000000000003,-3.868407713270017e-05
mouse_head_joint,0.7400000000000003,-4.048848855742193e-05
mouse_head_joint,0.7600000000000003,-4.212652774793213e-05
mouse_head_joint,0.7800000000000004,-4.377006868683253e-05
mouse_head_joint,0.8000000000000004,-4.555284374863078e-05
mouse_head_joint,0.8200000000000004,-4.7177388252883645e-05
mouse_head_joint,0.8400000000000004,-4.894363781282607e-05
mouse_head_joint,0.8600000000000004,-5.054544931404337e-05
mouse_head_joint,0.8800000000000004,-5.247691697807255e-05
mouse_head_joint,0.9000000000000005,-5.403739167419985e-05
mouse_head_joint,0.9200000000000005,-5.55992457380583e-05
mouse_head_joint,0.9400000000000005,-5.730629238520635e-05
mouse_head_joint,0.9600000000000005,-5.88335032922771e-05
mouse_head_joint,0.9800000000000005,-6.04544660411932e-05
mouse_head_joint,1.0000000000000004,-6.195993825652835e-05
mouse_head_joint,1.0200000000000005,-6.373176096818867e-05
mouse_head_joint,1.0400000000000005,-6.507988478698934e-05
mouse_head_joint,1.0600000000000005,-6.665305426079016e-05
mouse_head_joint,1.0800000000000005,-6.811189868649592e-05
mouse_head_joint,1.1000000000000005,-6.969718751381748e-05
mouse_head_joint,1.1200000000000006,-7.126157744341555e-05
mouse_head_joint,1.1400000000000006,-7.266708151476564e-05
mouse_head_joint,1.1600000000000006,-7.408009513021341e-05
mouse_head_joint,1.1800000000000006,-7.565126467845573e-05
mouse_head_joint,1.2000000000000006,-7.719310941833868e-05
mouse_head_joint,1.2200000000000006,-7.874670986218746e-05
mouse_head_joint,1.2400000000000007,-7.993871754141679e-05
mouse_head_joint,1.2600000000000007,-8.147080462261869e-05
mouse_head_joint,1.2800000000000007,-8.297939337964522e-05
mouse_head_joint,1.3000000000000007,-8.430127896286166e-05
mouse_head_joint,1.3200000000000007,-8.579611928816178e-05
mouse_head_joint,1.3400000000000007,-8.710854015259173e-05
mouse_head_joint,1.3600000000000008,-8.843654158052772e-05
mouse_head_joint,1.3800000000000008,-8.972639912130376e-05
mouse_head_joint,1.4000000000000008,-9.131595710165641e-05
mouse_head_joint,1.4200000000000008,-9.258450481919311e-05
mouse_head_joint,1.4400000000000008,-9.384281445168341e-05
mouse_head_joint,1.4600000000000009,-9.504527712866917e-05
mouse_head_joint,1.4800000000000009,-9.641924375358712e-05
mouse_head_joint,1.5000000000000009,-9.770832201461133e-05
mouse_head_joint,1.520000000000001,-9.892328005900453e-05
mouse_head_joint,1.540000000000001,-0.00010012825555349991
mouse_head_joint,1.560000000000001,-0.00010145304946540534
mouse_head_joint,1.580000000000001,-0.00010280636517467912
mouse_head_joint,1.600000000000001,-0.000103951139780456
mouse_head_joint,1.620000000000001,-0.000105114403851303
mouse_head_joint,1.640000000000001,-0.00010658028764343186
mouse_head_joint,1.660000000000001,-0.0001076945396709661
mouse_head_joint,1.680000000000001,-0.00010885573517604996
mouse_head_joint,1.700000000000001,-0.00010994936605879246
mouse_head_joint,1.720000000000001,-0.00011122959336518079
mouse_head_joint,1.740000000000001,-0.00011247244444323456
mouse_head_joint,1.7600000000000011,-0.00011341814608201162
mouse_head_joint,1.7800000000000011,-0.00011479617377219142
mouse_head_joint,1.8000000000000012,-0.00011574170606820644
mouse_head_joint,1.8200000000000012,-0.00011700812588699705
mouse_head_joint,1.8400000000000012,-0.00011792984378988791
mouse_head_joint,1.8600000000000012,-0.0001191062122494202
mouse_head_joint,1.8800000000000012,-0.00012022203697803491
mouse_head_joint,1.9000000000000012,-0.00012119095259066626
mouse_head_joint,1.9200000000000013,-0.00012220654104844186
mouse_head_joint,1.9400000000000013,-0.00012336920470890078
mouse_head_joint,1.9600000000000013,-0.00012448022301647654
mouse_head_joint,1.9800000000000013,-0.0001255893114109341
mouse_head_joint,2.0000000000000013,-0.00012640285404064144
mouse_head_joint,2.0200000000000014,-0.00012753607409887735
mouse_head_joint,2.0400000000000014,-0.000128617936693054
mouse_head_joint,2.0600000000000014,-0.00012952692865741966
mouse_head_joint,2.0800000000000014,-0.0001307647722867955
mouse_head_joint,2.1000000000000014,-0.00013152741241384547
mouse_head_joint,2.1200000000000014,-0.00013262114052370322
mouse_head_joint,2.1400000000000015,-0.0001334685050347062
mouse_head_joint,2.1600000000000015,-0.00013427062666604428
mouse_head_joint,2.1800000000000015,-0.00013544727568515214
mouse_head_joint,2.2000000000000015,-0.00013632008142749896
mouse_head_joint,2.2200000000000015,-0.00013727456015111272
mouse_head_joint,2.2400000000000015,-0.00013814592288685645
mouse_head_joint,2.2600000000000016,-0.000138932586541074
mouse_head_joint,2.2800000000000016,-0.000139924803110425
mouse_head_joint,2.3000000000000016,-0.0001408510141525099
mouse_head_joint,2.3200000000000016,-0.0001416882557423449
mouse_head_joint,2.3400000000000016,-0.00014245710914018161
mouse_head_joint,2.3600000000000017,-0.00014343303527031281
mouse_head_joint,2.3800000000000017,-0.00014434838576704578
mouse_head_joint,2.4000000000000017,-0.00014510032935621808
mouse_head_joint,2.4200000000000017,-0.0001460010361862274
mouse_head_joint,2.4400000000000017,-0.00014684049731705784
mouse_head_joint,2.4600000000000017,-0.00014756774366908587
mouse_head_joint,2.4800000000000018,-0.00014849414737927447
mouse_head_joint,2.5000000000000018,-0.00014931048118516088
mouse_head_joint,2.520000000000002,-0.00014995111047788612
mouse_head_joint,2.540000000000002,-0.00015069887436069962
mouse_head_joint,2.560000000000002,-0.00015162840710303271
mouse_head_joint,2.580000000000002,-0.0001524360449982609
mouse_head_joint,2.600000000000002,-0.00015320425543396965
mouse_head_joint,2.620000000000002,-0.0001538351782146563
mouse_head_joint,2.640000000000002,-0.00015454432267247853
mouse_head_joint,2.660000000000002,-0.000155377023137504
mouse_head_joint,2.680000000000002,-0.00015599244205333207
mouse_head_joint,2.700000000000002,-0.00015675147491744923
mouse_head_joint,2.720000000000002,-0.00015751593640711548
mouse_head_joint,2.740000000000002,-0.0001582507998536542
mouse_head_joint,2.760000000000002,-0.00015909262299196314
mouse_head_joint,2.780000000000002,-0.00015965924029259781
mouse_head_joint,2.800000000000002,-0.00016039813462231933
mouse_head_joint,2.820000000000002,-0.00016097939409309703
mouse_head_joint,2.840000000000002,-0.00016161461143049394
mouse_head_joint,2.860000000000002,-0.00016251479459317153
mouse_head_joint,2.880000000000002,-0.0001630517290998057
mouse_head_joint,2.900000000000002,-0.00016366580887439142
mouse_head_joint,2.920000000000002,-0.0001642907353307521
mouse_head_joint,2.940000000000002,-0.00016503109534493632
mouse_head_joint,2.960000000000002,-0.00016559332076582223
mouse_head_joint,2.980000000000002,-0.00016611568884083994
mouse_head_joint,3.000000000000002,-0.00016678923708113302
mouse_head_joint,3.0200000000000022,-0.00016726757728946495
mouse_head_joint,3.0400000000000023,-0.00016795831628790836
mouse_head_joint,3.0600000000000023,-0.00016843054183102169
mouse_head_joint,3.0800000000000023,-0.00016911902224858721
mouse_head_joint,3.1000000000000023,-0.00016958707366576675
mouse_head_joint,3.1200000000000023,-0.00017034260629866793
mouse_head_joint,3.1400000000000023,-0.00017087522524139587
mouse_head_joint,3.1600000000000024,-0.00017140169208751388
mouse_head_joint,3.1800000000000024,-0.00017199726690275696
mouse_head_joint,3.2000000000000024,-0.0001725109041021966
mouse_head_joint,3.2200000000000024,-0.00017294932199263258
mouse_head_joint,3.2400000000000024,-0.00017359316113196854
mouse_head_joint,3.2600000000000025,-0.00017411493258290278
mouse_head_joint,3.2800000000000025,-0.00017447103422885135
mouse_head_joint,3.3000000000000025,-0.00017508920479869516
mouse_head_joint,3.3200000000000025,-0.0001755653401360746
mouse_head_joint,3.3400000000000025,-0.0001761393069612538
mouse_head_joint,3.3600000000000025,-0.00017651299622922778
mouse_head_joint,3.3800000000000026,-0.00017697738747557423
mouse_head_joint,3.4000000000000026,-0.00017754827326310618
mouse_head_joint,3.4200000000000026,-0.00017799432604448384
mouse_head_joint,3.4400000000000026,-0.00017847017025118816
mouse_head_joint,3.4600000000000026,-0.0001788785682244054
mouse_head_joint,3.4800000000000026,-0.0001793846688915579
mouse_head_joint,3.5000000000000027,-0.00017972866508930707
mouse_head_joint,3.5200000000000027,-0.00018014550110478922
mouse_head_joint,3.5400000000000027,-0.00018062037866783953
mouse_head_joint,3.5600000000000027,-0.00018102582229317932
mouse_head_joint,3.5800000000000027,-0.0001814894844027748
mouse_head_joint,3.6000000000000028,-0.0001821345410641939
mouse_head_joint,3.6200000000000028,-0.00018240995774654323
mouse_head_joint,3.640000000000003,-0.00018280918045832095
mouse_head_joint,3.660000000000003,-0.0001831868726656083
mouse_head_joint,3.680000000000003,-0.00018355002125503006
mouse_head_joint,3.700000000000003,-0.00018401576634730077
mouse_head_joint,3.720000000000003,-0.0001842809819194713
mouse_head_joint,3.740000000000003,-0.000184637078184835
mouse_head_joint,3.760000000000003,-0.00018509085498585875
mouse_head_joint,3.780000000000003,-0.00018544217464366852
mouse_head_joint,3.800000000000003,-0.00018568192957690854
mouse_head_joint,3.820000000000003,-0.00018614188994714453
mouse_head_joint,3.840000000000003,-0.0001864718213067107
mouse_head_joint,3.860000000000003,-0.00018675302172255215
mouse_head_joint,3.880000000000003,-0.00018715701571903054
mouse_head_joint,3.900000000000003,-0.00018738708006171834
mouse_head_joint,3.920000000000003,-0.00018788434316263647
mouse_head_joint,3.940000000000003,-0.00018805431790536176
mouse_head_joint,3.960000000000003,-0.00018854038312987598
mouse_head_joint,3.980000000000003,-0.00018894358957677326
mouse_head_joint,4.000000000000003,-0.0001891312997877037
mouse_head_joint,4.020000000000002,-0.00018951833292124576
mouse_head_joint,4.040000000000002,-0.0001895514386802688
mouse_head_joint,4.060000000000001,-0.0001898268806792558
mouse_head_joint,4.080000000000001,-0.0001903171464814335
mouse_head_joint,4.1000000000000005,-0.0001904817448723506
mouse_head_joint,4.12,-0.00019074306266908536
mouse_head_joint,4.14,-0.00019109813773621198
mouse_head_joint,4.159999999999999,-0.00019123691949740618
mouse_head_joint,4.179999999999999,-0.0001914875211284084
mouse_head_joint,4.199999999999998,-0.00019185070341620758
mouse_head_joint,4.219999999999998,-0.0001920891004019154
mouse_head_joint,4.2399999999999975,-0.00019239509918023145
mouse_head_joint,4.259999999999997,-0.00019258341453198824
mouse_head_joint,4.279999999999997,-0.00019271875513560133
mouse_head_joint,4.299999999999996,-0.00019298297566905376
mouse_head_joint,4.319999999999996,-0.0001933293323732599
mouse_head_joint,4.339999999999995,-0.00019354127678639088
mouse_head_joint,4.359999999999995,-0.00019379149651221894
mouse_head_joint,4.379999999999995,-0.00019409922632984689
mouse_head_joint,4.399999999999994,-0.00019419162026945713
mouse_head_joint,4.419999999999994,-0.00019435753899887942
mouse_head_joint,4.439999999999993,-0.00019442748837850132
mouse_head_joint,4.459999999999993,-0.00019481428041867588
mouse_head_joint,4.479999999999992,-0.0001949019085536463
mouse_head_joint,4.499999999999992,-0.0001951746416377631
mouse_head_joint,4.519999999999992,-0.0001953490315784734
mouse_head_joint,4.539999999999991,-0.00019540148621466358
mouse_head_joint,4.559999999999991,-0.00019556226074790573
mouse_head_joint,4.57999999999999,-0.00019572464340278373
mouse_head_joint,4.59999999999999,-0.0001959992956175327
mouse_head_joint,4.6199999999999894,-0.0001960529861539939
mouse_head_joint,4.639999999999989,-0.000196326989065021
mouse_head_joint,4.659999999999989,-0.00019650598272757946
mouse_head_joint,4.679999999999988,-0.00019664896809423738
mouse_head_joint,4.699999999999988,-0.00019682356345285257
mouse_head_joint,4.719999999999987,-0.00019695898991312077
mouse_head_joint,4.739999999999987,-0.0001970004685070137
mouse_head_joint,4.7599999999999865,-0.00019725325717789843
mouse_head_joint,4.779999999999986,-0.00019747823315974244
mouse_head_joint,4.799999999999986,-0.00019753848790493578
mouse_head_joint,4.819999999999985,-0.000197451149190897
mouse_head_joint,4.839999999999985,-0.00019776841422114444
mouse_head_joint,4.859999999999984,-0.00019787827583606088
mouse_head_joint,4.879999999999984,-0.00019796542454830757
mouse_head_joint,4.8999999999999835,-0.00019804778542464874
mouse_head_joint,4.919999999999983,-0.00019814691350017455
mouse_head_joint,4.939999999999983,-0.00019812836520660682
mouse_head_joint,4.959999999999982,-0.0001983333715402935
mouse_head_joint,4.979999999999982,-0.0001984376886836614
mouse_head_joint,4.999999999999981,-0.0001985231131396148
mouse_head_joint,5.019999999999981,-0.00019860534635096627
mouse_head_joint,5.0399999999999805,-0.00019870925546072726
mouse_head_joint,5.05999999999998,-0.00019878484555846399
mouse_head_joint,5.07999999999998,-0.00019888551614055672
mouse_head_joint,5.099999999999979,-0.00019886077622111031
mouse_head_joint,5.119999999999979,-0.00019892659125542167
mouse_head_joint,5.139999999999978,-0.00019909407984464167
mouse_head_joint,5.159999999999978,-0.0001989959633048599
mouse_head_joint,5.1799999999999775,-0.00019905207909864941
mouse_head_joint,5.199999999999977,-0.00019910522005872622
mouse_head_joint,5.219999999999977,-0.0001992686445895231
mouse_head_joint,5.239999999999976,-0.00019939966448845325
mouse_head_joint,5.259999999999976,-0.0001994178127606716
mouse_head_joint,5.279999999999975,-0.00019945867931880912
mouse_head_joint,5.299999999999975,-0.00019946935649262088
mouse_head_joint,5.3199999999999745,-0.00019938856315881992
mouse_head_joint,5.339999999999974,-0.00019941842791393327
mouse_head_joint,5.359999999999974,-0.00019955686635242387
mouse_head_joint,5.379999999999973,-0.00019959177078998636
mouse_head_joint,5.399999999999973,-0.00019961492248476986
mouse_head_joint,5.419999999999972,-0.00019965403488697575
mouse_head_joint,5.439999999999972,-0.00019957386854763115
mouse_head_joint,5.4599999999999715,-0.0001996116901681333
mouse_head_joint,5.479999999999971,-0.0001997201946810634
mouse_head_joint,5.499999999999971,-0.00019963240266829274
mouse_head_joint,5.51999999999997,-0.00019985171536429647
mouse_head_joint,5.53999999999997,-0.00019985526759747074
mouse_head_joint,5.559999999999969,-0.0001995785275283879
mouse_head_joint,5.579999999999969,-0.00019957668291592512
mouse_head_joint,5.599999999999969,-0.0001996826820729325
mouse_head_joint,5.619999999999968,-0.00019975693755469592
mouse_head_joint,5.639999999999968,-0.00019963109561071946
mouse_head_joint,5.659999999999967,-0.00019970332570729
mouse_head_joint,5.679999999999967,-0.000199560296429091
mouse_head_joint,5.699999999999966,-0.00019962446648857934
mouse_head_joint,5.719999999999966,-0.00019949382081740907
mouse_head_joint,5.739999999999966,-0.00019958533282427027
mouse_head_joint,5.759999999999965,-0.00019944608817556997
mouse_head_joint,5.779999999999965,-0.00019942904133785078
mouse_head_joint,5.799999999999964,-0.0001995162030832276
mouse_head_joint,5.819999999999964,-0.00019938359611693102
mouse_head_joint,5.839999999999963,-0.00019936681930055045
mouse_head_joint,5.859999999999963,-0.0001994288815367895
mouse_head_joint,5.879999999999963,-0.00019940590865719088
mouse_head_joint,5.899999999999962,-0.00019933646787961834
mouse_head_joint,5.919999999999962,-0.00019941167281167793
mouse_head_joint,5.939999999999961,-0.00019908259626610914
mouse_head_joint,5.959999999999961,-0.00019903375514029875
mouse_head_joint,5.9799999999999605,-0.00019905137775566573
mouse_head_joint,5.99999999999996,-0.00019899791253941146
mouse_head_joint,6.01999999999996,-0.0001990244428444754
mouse_head_joint,6.039999999999959,-0.000198836186907414
mouse_head_joint,6.059999999999959,-0.0001988690564980189
mouse_head_joint,6.079999999999958,-0.0001986841232648473
mouse_head_joint,6.099999999999958,-0.0001986198137187145
mouse_head_joint,6.1199999999999575,-0.00019854490696591398
mouse_head_joint,6.139999999999957,-0.0001984763520717081
mouse_head_joint,6.159999999999957,-0.00019841165372813663
mouse_head_joint,6.179999999999956,-0.00019833892898812877
mouse_head_joint,6.199999999999956,-0.00019837898622476757
mouse_head_joint,6.219999999999955,-0.00019819980646840207
mouse_head_joint,6.239999999999955,-0.00019823599820778526
mouse_head_joint,6.2599999999999545,-0.00019816740327360804
mouse_head_joint,6.279999999999954,-0.00019808457074876884
mouse_head_joint,6.299999999999954,-0.0001980894499631347
mouse_head_joint,6.319999999999953,-0.00019782214140828813
mouse_head_joint,6.339999999999953,-0.00019781057971179905
mouse_head_joint,6.359999999999952,-0.00019759940363162087
mouse_head_joint,6.379999999999952,-0.00019762741785722682
mouse_head_joint,6.3999999999999515,-0.00019749240792332756
mouse_head_joint,6.419999999999951,-0.0001972637606444394
mouse_head_joint,6.439999999999951,-0.0001971656932440169
mouse_head_joint,6.45999999999995,-0.00019713435388091227
mouse_head_joint,6.47999999999995,-0.00019693020998357014
mouse_head_joint,6.499999999999949,-0.00019692906040802427
mouse_head_joint,6.519999999999949,-0.00019670911926183976
mouse_head_joint,6.5399999999999485,-0.0001966042499805809
mouse_head_joint,6.559999999999948,-0.0001966083514846062
mouse_head_joint,6.579999999999948,-0.00019650691177552915
mouse_head_joint,6.599999999999947,-0.00019629148115729578
mouse_head_joint,6.619999999999947,-0.00019628073269828406
mouse_head_joint,6.639999999999946,-0.00019617376031266787
mouse_head_joint,6.659999999999946,-0.00019605653207577234
mouse_head_joint,6.6799999999999455,-0.00019602536758167588
mouse_head_joint,6.699999999999945,-0.00019571920193239833
mouse_head_joint,6.719999999999945,-0.00019555036802554326
mouse_head_joint,6.739999999999944,-0.0001955487369516007
mouse_head_joint,6.759999999999944,-0.00019542345469858446
mouse_head_joint,6.779999999999943,-0.00019517430049109663
mouse_head_joint,6.799999999999943,-0.00019512394193466065
mouse_head_joint,6.8199999999999426,-0.00019494898182603748
mouse_head_joint,6.839999999999942,-0.00019481752352312753
mouse_head_joint,6.859999999999942,-0.00019455841216942105
mouse_head_joint,6.879999999999941,-0.00019440843689455534
mouse_head_joint,6.899999999999941,-0.00019438055522158493
mouse_head_joint,6.91999999999994,-0.00019424540981116678
mouse_head_joint,6.93999999999994,-0.00019399535856479133
mouse_head_joint,6.95999999999994,-0.0001939722314743264
mouse_head_joint,6.979999999999939,-0.00019383050577914673
mouse_head_joint,6.999999999999939,-0.00019369307311745132
mouse_head_joint,7.019999999999938,-0.00019343841979679866
mouse_head_joint,7.039999999999938,-0.0001934887541956698
mouse_head_joint,7.059999999999937,-0.00019315191049162905
mouse_head_joint,7.079999999999937,-0.0001930773980971523
mouse_head_joint,7.099999999999937,-0.00019285337890817544
mouse_head_joint,7.119999999999936,-0.00019277622662805527
mouse_head_joint,7.139999999999936,-0.00019250006612114845
mouse_head_joint,7.159999999999935,-0.00019242274456399144
mouse_head_joint,7.179999999999935,-0.0001921324699711846
mouse_head_joint,7.1999999999999345,-0.00019197620796518322
mouse_head_joint,7.219999999999934,-0.00019190614807396145
mouse_head_joint,7.239999999999934,-0.0001916200854585881
mouse_head_joint,7.259999999999933,-0.00019155925659308792
mouse_head_joint,7.279999999999933,-0.00019128083603803248
mouse_head_joint,7.299999999999932,-0.00019111492957346599
mouse_head_joint,7.319999999999932,-0.0001910611261752848
mouse_head_joint,7.3399999999999315,-0.00019089643704006676
mouse_head_joint,7.359999999999931,-0.00019062399356784
mouse_head_joint,7.379999999999931,-0.00019057007817657734
mouse_head_joint,7.39999999999993,-0.00019036055224752602
mouse_head_joint,7.41999999999993,-0.00019031719942752545
mouse_head_joint,7.439999999999929,-0.00018985223375711513
mouse_head_joint,7.459999999999929,-0.0001898494112912985
mouse_head_joint,7.4799999999999285,-0.00018950830360875415
mouse_head_joint,7.499999999999928,-0.0001895091198349519
mouse_head_joint,7.519999999999928,-0.00018920967684010748
mouse_head_joint,7.539999999999927,-0.0001891090358103753
mouse_head_joint,7.559999999999927,-0.0001887961467632593
mouse_head_joint,7.579999999999926,-0.00018861847536477683
mouse_head_joint,7.599999999999926,-0.00018852595478691114
mouse_head_joint,7.6199999999999255,-0.00018819790873703113
mouse_head_joint,7.639999999999925,-0.00018813533649275627
mouse_head_joint,7.659999999999925,-0.0001879409656542208
mouse_head_joint,7.679999999999924,-0.0001876474589135313
mouse_head_joint,7.699999999999924,-0.0001875724488265007
mouse_head_joint,7.719999999999923,-0.0001873893749024802
mouse_head_joint,7.739999999999923,-0.00018709525943272354
mouse_head_joint,7.7599999999999225,-0.00018701772441787057
mouse_head_joint,7.779999999999922,-0.00018683161106380908
mouse_head_joint,7.799999999999922,-0.00018659984566671284
mouse_head_joint,7.819999999999921,-0.00018641087560400393
mouse_head_joint,7.839999999999921,-0.0001862210861087732
mouse_head_joint,7.85999999999992,-0.00018596184852004427
mouse_head_joint,7.87999999999992,-0.00018571645459530828
mouse_head_joint,7.8999999999999195,-0.0001855241183612577
mouse_head_joint,7.919999999999919,-0.0001854047652907198
mouse_head_joint,7.939999999999919,-0.00018507391025845976
mouse_head_joint,7.959999999999918,-0.00018496425954150908
mouse_head_joint,7.979999999999918,-0.00018463993513062604
mouse_head_joint,7.999999999999917,-0.0001845404930742589
mouse_head_joint,8.019999999999918,-0.00018434343474815762
mouse_head_joint,8.039999999999917,-0.0001841312497496972
mouse_head_joint,8.059999999999917,-0.00018393269618854902
mouse_head_joint,8.079999999999917,-0.00018372934686805564
mouse_head_joint,8.099999999999916,-0.0001835290818528179
mouse_head_joint,8.119999999999916,-0.0001832206465381958
mouse_head_joint,8.139999999999915,-0.00018312689597532739
mouse_head_joint,8.159999999999915,-0.000182817773392685
mouse_head_joint,8.179999999999914,-0.00018267584257447567
mouse_head_joint,8.199999999999914,-0.00018247231206558467
mouse_head_joint,8.219999999999914,-0.00018226815036292976
mouse_head_joint,8.239999999999913,-0.00018199365051074778
mouse_head_joint,8.259999999999913,-0.00018178821011449742
mouse_head_joint,8.279999999999912,-0.0001816530661802318
mouse_head_joint,8.299999999999912,-0.00018139264878325179
mouse_head_joint,8.319999999999911,-0.00018118530868971305
mouse_head_joint,8.339999999999911,-0.00018083999762463776
mouse_head_joint,8.35999999999991,-0.00018071562072741187
mouse_head_joint,8.37999999999991,-0.00018047331439952075
mouse_head_joint,8.39999999999991,-0.0001802636094057064
mouse_head_joint,8.41999999999991,-0.0001799259180854662
mouse_head_joint,8.439999999999909,-0.00017982168005570287
mouse_head_joint,8.459999999999908,-0.00017961027346835579
mouse_head_joint,8.479999999999908,-0.0001793983512472508
mouse_head_joint,8.499999999999908,-0.00017907759385238364
mouse_head_joint,8.519999999999907,-0.00017897140807932033
mouse_head_joint,8.539999999999907,-0.00017875615228657438
mouse_head_joint,8.559999999999906,-0.00017854214677903713
mouse_head_joint,8.579999999999906,-0.00017840868343910188
mouse_head_joint,8.599999999999905,-0.00017799514048721932
mouse_head_joint,8.619999999999905,-0.00017768031757903202
mouse_head_joint,8.639999999999905,-0.00017750707323571646
mouse_head_joint,8.659999999999904,-0.00017736247532074145
mouse_head_joint,8.679999999999904,-0.0001770737642097231
mouse_head_joint,8.699999999999903,-0.0001769282222694457
mouse_head_joint,8.719999999999903,-0.0001765728285487711
mouse_head_joint,8.739999999999903,-0.00017630871015850147
mouse_head_joint,8.759999999999902,-0.00017609009470564985
mouse_head_joint,8.779999999999902,-0.0001759663236153841
mouse_head_joint,8.799999999999901,-0.00017561846371094703
mouse_head_joint,8.8199999999999,-0.00017551060760734316
mouse_head_joint,8.8399999999999,-0.0001752842365316809
mouse_head_joint,8.8599999999999,-0.00017506362122166053
mouse_head_joint,8.8799999999999,-0.00017473419157010284
mouse_head_joint,8.899999999999899,-0.00017451140349233896
mouse_head_joint,8.919999999999899,-0.00017439452721923487
mouse_head_joint,8.939999999999898,-0.00017417245400963566
mouse_head_joint,8.959999999999898,-0.00017383102552415153
mouse_head_joint,8.979999999999897,-0.00017350929355153255
mouse_head_joint,8.999999999999897,-0.00017328621190770832
mouse_head_joint,9.019999999999897,-0.00017310423538230424
mouse_head_joint,9.039999999999896,-0.00017300770910644303
mouse_head_joint,9.059999999999896,-0.00017265645915998107
mouse_head_joint,9.079999999999895,-0.0001724482549496642
mouse_head_joint,9.099999999999895,-0.0001722235911634229
mouse_head_joint,9.119999999999894,-0.00017199865468420228
mouse_head_joint,9.139999999999894,-0.00017164416538406613
mouse_head_joint,9.159999999999894,-0.0001713942628445153
mouse_head_joint,9.179999999999893,-0.00017116853478693628
mouse_head_joint,9.199999999999893,-0.0001710446778036001
mouse_head_joint,9.219999999999892,-0.00017070649582695552
mouse_head_joint,9.239999999999892,-0.00017047681470305776
mouse_head_joint,9.259999999999891,-0.00017035553073085907
mouse_head_joint,9.279999999999891,-0.000170125344912897
mouse_head_joint,9.29999999999989,-0.00016989814313284057
mouse_head_joint,9.31999999999989,-0.0001697501660906653
mouse_head_joint,9.33999999999989,-0.00016939381220471006
mouse_head_joint,9.35999999999989,-0.00016916459800775385
mouse_head_joint,9.379999999999889,-0.0001688672626389831
mouse_head_joint,9.399999999999888,-0.0001686390493489398
mouse_head_joint,9.419999999999888,-0.00016835252268965206
mouse_head_joint,9.439999999999888,-0.0001681390214693934
mouse_head_joint,9.459999999999887,-0.00016782789965930078
mouse_head_joint,9.479999999999887,-0.00016768126894106672
mouse_head_joint,9.499999999999886,-0.0001673230636525247
mouse_head_joint,9.519999999999886,-0.0001671880613214327
mouse_head_joint,9.539999999999885,-0.00016695865605953486
mouse_head_joint,9.559999999999885,-0.00016671189067096748
mouse_head_joint,9.579999999999885,-0.00016647522063450992
mouse_head_joint,9.599999999999884,-0.00016624540818011013
mouse_head_joint,9.619999999999884,-0.00016601547668315675
mouse_head_joint,9.639999999999883,-0.00016567484962859425
mouse_head_joint,9.659999999999883,-0.0001655519647822956
mouse_head_joint,9.679999999999882,-0.00016521444444350664
mouse_head_joint,9.699999999999882,-0.00016508774062984344
mouse_head_joint,9.719999999999882,-0.000164936000460969
mouse_head_joint,9.739999999999881,-0.0001645062616262294
mouse_head_joint,9.75999999999988,-0.00016421713471981292
mouse_head_joint,9.77999999999988,-0.00016411382337722102
mouse_head_joint,9.79999999999988,-0.00016388301625980262
mouse_head_joint,9.81999999999988,-0.00016359447866687304
mouse_head_joint,9.839999999999879,-0.00016322616172637083
mouse_head_joint,9.859999999999879,-0.00016307706475249262
mouse_head_joint,9.879999999999878,-0.00016284599705951308
mouse_head_joint,9.899999999999878,-0.00016256278225590393
mouse_head_joint,9.919999999999877,-0.000162230322173329
mouse_head_joint,9.939999999999877,-0.00016209339193551386
mouse_head_joint,9.959999999999877,-0.00016175783597738302
mouse_head_joint,9.979999999999876,-0.0001615230257216993
mouse_head_joint,9.999999999999876,-0.00016129179000223814
mouse_head_joint,10.019999999999875,-0.00016116501932561533
mouse_head_joint,10.039999999999875,-0.00016093003325412525
mouse_head_joint,10.059999999999874,-0.00016059551516445225
mouse_head_joint,10.079999999999874,-0.00016046744987985306
mouse_head_joint,10.099999999999874,-0.00016031428972684836
mouse_head_joint,10.119999999999873,-0.000159785905979426
mouse_head_joint,10.139999999999873,-0.0001596531528988976
mouse_head_joint,10.159999999999872,-0.0001594905787110079
mouse_head_joint,10.179999999999872,-0.00015925934279525933
mouse_head_joint,10.199999999999871,-0.00015897003511167185
mouse_head_joint,10.219999999999871,-0.0001586834449351926
mouse_head_joint,10.23999999999987,-0.00015845228706279357
mouse_head_joint,10.25999999999987,-0.00015818650201637752
mouse_head_joint,10.27999999999987,-0.00015795543939933765
mouse_head_joint,10.29999999999987,-0.0001576063375470227
mouse_head_joint,10.319999999999869,-0.00015747640295060705
mouse_head_joint,10.339999999999868,-0.0001571345554225445
mouse_head_joint,10.359999999999868,-0.00015690025761738724
mouse_head_joint,10.379999999999868,-0.00015677365788580033
mouse_head_joint,10.399999999999867,-0.00015643885031568772
mouse_head_joint,10.419999999999867,-0.00015630870663940755
mouse_head_joint,10.439999999999866,-0.0001559753214781523
mouse_head_joint,10.459999999999866,-0.0001558477218308596
mouse_head_joint,10.479999999999865,-0.00015539867080960335
mouse_head_joint,10.499999999999865,-0.0001553360674089177
mouse_head_joint,10.519999999999865,-0.00015497809144093821
mouse_head_joint,10.539999999999864,-0.00015480674121626237
mouse_head_joint,10.559999999999864,-0.00015451805571231603
mouse_head_joint,10.579999999999863,-0.00015435699381516343
mouse_head_joint,10.599999999999863,-0.00015407204895723225
mouse_head_joint,10.619999999999862,-0.00015384239402038702
mouse_head_joint,10.639999999999862,-0.00015346099695090487
mouse_head_joint,10.659999999999862,-0.00015325575816937942
mouse_head_joint,10.679999999999861,-0.00015311987989008458
mouse_head_joint,10.69999999999986,-0.00015286736818076463
mouse_head_joint,10.71999999999986,-0.00015264502410872183
mouse_head_joint,10.73999999999986,-0.0001524095249525459
mouse_head_joint,10.75999999999986,-0.00015207389103188973
mouse_head_joint,10.779999999999859,-0.00015184533850387538
mouse_head_joint,10.799999999999859,-0.00015179446812307873
mouse_head_joint,10.819999999999858,-0.0001514890313902839
mouse_head_joint,10.839999999999858,-0.0001513380392390573
mouse_head_joint,10.859999999999857,-0.00015111005103474184
mouse_head_joint,10.879999999999857,-0.0001507538792031582
mouse_head_joint,10.899999999999856,-0.00015052646275037773
mouse_head_joint,10.919999999999856,-0.00015029900843277488
mouse_head_joint,10.939999999999856,-0.00014994478398921984
mouse_head_joint,10.959999999999855,-0.00014971767689253568
mouse_head_joint,10.979999999999855,-0.00014955913019054634
mouse_head_joint,10.999999999999854,-0.00014919643547894879
mouse_head_joint,11.019999999999854,-0.000149051008325074
mouse_head_joint,11.039999999999853,-0.00014879087638242083
mouse_head_joint,11.059999999999853,-0.0001484478687974189
mouse_head_joint,11.079999999999853,-0.00014822190455365813
mouse_head_joint,11.099999999999852,-0.00014809051947128893
mouse_head_joint,11.119999999999852,-0.00014776144131545266
mouse_head_joint,11.139999999999851,-0.00014753330848726876
mouse_head_joint,11.159999999999851,-0.000147411739547465
mouse_head_joint,11.17999999999985,-0.00014708142093322607
mouse_head_joint,11.19999999999985,-0.00014685670926883887
mouse_head_joint,11.21999999999985,-0.00014681112316594636
mouse_head_joint,11.23999999999985,-0.00014658679263135355
mouse_head_joint,11.259999999999849,-0.00014623463538665504
mouse_head_joint,11.279999999999848,-0.00014601200432728945
mouse_head_joint,11.299999999999848,-0.00014566175762809053
mouse_head_joint,11.319999999999848,-0.0001455649943258308
mouse_head_joint,11.339999999999847,-0.00014514795262776659
mouse_head_joint,11.359999999999847,-0.0001448797223435605
mouse_head_joint,11.379999999999846,-0.0001447023570309014
mouse_head_joint,11.399999999999846,-0.00014456091040049301
mouse_head_joint,11.419999999999845,-0.0001442124667319078
mouse_head_joint,11.439999999999845,-0.0001440836656891875
mouse_head_joint,11.459999999999845,-0.0001438464028149511
mouse_head_joint,11.479999999999844,-0.00014362496089859178
mouse_head_joint,11.499999999999844,-0.00014329481174435443
mouse_head_joint,11.519999999999843,-0.00014307166357774292
mouse_head_joint,11.539999999999843,-0.00014295438003486538
mouse_head_joint,11.559999999999842,-0.00014273398226105627
mouse_head_joint,11.579999999999842,-0.00014251122504393976
mouse_head_joint,11.599999999999842,-0.00014223987972705743
mouse_head_joint,11.619999999999841,-0.00014185526277366023
mouse_head_joint,11.63999999999984,-0.00014173511267756567
mouse_head_joint,11.65999999999984,-0.00014151608802315252
mouse_head_joint,11.67999999999984,-0.00014136550271359738
mouse_head_joint,11.69999999999984,-0.00014102077137501112
mouse_head_joint,11.719999999999839,-0.00014087028811538005
mouse_head_joint,11.739999999999839,-0.00014059868215809956
mouse_head_joint,11.759999999999838,-0.0001403810326143784
mouse_head_joint,11.779999999999838,-0.00014016365735081138
mouse_head_joint,11.799999999999837,-0.00013979900575566973
mouse_head_joint,11.819999999999837,-0.0001395743848844333
mouse_head_joint,11.839999999999836,-0.0001394661905465
mouse_head_joint,11.859999999999836,-0.0001391418312577386
mouse_head_joint,11.879999999999836,-0.00013892598021403302
mouse_head_joint,11.899999999999835,-0.00013870881965960535
mouse_head_joint,11.919999999999835,-0.0001385967461953186
mouse_head_joint,11.939999999999834,-0.00013838178526714984
mouse_head_joint,11.959999999999834,-0.00013824090579195314
mouse_head_joint,11.979999999999833,-0.00013795071171607276
mouse_head_joint,11.999999999999833,-0.00013768517607903874
mouse_head_joint,12.019999999999833,-0.00013747142515452282
mouse_head_joint,12.039999999999832,-0.00013709413528584236
mouse_head_joint,12.059999999999832,-0.00013692282815025436
mouse_head_joint,12.079999999999831,-0.00013683587561441612
mouse_head_joint,12.099999999999831,-0.00013649762148926214
mouse_head_joint,12.11999999999983,-0.00013635288520763567
mouse_head_joint,12.13999999999983,-0.00013600729634255515
mouse_head_joint,12.15999999999983,-0.0001358310609003155
mouse_head_joint,12.17999999999983,-0.00013563401794147723
mouse_head_joint,12.199999999999829,-0.0001354231837495945
mouse_head_joint,12.219999999999828,-0.0001351944105358882
mouse_head_joint,12.239999999999828,-0.0001349885289645414
mouse_head_joint,12.259999999999827,-0.0001346704978670843
mouse_head_joint,12.279999999999827,-0.00013456500249020564
mouse_head_joint,12.299999999999827,-0.0001344289341318472
mouse_head_joint,12.319999999999826,-0.00013404303143893515
mouse_head_joint,12.339999999999826,-0.00013393622358393031
mouse_head_joint,12.359999999999825,-0.0001337281009199387
mouse_head_joint,12.379999999999825,-0.00013346886736176344
mouse_head_joint,12.399999999999824,-0.0001330986348033747
mouse_head_joint,12.419999999999824,-0.00013305946908559463
mouse_head_joint,12.439999999999824,-0.00013278462914456668
mouse_head_joint,12.459999999999823,-0.00013264634425969035
mouse_head_joint,12.479999999999823,-0.00013238211018773427
mouse_head_joint,12.499999999999822,-0.00013204345270967366
mouse_head_joint,12.519999999999822,-0.00013191889818564562
mouse_head_joint,12.539999999999822,-0.00013168337347213566
mouse_head_joint,12.559999999999821,-0.00013147876001085024
mouse_head_joint,12.57999999999982,-0.00013116110245459112
mouse_head_joint,12.59999999999982,-0.0001310574790487351
mouse_head_joint,12.61999999999982,-0.00013074753396846717
mouse_head_joint,12.63999999999982,-0.00013054438316117967
mouse_head_joint,12.659999999999819,-0.00013034147911561433
mouse_head_joint,12.679999999999819,-0.00013013906078018778
mouse_head_joint,12.699999999999818,-0.00013003983942461161
mouse_head_joint,12.719999999999818,-0.0001298373617641957
mouse_head_joint,12.739999999999817,-0.0001296360185722989
mouse_head_joint,12.759999999999817,-0.00012922202450837972
mouse_head_joint,12.779999999999816,-0.00012902144991500109
mouse_head_joint,12.799999999999816,-0.0001288212287953172
mouse_head_joint,12.819999999999816,-0.00012866478933215575
mouse_head_joint,12.839999999999815,-0.00012846532255661458
mouse_head_joint,12.859999999999815,-0.00012833306988646598
mouse_head_joint,12.879999999999814,-0.00012796031642814398
mouse_head_joint,12.899999999999814,-0.00012788462456292393
mouse_head_joint,12.919999999999813,-0.00012756404860247983
mouse_head_joint,12.939999999999813,-0.0001274472804047022
mouse_head_joint,12.959999999999813,-0.0001271498720347708
mouse_head_joint,12.979999999999812,-0.00012705327744466643
mouse_head_joint,12.999999999999812,-0.00012675137125750524
mouse_head_joint,13.019999999999811,-0.0001265560161876067
mouse_head_joint,13.03999999999981,-0.00012636038013180695
mouse_head_joint,13.05999999999981,-0.0001261651102781869
mouse_head_joint,13.07999999999981,-0.0001259715626327207
mouse_head_joint,13.09999999999981,-0.0001258783558748533
mouse_head_joint,13.11999999999981,-0.00012563297750567415
mouse_head_joint,13.139999999999809,-0.00012543921750651776
mouse_head_joint,13.159999999999808,-0.00012508545745237853
mouse_head_joint,13.179999999999808,-0.0001249930484368278
mouse_head_joint,13.199999999999807,-0.0001248004835439076
mouse_head_joint,13.219999999999807,-0.00012455208805750573
mouse_head_joint,13.239999999999807,-0.00012436029618090316
mouse_head_joint,13.259999999999806,-0.00012423544947370857
mouse_head_joint,13.279999999999806,-0.00012391329170302612
mouse_head_joint,13.299999999999805,-0.0001238033740227351
mouse_head_joint,13.319999999999805,-0.00012347325694594957
mouse_head_joint,13.339999999999804,-0.0001232834795237281
mouse_head_joint,13.359999999999804,-0.0001230940798198077
mouse_head_joint,13.379999999999804,-0.00012300525460418044
mouse_head_joint,13.399999999999803,-0.00012281498774147082
mouse_head_joint,13.419999999999803,-0.00012252558208381004
mouse_head_joint,13.439999999999802,-0.00012244037509745453
mouse_head_joint,13.459999999999802,-0.0001222529597093569
mouse_head_joint,13.479999999999801,-0.00012214094883500337
mouse_head_joint,13.499999999999801,-0.00012182894289836099
mouse_head_joint,13.5199999999998,-0.000121584449404466
mouse_head_joint,13.5399999999998,-0.00012129776443892126
mouse_head_joint,13.5599999999998,-0.00012121331943504288
mouse_head_joint,13.5799999999998,-0.00012097264665644758
mouse_head_joint,13.599999999999799,-0.00012091181553408603
mouse_head_joint,13.619999999999798,-0.00012060387897161462
mouse_head_joint,13.639999999999798,-0.00012035616431393947
mouse_head_joint,13.659999999999798,-0.00012025347511013251
mouse_head_joint,13.679999999999797,-0.00012007047526019221
mouse_head_joint,13.699999999999797,-0.0001197501292971026
mouse_head_joint,13.719999999999796,-0.00011956801147317009
mouse_head_joint,13.739999999999796,-0.0001193862816508684
mouse_head_joint,13.759999999999796,-0.00011930437326945764
mouse_head_joint,13.779999999999795,-0.00011902320614787243
mouse_head_joint,13.799999999999795,-0.00011884273790307986
mouse_head_joint,13.819999999999794,-0.00011876510882924407
mouse_head_joint,13.839999999999794,-0.00011848592814533987
mouse_head_joint,13.859999999999793,-0.00011840763506310026
mouse_head_joint,13.879999999999793,-0.000118228760351613
mouse_head_joint,13.899999999999793,-0.00011799931273603903
mouse_head_joint,13.919999999999792,-0.00011766339775931556
mouse_head_joint,13.939999999999792,-0.00011748576895698193
mouse_head_joint,13.959999999999791,-0.00011740991301145698
mouse_head_joint,13.97999999999979,-0.00011711470108277666
mouse_head_joint,13.99999999999979,-0.00011700159067462579
mouse_head_joint,14.01999999999979,-0.00011676235700175397
mouse_head_joint,14.03999999999979,-0.0001166674509933685
mouse_head_joint,14.059999999999789,-0.00011649226079413211
mouse_head_joint,14.079999999999789,-0.0001161981160020531
mouse_head_joint,14.099999999999788,-0.00011600760385732656
mouse_head_joint,14.119999999999788,-0.00011593385774766318
mouse_head_joint,14.139999999999787,-0.00011576035124249984
mouse_head_joint,14.159999999999787,-0.00011548822478779641
mouse_head_joint,14.179999999999787,-0.00011541482230370548
mouse_head_joint,14.199999999999786,-0.00011524569493737147
mouse_head_joint,14.219999999999786,-0.00011507385821918348
mouse_head_joint,14.239999999999785,-0.00011480394215368506
mouse_head_joint,14.259999999999785,-0.00011452750514973076
mouse_head_joint,14.279999999999784,-0.00011446500143286187
mouse_head_joint,14.299999999999784,-0.00011430518818400515
mouse_head_joint,14.319999999999784,-0.00011401729368465396
mouse_head_joint,14.339999999999783,-0.00011382624860090118
mouse_head_joint,14.359999999999783,-0.00011364837371008463
mouse_head_joint,14.379999999999782,-0.00011351061688280595
mouse_head_joint,14.399999999999782,-0.00011324418428682037
mouse_head_joint,14.419999999999781,-0.00011325681469287474
mouse_head_joint,14.439999999999781,-0.00011295769763375318
mouse_head_joint,14.45999999999978,-0.00011287800045245433
mouse_head_joint,14.47999999999978,-0.00011259877090274983
mouse_head_joint,14.49999999999978,-0.0001125374000894297
mouse_head_joint,14.51999999999978,-0.0001123509251597099
mouse_head_joint,14.539999999999779,-0.00011212050221853787
mouse_head_joint,14.559999999999778,-0.00011200149101764367
mouse_head_joint,14.579999999999778,-0.00011182063921388874
mouse_head_joint,14.599999999999778,-0.00011154901783250182
mouse_head_joint,14.619999999999777,-0.00011150636793910707
mouse_head_joint,14.639999999999777,-0.00011142482296566669
mouse_head_joint,14.659999999999776,-0.00011111176776612552
mouse_head_joint,14.679999999999776,-0.00011100907994521236
mouse_head_joint,14.699999999999775,-0.00011079202650776665
mouse_head_joint,14.719999999999775,-0.00011063674156641667
mouse_head_joint,14.739999999999775,-0.00011047342977565933
mouse_head_joint,14.759999999999774,-0.00011023713473790053
mouse_head_joint,14.779999999999774,-0.00010998031356113103
mouse_head_joint,14.799999999999773,-0.00010988903857267474
mouse_head_joint,14.819999999999773,-0.00010981267532450545
mouse_head_joint,14.839999999999772,-0.000109631713867131
mouse_head_joint,14.859999999999772,-0.00010938065745058623
mouse_head_joint,14.879999999999772,-0.0001093218015792985
mouse_head_joint,14.899999999999771,-0.00010898557473204562
mouse_head_joint,14.91999999999977,-0.00010893658969290954
mouse_head_joint,14.93999999999977,-0.00010876710033169701
mouse_head_joint,14.95999999999977,-0.00010855265766274158
mouse_head_joint,14.97999999999977,-0.0001084868174991982
mouse_head_joint,14.999999999999769,-0.0001082513879708813
mouse_head_joint,15.019999999999769,-0.000108269685998863
mouse_head_joint,15.039999999999768,-0.00010802268717480246
mouse_head_joint,15.059999999999768,-0.00010775478083768775
mouse_head_joint,15.079999999999767,-0.00010753085719894528
mouse_head_joint,15.099999999999767,-0.00010753108050565174
mouse_head_joint,15.119999999999767,-0.00010736949556111597
mouse_head_joint,15.139999999999766,-0.0001073124298356376
mouse_head_joint,15.159999999999766,-0.000106995201393012
mouse_head_joint,15.179999999999765,-0.00010686488102873426
mouse_head_joint,15.199999999999765,-0.00010660442710808127
mouse_head_joint,15.219999999999764,-0.00010654291563749752
mouse_head_joint,15.239999999999764,-0.00010635040278916819
mouse_head_joint,15.259999999999764,-0.0001062465104011423
mouse_head_joint,15.279999999999763,-0.00010600695876394894
mouse_head_joint,15.299999999999763,-0.00010589713051345484
mouse_head_joint,15.319999999999762,-0.00010563270821517534
mouse_head_joint,15.339999999999762,-0.0001056526701237459
mouse_head_joint,15.359999999999761,-0.00010549956077987588
mouse_head_joint,15.379999999999761,-0.0001052731236770299
mouse_head_joint,15.39999999999976,-0.00010499518934103946
mouse_head_joint,15.41999999999976,-0.00010484439038194182
mouse_head_joint,15.43999999999976,-0.00010485249152836218
mouse_head_joint,15.45999999999976,-0.00010470134423989919
mouse_head_joint,15.479999999999759,-0.0001043913130409635
mouse_head_joint,15.499999999999758,-0.00010435214839521478
mouse_head_joint,15.519999999999758,-0.00010411761400508368
mouse_head_joint,15.539999999999758,-0.00010398277304979331
mouse_head_joint,15.559999999999757,-0.00010392481338783455
mouse_head_joint,15.579999999999757,-0.00010381985341556543
mouse_head_joint,15.599999999999756,-0.00010347903734242436
mouse_head_joint,15.619999999999756,-0.0001034128020345193
mouse_head_joint,15.639999999999755,-0.00010332620113562285
mouse_head_joint,15.659999999999755,-0.00010316766138807054
mouse_head_joint,15.679999999999755,-0.00010295417314942767
mouse_head_joint,15.699999999999754,-0.0001029921972541814
mouse_head_joint,15.719999999999754,-0.0001027795635044626
mouse_head_joint,15.739999999999753,-0.00010260383946292251
mouse_head_joint,15.759999999999753,-0.00010232456101633147
mouse_head_joint,15.779999999999752,-0.0001022027417283411
mouse_head_joint,15.799999999999752,-0.00010216589296163647
mouse_head_joint,15.819999999999752,-0.0001019714976102648
mouse_head_joint,15.839999999999751,-0.00010178985739184299
mouse_head_joint,15.85999999999975,-0.00010174218284753067
mouse_head_joint,15.87999999999975,-0.00010146640326436085
mouse_head_joint,15.89999999999975,-0.00010133002616807829
mouse_head_joint,15.91999999999975,-0.00010123640448878035
mouse_head_joint,15.939999999999749,-0.00010114960955931451
mouse_head_joint,15.959999999999749,-0.0001009498803199449
mouse_head_joint,15.979999999999748,-0.00010077035171818238
mouse_head_joint,15.999999999999748,-0.00010060387732746534
mouse_head_joint,16.019999999999747,-0.00010060941210898733
mouse_head_joint,16.039999999999747,-0.00010055118727692047
mouse_head_joint,16.059999999999746,-0.00010017999193223659
mouse_head_joint,16.079999999999746,-0.00010005594132955764
mouse_head_joint,16.099999999999746,-9.990149682792548e-05
mouse_head_joint,16.119999999999745,-9.979879581134554e-05
mouse_head_joint,16.139999999999745,-9.976221533669616e-05
mouse_head_joint,16.159999999999744,-9.947362093765122e-05
mouse_head_joint,16.179999999999744,-9.946803550064942e-05
mouse_head_joint,16.199999999999743,-9.935386391379808e-05
mouse_head_joint,16.219999999999743,-9.909970391408507e-05
mouse_head_joint,16.239999999999743,-9.905930489928494e-05
mouse_head_joint,16.259999999999742,-9.904631900781169e-05
mouse_head_joint,16.279999999999742,-9.864918871294037e-05
mouse_head_joint,16.29999999999974,-9.866314343742744e-05
mouse_head_joint,16.31999999999974,-9.843302689649391e-05
mouse_head_joint,16.33999999999974,-9.827373256054983e-05
mouse_head_joint,16.35999999999974,-9.828485300467094e-05
mouse_head_joint,16.37999999999974,-9.823341589054735e-05
mouse_head_joint,16.39999999999974,-9.786832052949279e-05
mouse_head_joint,16.41999999999974,-9.786952849921704e-05
mouse_head_joint,16.43999999999974,-9.771807937131172e-05
mouse_head_joint,16.459999999999738,-9.760485103615935e-05
mouse_head_joint,16.479999999999738,-9.748045780177961e-05
mouse_head_joint,16.499999999999737,-9.746573176361295e-05
mouse_head_joint,16.519999999999737,-9.713122575938371e-05
mouse_head_joint,16.539999999999736,-9.70942830349486e-05
mouse_head_joint,16.559999999999736,-9.684588552172357e-05
mouse_head_joint,16.579999999999735,-9.681289705465446e-05
mouse_head_joint,16.599999999999735,-9.663766167467003e-05
mouse_head_joint,16.619999999999735,-9.656314330364069e-05
mouse_head_joint,16.639999999999734,-9.649439960934814e-05
mouse_head_joint,16.659999999999734,-9.628803840922018e-05
mouse_head_joint,16.679999999999733,-9.606339761170091e-05
mouse_head_joint,16.699999999999733,-9.60813303478858e-05
mouse_head_joint,16.719999999999732,-9.596368406494804e-05
mouse_head_joint,16.739999999999732,-9.567950528666103e-05
mouse_head_joint,16.75999999999973,-9.561535615354444e-05
mouse_head_joint,16.77999999999973,-9.554131295175239e-05
mouse_head_joint,16.79999999999973,-9.543641103526568e-05
mouse_head_joint,16.81999999999973,-9.531863389167228e-05
mouse_head_joint,16.83999999999973,-9.531059407574816e-05
mouse_head_joint,16.85999999999973,-9.503214013140138e-05
mouse_head_joint,16.87999999999973,-9.48319707871903e-05
mouse_head_joint,16.89999999999973,-9.471204712063752e-05
mouse_head_joint,16.919999999999728,-9.459211006479507e-05
mouse_head_joint,16.939999999999728,-9.456697168364059e-05
mouse_head_joint,16.959999999999727,-9.444946806080878e-05
mouse_head_joint,16.979999999999727,-9.429192201881875e-05
mouse_head_joint,16.999999999999726,-9.41989777665242e-05
mouse_head_joint,17.019999999999726,-9.407086118606856e-05
mouse_head_joint,17.039999999999726,-9.389570738882469e-05
mouse_head_joint,17.059999999999725,-9.388474033489302e-05
mouse_head_joint,17.079999999999725,-9.360730496243974e-05
mouse_head_joint,17.099999999999724,-9.354976831499329e-05
mouse_head_joint,17.119999999999724,-9.348209753134995e-05
mouse_head_joint,17.139999999999723,-9.328541131203849e-05
mouse_head_joint,17.159999999999723,-9.32735610934543e-05
mouse_head_joint,17.179999999999723,-9.315186336600334e-05
mouse_head_joint,17.199999999999722,-9.30007295130153e-05
mouse_head_joint,17.21999999999972,-9.292639233571265e-05
mouse_head_joint,17.23999999999972,-9.269219002305817e-05
mouse_head_joint,17.25999999999972,-9.258146774815401e-05
mouse_head_joint,17.27999999999972,-9.251396987419724e-05
mouse_head_joint,17.29999999999972,-9.245072570784885e-05
mouse_head_joint,17.31999999999972,-9.239525367377155e-05
mouse_head_joint,17.33999999999972,-9.220511630481099e-05
mouse_head_joint,17.35999999999972,-9.209235266727234e-05
mouse_head_joint,17.37999999999972,-9.192461375828742e-05
mouse_head_joint,17.399999999999718,-9.187305211888486e-05
mouse_head_joint,17.419999999999717,-9.175398411720437e-05
mouse_head_joint,17.439999999999717,-9.159776628742122e-05
mouse_head_joint,17.459999999999717,-9.153626298807893e-05
mouse_head_joint,17.479999999999716,-9.14464181915875e-05
mouse_head_joint,17.499999999999716,-9.134146806566434e-05
mouse_head_joint,17.519999999999715,-9.122609899137046e-05
mouse_head_joint,17.539999999999715,-9.1144120754727e-05
mouse_head_joint,17.559999999999715,-9.086661955048925e-05
mouse_head_joint,17.579999999999714,-9.078793424066589e-05
mouse_head_joint,17.599999999999714,-9.068274884516114e-05
mouse_head_joint,17.619999999999713,-9.07201535413904e-05
mouse_head_joint,17.639999999999713,-9.05636273831334e-05
mouse_head_joint,17.659999999999712,-9.051462193010451e-05
mouse_head_joint,17.679999999999712,-9.025556222042042e-05
mouse_head_joint,17.69999999999971,-9.022472155439942e-05
mouse_head_joint,17.71999999999971,-9.016416417662043e-05
mouse_head_joint,17.73999999999971,-9.013659158796372e-05
mouse_head_joint,17.75999999999971,-8.990637724437534e-05
mouse_head_joint,17.77999999999971,-8.975578161063424e-05
mouse_head_joint,17.79999999999971,-8.970022669529953e-05
mouse_head_joint,17.81999999999971,-8.961759837067262e-05
mouse_head_joint,17.83999999999971,-8.95187361118488e-05
mouse_head_joint,17.859999999999708,-8.952791251282122e-05
mouse_head_joint,17.879999999999708,-8.933392177734589e-05
mouse_head_joint,17.899999999999707,-8.920835435155539e-05
mouse_head_joint,17.919999999999707,-8.899041339560654e-05
mouse_head_joint,17.939999999999706,-8.890438075503937e-05
mouse_head_joint,17.959999999999706,-8.89353985629171e-05
mouse_head_joint,17.979999999999706,-8.87842513570547e-05
mouse_head_joint,17.999999999999705,-8.874156729365978e-05
mouse_head_joint,18.019999999999705,-8.8572939752396e-05
mouse_head_joint,18.039999999999704,-8.836758576347137e-05
mouse_head_joint,18.059999999999704,-8.831070841797128e-05
mouse_head_joint,18.079999999999703,-8.838831205082442e-05
mouse_head_joint,18.099999999999703,-8.823003242586225e-05
mouse_head_joint,18.119999999999703,-8.801994858576023e-05
mouse_head_joint,18.139999999999702,-8.78643156196901e-05
mouse_head_joint,18.1599999999997,-8.78944291127226e-05
mouse_head_joint,18.1799999999997,-8.781327063100974e-05
mouse_head_joint,18.1999999999997,-8.769787612639135e-05
mouse_head_joint,18.2199999999997,-8.756744191806831e-05
mouse_head_joint,18.2399999999997,-8.747115731111421e-05
mouse_head_joint,18.2599999999997,-8.729740959001475e-05
mouse_head_joint,18.2799999999997,-8.72959281741359e-05
mouse_head_joint,18.2999999999997,-8.72547159467274e-05
mouse_head_joint,18.3199999999997,-8.696937185348474e-05
mouse_head_joint,18.339999999999698,-8.707211095249079e-05
mouse_head_joint,18.359999999999697,-8.69095267352904e-05
mouse_head_joint,18.379999999999697,-8.680675789562997e-05
mouse_head_joint,18.399999999999697,-8.666005424995404e-05
mouse_head_joint,18.419999999999696,-8.667222699898502e-05
mouse_head_joint,18.439999999999696,-8.652634756423083e-05
mouse_head_joint,18.459999999999695,-8.638631876056735e-05
mouse_head_joint,18.479999999999695,-8.623713906175112e-05
mouse_head_joint,18.499999999999694,-8.627299045205206e-05
mouse_head_joint,18.519999999999694,-8.618566252938109e-05
mouse_head_joint,18.539999999999694,-8.608764534923097e-05
mouse_head_joint,18.559999999999693,-8.596364272595025e-05
mouse_head_joint,18.579999999999693,-8.57938423308724e-05
mouse_head_joint,18.599999999999692,-8.579932750762964e-05
mouse_head_joint,18.619999999999692,-8.570913163730154e-05
mouse_head_joint,18.63999999999969,-8.567409859328023e-05
mouse_head_joint,18.65999999999969,-8.553307249137276e-05
mouse_head_joint,18.67999999999969,-8.538774576205554e-05
mouse_head_joint,18.69999999999969,-8.534549560401672e-05
mouse_head_joint,18.71999999999969,-8.515372992334846e-05
mouse_head_joint,18.73999999999969,-8.520763956898492e-05
mouse_head_joint,18.75999999999969,-8.512568745899785e-05
mouse_head_joint,18.77999999999969,-8.488024336106292e-05
mouse_head_joint,18.799999999999688,-8.491954628198073e-05
mouse_head_joint,18.819999999999688,-8.479974822162006e-05
mouse_head_joint,18.839999999999687,-8.465042829186586e-05
mouse_head_joint,18.859999999999687,-8.458129397581615e-05
mouse_head_joint,18.879999999999686,-8.45746614723808e-05
mouse_head_joint,18.899999999999686,-8.451733179093424e-05
mouse_head_joint,18.919999999999686,-8.440707754164833e-05
mouse_head_joint,18.939999999999685,-8.420905172812354e-05
mouse_head_joint,18.959999999999685,-8.413037239929366e-05
mouse_head_joint,18.979999999999684,-8.409179811152967e-05
mouse_head_joint,18.999999999999684,-8.40834864561657e-05
mouse_head_joint,19.019999999999683,-8.397465759646394e-05
mouse_head_joint,19.039999999999683,-8.387680837174116e-05
mouse_head_joint,19.059999999999683,-8.378534619524203e-05
mouse_head_joint,19.079999999999682,-8.375054188647368e-05
mouse_head_joint,19.09999999999968,-8.367377715323698e-05
mouse_head_joint,19.11999999999968,-8.34339982072052e-05
mouse_head_joint,19.13999999999968,-8.340961382291567e-05
mouse_head_joint,19.15999999999968,-8.327258026952222e-05
mouse_head_joint,19.17999999999968,-8.33191847808834e-05
mouse_head_joint,19.19999999999968,-8.332564336210879e-05
mouse_head_joint,19.21999999999968,-8.301792457476864e-05
mouse_head_joint,19.23999999999968,-8.310310174586277e-05
mouse_head_joint,19.25999999999968,-8.299752424445472e-05
mouse_head_joint,19.279999999999678,-8.289981674014513e-05
mouse_head_joint,19.299999999999677,-8.282038235574163e-05
mouse_head_joint,19.319999999999677,-8.269944202332624e-05
mouse_head_joint,19.339999999999677,-8.266520369470953e-05
mouse_head_joint,19.359999999999676,-8.264533081003833e-05
mouse_head_joint,19.379999999999676,-8.240202019571541e-05
mouse_head_joint,19.399999999999675,-8.232021092702269e-05
mouse_head_joint,19.419999999999675,-8.228526228393207e-05
mouse_head_joint,19.439999999999674,-8.226608572048377e-05
mouse_head_joint,19.459999999999674,-8.224776731147188e-05
mouse_head_joint,19.479999999999674,-8.205845147379875e-05
mouse_head_joint,19.499999999999673,-8.202927586520303e-05
mouse_head_joint,19.519999999999673,-8.197873427562286e-05
mouse_head_joint,19.539999999999672,-8.19070234729935e-05
mouse_head_joint,19.559999999999672,-8.182426008129795e-05
mouse_head_joint,19.57999999999967,-8.171807138879217e-05
mouse_head_joint,19.59999999999967,-8.164230001383999e-05
mouse_head_joint,19.61999999999967,-8.158474319941433e-05
mouse_head_joint,19.63999999999967,-8.142366668550949e-05
mouse_head_joint,19.65999999999967,-8.139504217208327e-05
mouse_head_joint,19.67999999999967,-8.139693185871266e-05
mouse_head_joint,19.69999999999967,-8.135013801968682e-05
mouse_head_joint,19.71999999999967,-8.112575885554918e-05
mouse_head_joint,19.739999999999668,-8.103597889785874e-05
mouse_head_joint,19.759999999999668,-8.100592809423546e-05
mouse_head_joint,19.779999999999667,-8.103767525380334e-05
mouse_head_joint,19.799999999999667,-8.091484809824578e-05
mouse_head_joint,19.819999999999666,-8.086112632543774e-05
mouse_head_joint,19.839999999999666,-8.066747438828514e-05
mouse_head_joint,19.859999999999665,-8.062544266795868e-05
mouse_head_joint,19.879999999999665,-8.057310659381756e-05
mouse_head_joint,19.899999999999665,-8.057878545830732e-05
mouse_head_joint,19.919999999999664,-8.043004566804512e-05
mouse_head_joint,19.939999999999664,-8.03281924133259e-05
mouse_head_joint,19.959999999999663,-8.035410098550244e-05
mouse_head_joint,19.979999999999663,-8.028451611519216e-05
mouse_head_joint,19.999999999999662,-8.027165450386065e-05
mouse_head_joint,20.019999999999662,-8.014837233982774e-05
mouse_head_joint,20.03999999999966,-8.002577112620202e-05
mouse_head_joint,20.05999999999966,-8.000077833703045e-05
mouse_head_joint,20.07999999999966,-7.983475760653391e-05
mouse_head_joint,20.09999999999966,-7.982423220642687e-05
mouse_head_joint,20.11999999999966,-7.991405668583695e-05
mouse_head_joint,20.13999999999966,-7.962122868487853e-05
mouse_head_joint,20.15999999999966,-7.961040723269974e-05
mouse_head_joint,20.17999999999966,-7.948969150284313e-05
mouse_head_joint,20.19999999999966,-7.955065369635861e-05
mouse_head_joint,20.219999999999658,-7.948823787362613e-05
mouse_head_joint,20.239999999999657,-7.953029307472548e-05
mouse_head_joint,20.259999999999657,-7.931893371004861e-05
mouse_head_joint,20.279999999999657,-7.928509349142132e-05
mouse_head_joint,20.299999999999656,-7.920392802240883e-05
mouse_head_joint,20.319999999999656,-7.913893055189192e-05
mouse_head_joint,20.339999999999655,-7.903413096155276e-05
mouse_head_joint,20.359999999999655,-7.887868082434579e-05
mouse_head_joint,20.379999999999654,-7.889406716632408e-05
mouse_head_joint,20.399999999999654,-7.879160423396314e-05
mouse_head_joint,20.419999999999654,-7.871260452230189e-05
mouse_head_joint,20.439999999999653,-7.870700717305112e-05
mouse_head_joint,20.459999999999653,-7.873188292073507e-05
mouse_head_joint,20.479999999999652,-7.861906678119368e-05
mouse_head_joint,20.499999999999652,-7.857278362966014e-05
mouse_head_joint,20.51999999999965,-7.848958046263732e-05
mouse_head_joint,20.53999999999965,-7.837113865694079e-05
mouse_head_joint,20.55999999999965,-7.848069587979012e-05
mouse_head_joint,20.57999999999965,-7.830116112472751e-05
mouse_head_joint,20.59999999999965,-7.829544887627549e-05
mouse_head_joint,20.61999999999965,-7.820648990275458e-05
mouse_head_joint,20.63999999999965,-7.803647644522016e-05
mouse_head_joint,20.65999999999965,-7.798516773238617e-05
mouse_head_joint,20.679999999999648,-7.7969768388364e-05
mouse_head_joint,20.699999999999648,-7.798515797219352e-05
mouse_head_joint,20.719999999999647,-7.783802131378081e-05
mouse_head_joint,20.739999999999647,-7.773963443913345e-05
mouse_head_joint,20.759999999999646,-7.776323656383255e-05
mouse_head_joint,20.779999999999646,-7.764891407013863e-05
mouse_head_joint,20.799999999999645,-7.776095953015982e-05
mouse_head_joint,20.819999999999645,-7.747799927493304e-05
mouse_head_joint,20.839999999999645,-7.754202896848028e-05
mouse_head_joint,20.859999999999644,-7.745541531178901e-05
mouse_head_joint,20.879999999999644,-7.743344651256479e-05
mouse_head_joint,20.899999999999643,-7.729762869779222e-05
