Name,time,Position
mouse_head_joint,0.0,0.0
mouse_head_joint,0.02,0.0
mouse_head_joint,0.04,0.0
mouse_head_joint,0.06,0.0
mouse_head_joint,0.08,0.0
mouse_head_joint,0.1,0.0
mouse_head_joint,0.12000000000000001,0.0
mouse_head_joint,0.14,0.0
mouse_head_joint,0.16,0.0
mouse_head_joint,0.18,0.0
mouse_head_joint,0.19999999999999998,0.0
mouse_head_joint,0.21999999999999997,-0.0018201135557998072
mouse_head_joint,0.23999999999999996,-0.00022180075501321284
mouse_head_joint,0.25999999999999995,3.231963890915068e-05
mouse_head_joint,0.27999999999999997,7.04142522689466e-06
mouse_head_joint,0.3,6.526700548903364e-06
mouse_head_joint,0.32,-6.798519800454983e-06
mouse_head_joint,0.34,-7.645346192575175e-06
mouse_head_joint,0.36000000000000004,-8.420695214894636e-06
mouse_head_joint,0.38000000000000006,-9.583898796350354e-06
mouse_head_joint,0.4000000000000001,-1.1090413216230388e-05
mouse_head_joint,0.4200000000000001,-1.2729700826774604e-05
mouse_head_joint,0.4400000000000001,-1.4233841028499228e-05
mouse_head_joint,0.46000000000000013,-1.592273364270369e-05
mouse_head_joint,0.48000000000000015,-1.752860353931851e-05
mouse_head_joint,0.5000000000000001,-1.948571866350335e-05
mouse_head_joint,0.5200000000000001,-2.104029929572704e-05
mouse_head_joint,0.5400000000000001,-2.2916040027354256e-05
mouse_head_joint,0.5600000000000002,-2.4728119027095374e-05
mouse_head_joint,0.5800000000000002,-2.649014545763606e-05
mouse_head_joint,0.6000000000000002,-2.8187966156778543e-05
mouse_head_joint,0.6200000000000002,-3.0106418104303145e-05
mouse_head_joint,0.6400000000000002,-3.178935213821177e-05
mouse_head_joint,0.6600000000000003,-3.358452754920194e-05
mouse_head_joint,0.6800000000000003,-3.524628869033819e-05
mouse_head_joint,0.7000000000000003,-3.7026194678269064e-05
mouse_head_joint,0.7200000000000003,-3.8864864160714774e-05
mouse_head_joint,0.7400000000000003,-4.0337814725788235e-05
mouse_head_joint,0.7600000000000003,-4.2126509850248794e-05
mouse_head_joint,0.7800000000000004,-4.377005817346458e-05
mouse_head_joint,0.8000000000000004,-4.555283328677717e-05
mouse_head_joint,0.8200000000000004,-4.7541786440952194e-05
mouse_head_joint,0.8400000000000004,-4.896337775317505e-05
mouse_head_joint,0.8600000000000004,-5.054544731830646e-05
mouse_head_joint,0.8800000000000004,-5.2306551032721416e-05
mouse_head_joint,0.9000000000000005,-5.386639642157576e-05
mouse_head_joint,0.9200000000000005,-5.559924806508576e-05
mouse_head_joint,0.9400000000000005,-5.7306295398795726e-05
mouse_head_joint,0.9600000000000005,-5.896923204407045e-05
mouse_head_joint,0.9800000000000005,-6.048640901124003e-05
mouse_head_joint,1.0000000000000004,-6.195994586999376e-05
mouse_head_joint,1.0200000000000005,-6.373176800611446e-05
mouse_head_joint,1.0400000000000005,-6.507989590787133e-05
mouse_head_joint,1.0600000000000005,-6.665306538433668e-05
mouse_head_joint,1.0800000000000005,-6.8111911375901e-05
mouse_head_joint,1.1000000000000005,-6.966862500057402e-05
mouse_head_joint,1.1200000000000006,-7.126159398751497e-05
mouse_head_joint,1.1400000000000006,-7.268673852145469e-05
mouse_head_joint,1.1600000000000006,-7.408011478737819e-05
mouse_head_joint,1.1800000000000006,-7.565128556485945e-05
mouse_head_joint,1.2000000000000006,-7.720244855580205e-05
mouse_head_joint,1.2200000000000006,-7.858170926056118e-05
mouse_head_joint,1.2400000000000007,-8.011409604868902e-05
mouse_head_joint,1.2600000000000007,-8.146033906797356e-05
mouse_head_joint,1.2800000000000007,-8.297942033053118e-05
mouse_head_joint,1.3000000000000007,-8.430130704617511e-05
mouse_head_joint,1.3200000000000007,-8.562431162850714e-05
mouse_head_joint,1.3400000000000007,-8.710857024141205e-05
mouse_head_joint,1.3600000000000008,-8.850674705662698e-05
mouse_head_joint,1.3800000000000008,-8.979772473516334e-05
mouse_head_joint,1.4000000000000008,-9.100596846511877e-05
mouse_head_joint,1.4200000000000008,-9.258453868987715e-05
mouse_head_joint,1.4400000000000008,-9.379783597651681e-05
mouse_head_joint,1.4600000000000009,-9.518212485737365e-05
mouse_head_joint,1.4800000000000009,-9.637012149621427e-05
mouse_head_joint,1.5000000000000009,-9.774848531307612e-05
mouse_head_joint,1.520000000000001,-9.892331885996697e-05
mouse_head_joint,1.540000000000001,-0.00010025923218037747
mouse_head_joint,1.560000000000001,-0.00010162274502256707
mouse_head_joint,1.580000000000001,-0.00010294943355226849
mouse_head_joint,1.600000000000001,-0.00010398023618218843
mouse_head_joint,1.620000000000001,-0.00010528514455820925
mouse_head_joint,1.640000000000001,-0.00010643838436052988
mouse_head_joint,1.660000000000001,-0.00010755331432843462
mouse_head_joint,1.680000000000001,-0.00010913457379757574
mouse_head_joint,1.700000000000001,-0.00011025672350584159
mouse_head_joint,1.720000000000001,-0.00011122401214436195
mouse_head_joint,1.740000000000001,-0.00011241490124724862
mouse_head_joint,1.7600000000000011,-0.00011358599917965506
mouse_head_joint,1.7800000000000011,-0.00011450121687150983
mouse_head_joint,1.8000000000000012,-0.00011574175626272165
mouse_head_joint,1.8200000000000012,-0.00011693283359903717
mouse_head_joint,1.8400000000000012,-0.00011792989545611476
mouse_head_joint,1.8600000000000012,-0.00011910626465816421
mouse_head_joint,1.8800000000000012,-0.00012007686814907714
mouse_head_joint,1.9000000000000012,-0.00012119100646845737
mouse_head_joint,1.9200000000000013,-0.0001222065955959195
mouse_head_joint,1.9400000000000013,-0.00012332109373236477
mouse_head_joint,1.9600000000000013,-0.00012431780950894478
mouse_head_joint,1.9800000000000013,-0.00012546779051625379
mouse_head_joint,2.0000000000000013,-0.00012656712387659752
mouse_head_joint,2.0200000000000014,-0.00012765860472629953
mouse_head_joint,2.0400000000000014,-0.00012861799535102136
mouse_head_joint,2.0600000000000014,-0.00012952698796020456
mouse_head_joint,2.0800000000000014,-0.00013062981652911532
mouse_head_joint,2.1000000000000014,-0.00013169726687944916
mouse_head_joint,2.1200000000000014,-0.0001326212017334072
mouse_head_joint,2.1400000000000015,-0.00013346856686968778
mouse_head_joint,2.1600000000000015,-0.00013442876490810107
mouse_head_joint,2.1800000000000015,-0.0001353259750507263
mouse_head_joint,2.2000000000000015,-0.0001363359402937192
mouse_head_joint,2.2200000000000015,-0.00013714882627624547
mouse_head_joint,2.2400000000000015,-0.0001380699827508991
mouse_head_joint,2.2600000000000016,-0.00013907065966733967
mouse_head_joint,2.2800000000000016,-0.00013992486914826685
mouse_head_joint,2.3000000000000016,-0.00014085108079076036
mouse_head_joint,2.3200000000000016,-0.0001416284241795296
mouse_head_joint,2.3400000000000016,-0.0001426126058667876
mouse_head_joint,2.3600000000000017,-0.00014364338654448972
mouse_head_joint,2.3800000000000017,-0.00014419099143747616
mouse_head_joint,2.4000000000000017,-0.00014510039876114433
mouse_head_joint,2.4200000000000017,-0.0001458961141471704
mouse_head_joint,2.4400000000000017,-0.00014678829516068248
mouse_head_joint,2.4600000000000017,-0.00014777638408336458
mouse_head_joint,2.4800000000000018,-0.00014843315608015217
mouse_head_joint,2.5000000000000018,-0.000149310553237747
mouse_head_joint,2.520000000000002,-0.00015006631568414974
mouse_head_joint,2.540000000000002,-0.00015069894738850564
mouse_head_joint,2.560000000000002,-0.00015158867838316326
mouse_head_joint,2.580000000000002,-0.00015248016411550935
mouse_head_joint,2.600000000000002,-0.00015308477673148246
mouse_head_joint,2.620000000000002,-0.0001539211912016114
mouse_head_joint,2.640000000000002,-0.00015459741666479232
mouse_head_joint,2.660000000000002,-0.00015537709907587072
mouse_head_joint,2.680000000000002,-0.0001559925184473343
mouse_head_joint,2.700000000000002,-0.00015683779543884668
mouse_head_joint,2.720000000000002,-0.00015757925413417695
mouse_head_joint,2.740000000000002,-0.00015818720101545836
mouse_head_joint,2.760000000000002,-0.00015894161394047757
mouse_head_joint,2.780000000000002,-0.0001596885512755719
mouse_head_joint,2.800000000000002,-0.00016048667311441278
mouse_head_joint,2.820000000000002,-0.00016104066012090357
mouse_head_joint,2.840000000000002,-0.00016161469133546547
mouse_head_joint,2.860000000000002,-0.00016251487495200223
mouse_head_joint,2.880000000000002,-0.00016292773958248574
mouse_head_joint,2.900000000000002,-0.00016366589002902998
mouse_head_joint,2.920000000000002,-0.00016440042861454174
mouse_head_joint,2.940000000000002,-0.00016491702170462474
mouse_head_joint,2.960000000000002,-0.00016550986556573832
mouse_head_joint,2.980000000000002,-0.0001662097650605432
mouse_head_joint,3.000000000000002,-0.0001666949346619262
mouse_head_joint,3.0200000000000022,-0.00016726766077113098
mouse_head_joint,3.0400000000000023,-0.00016787135006257614
mouse_head_joint,3.0600000000000023,-0.0001685664489832206
mouse_head_joint,3.0800000000000023,-0.00016911910682892994
mouse_head_joint,3.1000000000000023,-0.0001695871585951636
mouse_head_joint,3.1200000000000023,-0.00017019743477764138
mouse_head_joint,3.1400000000000023,-0.0001707303422886497
mouse_head_joint,3.1600000000000024,-0.00017133275545599957
mouse_head_joint,3.1800000000000024,-0.00017199735323281118
mouse_head_joint,3.2000000000000024,-0.00017251099074933052
mouse_head_joint,3.2200000000000024,-0.0001730922697991133
mouse_head_joint,3.2400000000000024,-0.00017359324843280177
mouse_head_joint,3.2600000000000025,-0.00017411502022834924
mouse_head_joint,3.2800000000000025,-0.00017460354573994863
mouse_head_joint,3.3000000000000025,-0.00017495340431761264
mouse_head_joint,3.3200000000000025,-0.00017566932113322054
mouse_head_joint,3.3400000000000025,-0.00017605642252238596
mouse_head_joint,3.3600000000000025,-0.0001766211109899274
mouse_head_joint,3.3800000000000026,-0.00017707911427944367
mouse_head_joint,3.4000000000000026,-0.00017745438511695966
mouse_head_joint,3.4200000000000026,-0.00017790010083551522
mouse_head_joint,3.4400000000000026,-0.00017847026057093984
mouse_head_joint,3.4600000000000026,-0.00017881947413656007
mouse_head_joint,3.4800000000000026,-0.00017938475975665114
mouse_head_joint,3.5000000000000027,-0.00017980738043821276
mouse_head_joint,3.5200000000000027,-0.00018014559248147322
mouse_head_joint,3.5400000000000027,-0.00018068517049396604
mouse_head_joint,3.5600000000000027,-0.00018116516312449704
mouse_head_joint,3.5800000000000027,-0.00018148957655839126
mouse_head_joint,3.6000000000000028,-0.00018188378472583366
mouse_head_joint,3.6200000000000028,-0.00018241005038710512
mouse_head_joint,3.640000000000003,-0.00018290625328720722
mouse_head_joint,3.660000000000003,-0.00018304779350586386
mouse_head_joint,3.680000000000003,-0.00018341999624738037
mouse_head_joint,3.700000000000003,-0.0001839169039872246
mouse_head_joint,3.720000000000003,-0.00018437730699361055
mouse_head_joint,3.740000000000003,-0.00018474013296376768
mouse_head_joint,3.760000000000003,-0.00018499702800767182
mouse_head_joint,3.780000000000003,-0.00018532858554820564
mouse_head_joint,3.800000000000003,-0.00018580715119309588
mouse_head_joint,3.820000000000003,-0.00018601710280208295
mouse_head_joint,3.840000000000003,-0.00018642885435937728
mouse_head_joint,3.860000000000003,-0.00018670556410782524
mouse_head_joint,3.880000000000003,-0.0001871571111795589
mouse_head_joint,3.900000000000003,-0.00018738717570609964
mouse_head_joint,3.920000000000003,-0.0001878313583087987
mouse_head_joint,3.940000000000003,-0.00018818883109084084
mouse_head_joint,3.960000000000003,-0.00018840741570524955
mouse_head_joint,3.980000000000003,-0.00018883500890432003
mouse_head_joint,4.000000000000003,-0.000189131396362896
mouse_head_joint,4.020000000000002,-0.00018941622031665162
mouse_head_joint,4.040000000000002,-0.00018955153557342896
mouse_head_joint,4.060000000000001,-0.00018982697772607082
mouse_head_joint,4.080000000000001,-0.00019031724370499603
mouse_head_joint,4.1000000000000005,-0.00019058325056420244
mouse_head_joint,4.12,-0.00019084155012105697
mouse_head_joint,4.14,-0.00019109823541541004
mouse_head_joint,4.159999999999999,-0.00019134604072679195
mouse_head_joint,4.179999999999999,-0.0001915935177656536
mouse_head_joint,4.199999999999998,-0.0001918508015208431
mouse_head_joint,4.219999999999998,-0.00019208919863711316
mouse_head_joint,4.2399999999999975,-0.00019222672912011518
mouse_head_joint,4.259999999999997,-0.00019249384196307062
mouse_head_joint,4.279999999999997,-0.00019271885375005127
mouse_head_joint,4.299999999999996,-0.00019315702370725774
mouse_head_joint,4.319999999999996,-0.00019324365754957995
mouse_head_joint,4.339999999999995,-0.0001934553744531442
mouse_head_joint,4.359999999999995,-0.00019389613872444755
mouse_head_joint,4.379999999999995,-0.00019399497763661344
mouse_head_joint,4.399999999999994,-0.00019429848886165502
mouse_head_joint,4.419999999999994,-0.00019444859688988458
mouse_head_joint,4.439999999999993,-0.00019454819374864485
mouse_head_joint,4.459999999999993,-0.00019482539847803793
mouse_head_joint,4.479999999999992,-0.0001949020082854247
mouse_head_joint,4.499999999999992,-0.00019517474146901748
mouse_head_joint,4.519999999999992,-0.00019534913149588107
mouse_head_joint,4.539999999999991,-0.00019540158621200732
mouse_head_joint,4.559999999999991,-0.00019567284074106794
mouse_head_joint,4.57999999999999,-0.0001957247435635523
mouse_head_joint,4.59999999999999,-0.00019599939586090187
mouse_head_joint,4.6199999999999894,-0.00019605308646752917
mouse_head_joint,4.639999999999989,-0.00019635946762441847
mouse_head_joint,4.659999999999989,-0.00019650608319299323
mouse_head_joint,4.679999999999988,-0.00019664906862537634
mouse_head_joint,4.699999999999988,-0.00019669740399308466
mouse_head_joint,4.719999999999987,-0.0001969590905739338
mouse_head_joint,4.739999999999987,-0.0001970005692220056
mouse_head_joint,4.7599999999999865,-0.00019708984116562078
mouse_head_joint,4.779999999999986,-0.00019736760673705334
mouse_head_joint,4.799999999999986,-0.00019745115323654971
mouse_head_joint,4.819999999999985,-0.00019745125012615716
mouse_head_joint,4.839999999999985,-0.0001976814076094513
mouse_head_joint,4.859999999999984,-0.0001978593848930288
mouse_head_joint,4.879999999999984,-0.00019794544335560715
mouse_head_joint,4.8999999999999835,-0.00019804788654731453
mouse_head_joint,4.919999999999983,-0.00019804576371118543
mouse_head_joint,4.939999999999983,-0.00019824285168557054
mouse_head_joint,4.959999999999982,-0.0001982208572171018
mouse_head_joint,4.979999999999982,-0.00019842245442447393
mouse_head_joint,4.999999999999981,-0.00019840338545584757
mouse_head_joint,5.019999999999981,-0.00019863062446834334
mouse_head_joint,5.0399999999999805,-0.00019858656126459096
mouse_head_joint,5.05999999999998,-0.0001988134734016711
mouse_head_joint,5.07999999999998,-0.00019879199302774708
mouse_head_joint,5.099999999999979,-0.00019898250559968744
mouse_head_joint,5.119999999999979,-0.00019904816372573464
mouse_head_joint,5.139999999999978,-0.0001992081665536105
mouse_head_joint,5.159999999999978,-0.00019926760197019888
mouse_head_joint,5.1799999999999775,-0.00019905218052151952
mouse_head_joint,5.199999999999977,-0.00019921871245465184
mouse_head_joint,5.219999999999977,-0.00019926874602127498
mouse_head_joint,5.239999999999976,-0.00019937416522886053
mouse_head_joint,5.259999999999976,-0.00019933047698028616
mouse_head_joint,5.279999999999975,-0.00019945878076121915
mouse_head_joint,5.299999999999975,-0.0001993519174678937
mouse_head_joint,5.3199999999999745,-0.00019949625521675785
mouse_head_joint,5.339999999999974,-0.00019952800727640607
mouse_head_joint,5.359999999999974,-0.00019944907848046256
mouse_head_joint,5.379999999999973,-0.00019959187217288843
mouse_head_joint,5.399999999999973,-0.00019951408245599822
mouse_head_joint,5.419999999999972,-0.0001995566754366962
mouse_head_joint,5.439999999999972,-0.0001995974585042859
mouse_head_joint,5.4599999999999715,-0.00019961179146665842
mouse_head_joint,5.479999999999971,-0.000199742143117021
mouse_head_joint,5.499999999999971,-0.00019963250391885623
mouse_head_joint,5.51999999999997,-0.0001995746408507415
mouse_head_joint,5.53999999999997,-0.00019973829381214614
mouse_head_joint,5.559999999999969,-0.00019957862869279808
mouse_head_joint,5.579999999999969,-0.000199687292934847
mouse_head_joint,5.599999999999969,-0.00019973311043131048
mouse_head_joint,5.619999999999968,-0.0001997570386249592
mouse_head_joint,5.639999999999968,-0.0001997157971267427
mouse_head_joint,5.659999999999967,-0.00019957534721726233
mouse_head_joint,5.679999999999967,-0.00019953532845473632
mouse_head_joint,5.699999999999966,-0.00019963816188273142
mouse_head_joint,5.719999999999966,-0.00019949392166029867
mouse_head_joint,5.739999999999966,-0.0001994712390578357
mouse_head_joint,5.759999999999965,-0.00019956025822231993
mouse_head_joint,5.779999999999965,-0.00019942914203241457
mouse_head_joint,5.799999999999964,-0.00019951630372894158
mouse_head_joint,5.819999999999964,-0.00019948390012114459
mouse_head_joint,5.839999999999963,-0.00019946618362620683
mouse_head_joint,5.859999999999963,-0.00019932960142554634
mouse_head_joint,5.879999999999963,-0.00019940600907641937
mouse_head_joint,5.899999999999962,-0.00019936409086884765
mouse_head_joint,5.919999999999962,-0.00019923763926588123
mouse_head_joint,5.939999999999961,-0.00019924564614814955
mouse_head_joint,5.959999999999961,-0.0001990338553055082
mouse_head_joint,5.9799999999999605,-0.00019909079197777402
mouse_head_joint,5.99999999999996,-0.00019899801257228233
mouse_head_joint,6.01999999999996,-0.00019902454281162107
mouse_head_joint,6.039999999999959,-0.0001989667450859045
mouse_head_joint,6.059999999999959,-0.0001988691563159506
mouse_head_joint,6.079999999999958,-0.0027795830471699645
mouse_head_joint,6.099999999999958,-0.008555068793619114
mouse_head_joint,6.1199999999999575,-0.012163154794070152
mouse_head_joint,6.139999999999957,-0.019255443760728852
mouse_head_joint,6.159999999999957,-0.027171125132777085
mouse_head_joint,6.179999999999956,-0.029157591294867835
mouse_head_joint,6.199999999999956,-0.03134716217891054
mouse_head_joint,6.219999999999955,-0.03433420759474792
mouse_head_joint,6.239999999999955,-0.03770729226310365
mouse_head_joint,6.2599999999999545,-0.03808059248704687
mouse_head_joint,6.279999999999954,-0.0380268631842009
mouse_head_joint,6.299999999999954,-0.03935750596407761
mouse_head_joint,6.319999999999953,-0.042044481148301394
mouse_head_joint,6.339999999999953,-0.04494673207784583
mouse_head_joint,6.359999999999952,-0.0490784026023503
mouse_head_joint,6.379999999999952,-0.05170161130384621
mouse_head_joint,6.3999999999999515,-0.05696969287886766
mouse_head_joint,6.419999999999951,-0.06423104447725159
mouse_head_joint,6.439999999999951,-0.07077660613349224
mouse_head_joint,6.45999999999995,-0.07565889284096894
mouse_head_joint,6.47999999999995,-0.07644503720466744
mouse_head_joint,6.499999999999949,-0.07879836180257449
mouse_head_joint,6.519999999999949,-0.08813458535099805
mouse_head_joint,6.5399999999999485,-0.09582029772778888
mouse_head_joint,6.559999999999948,-0.09900005758050234
mouse_head_joint,6.579999999999948,-0.10517338604267934
mouse_head_joint,6.599999999999947,-0.11540158335482076
mouse_head_joint,6.619999999999947,-0.12048452201966953
mouse_head_joint,6.639999999999946,-0.12103432462124353
mouse_head_joint,6.659999999999946,-0.12606077019222273
mouse_head_joint,6.6799999999999455,-0.13646302010312272
mouse_head_joint,6.699999999999945,-0.14066650398404423
mouse_head_joint,6.719999999999945,-0.14296995249047573
mouse_head_joint,6.739999999999944,-0.14507001154382682
mouse_head_joint,6.759999999999944,-0.14501520589134298
mouse_head_joint,6.779999999999943,-0.14630384917122274
mouse_head_joint,6.799999999999943,-0.15104420582666922
mouse_head_joint,6.8199999999999426,-0.15802955709071487
mouse_head_joint,6.839999999999942,-0.1664679266098128
mouse_head_joint,6.859999999999942,-0.17333398026554914
mouse_head_joint,6.879999999999941,-0.1764133979867646
mouse_head_joint,6.899999999999941,-0.17801355967978783
mouse_head_joint,6.91999999999994,-0.18264277192637746
mouse_head_joint,6.93999999999994,-0.18530763963739982
mouse_head_joint,6.95999999999994,-0.18993909418578436
mouse_head_joint,6.979999999999939,-0.194618596777957
mouse_head_joint,6.999999999999939,-0.1912834349015684
mouse_head_joint,7.019999999999938,-0.18849955281298048
mouse_head_joint,7.039999999999938,-0.1895658395059785
mouse_head_joint,7.059999999999937,-0.19073938820738423
mouse_head_joint,7.079999999999937,-0.19371340542145798
mouse_head_joint,7.099999999999937,-0.20318790900207606
mouse_head_joint,7.119999999999936,-0.2125254508809009
mouse_head_joint,7.139999999999936,-0.2195950323045599
mouse_head_joint,7.159999999999935,-0.22670076865210298
mouse_head_joint,7.179999999999935,-0.2277598788294135
mouse_head_joint,7.1999999999999345,-0.23015989128152103
mouse_head_joint,7.219999999999934,-0.23440618477242392
mouse_head_joint,7.239999999999934,-0.23477946721583098
mouse_head_joint,7.259999999999933,-0.2336901811685692
mouse_head_joint,7.279999999999933,-0.23647593193537908
mouse_head_joint,7.299999999999932,-0.2441162051346275
mouse_head_joint,7.319999999999932,-0.2494429088137604
mouse_head_joint,7.3399999999999315,-0.2485947018091208
mouse_head_joint,7.359999999999931,-0.24731954374707232
mouse_head_joint,7.379999999999931,-0.2535733301735723
mouse_head_joint,7.39999999999993,-0.2584090576511011
mouse_head_joint,7.41999999999993,-0.25769714834328994
mouse_head_joint,7.439999999999929,-0.2576791180424376
mouse_head_joint,7.459999999999929,-0.26424181781745837
mouse_head_joint,7.4799999999999285,-0.2697702468327865
mouse_head_joint,7.499999999999928,-0.27251656298736293
mouse_head_joint,7.519999999999928,-0.27593229442325473
mouse_head_joint,7.539999999999927,-0.2780329921559419
mouse_head_joint,7.559999999999927,-0.28268894914144393
mouse_head_joint,7.579999999999926,-0.28834311468173457
mouse_head_joint,7.599999999999926,-0.28459592796971656
mouse_head_joint,7.6199999999999255,-0.2813208840975454
mouse_head_joint,7.639999999999925,-0.2819296379627083
mouse_head_joint,7.659999999999925,-0.2819592120814569
mouse_head_joint,7.679999999999924,-0.2835480312873244
mouse_head_joint,7.699999999999924,-0.28014928659757654
mouse_head_joint,7.719999999999923,-0.2816937773675088
mouse_head_joint,7.739999999999923,-0.2804124806074304
mouse_head_joint,7.7599999999999225,-0.27897641186278577
mouse_head_joint,7.779999999999922,-0.27729238781547494
mouse_head_joint,7.799999999999922,-0.27633624535802337
mouse_head_joint,7.819999999999921,-0.27333334585093727
mouse_head_joint,7.839999999999921,-0.26832174494586614
mouse_head_joint,7.85999999999992,-0.27026244076913297
mouse_head_joint,7.87999999999992,-0.272587665124675
mouse_head_joint,7.8999999999999195,-0.263816915389798
mouse_head_joint,7.919999999999919,-0.2566015719916619
mouse_head_joint,7.939999999999919,-0.2516733865266323
mouse_head_joint,7.959999999999918,-0.24713891179622127
mouse_head_joint,7.979999999999918,-0.2436524611833093
mouse_head_joint,7.999999999999917,-0.24135339995881555
mouse_head_joint,8.019999999999918,-0.24274410278063208
mouse_head_joint,8.039999999999917,-0.23968417850273926
mouse_head_joint,8.059999999999917,-0.2385458685909132
mouse_head_joint,8.079999999999917,-0.24450567319936134
mouse_head_joint,8.099999999999916,-0.25124598606715765
mouse_head_joint,8.119999999999916,-0.25597428126235133
mouse_head_joint,8.139999999999915,-0.25470499846012373
mouse_head_joint,8.159999999999915,-0.2497871006014467
mouse_head_joint,8.179999999999914,-0.24486193011269108
mouse_head_joint,8.199999999999914,-0.24103117382242
mouse_head_joint,8.219999999999914,-0.2405015775761017
mouse_head_joint,8.239999999999913,-0.24546087458702726
mouse_head_joint,8.259999999999913,-0.24913992881161118
mouse_head_joint,8.279999999999912,-0.249131844665893
mouse_head_joint,8.299999999999912,-0.25085199236523525
mouse_head_joint,8.319999999999911,-0.2579891120581914
mouse_head_joint,8.339999999999911,-0.26599820362422744
mouse_head_joint,8.35999999999991,-0.2723290192305834
mouse_head_joint,8.37999999999991,-0.2724723829424214
mouse_head_joint,8.39999999999991,-0.2678050999681849
mouse_head_joint,8.41999999999991,-0.2660419871736144
mouse_head_joint,8.439999999999909,-0.26496899166629806
mouse_head_joint,8.459999999999908,-0.2640425717212631
mouse_head_joint,8.479999999999908,-0.26313080262012445
mouse_head_joint,8.499999999999908,-0.2622672257884231
mouse_head_joint,8.519999999999907,-0.26136034220324333
mouse_head_joint,8.539999999999907,-0.2604093352273704
mouse_head_joint,8.559999999999906,-0.25501356205699377
mouse_head_joint,8.579999999999906,-0.2519460030851137
mouse_head_joint,8.599999999999905,-0.257844045884311
mouse_head_joint,8.619999999999905,-0.2588958026544077
mouse_head_joint,8.639999999999905,-0.25829002219027597
mouse_head_joint,8.659999999999904,-0.2622920798632409
mouse_head_joint,8.679999999999904,-0.26414046586151674
mouse_head_joint,8.699999999999903,-0.2592179721954677
mouse_head_joint,8.719999999999903,-0.2568730679638662
mouse_head_joint,8.739999999999903,-0.25256412642929504
mouse_head_joint,8.759999999999902,-0.2501379289631682
mouse_head_joint,8.779999999999902,-0.24925216102159364
mouse_head_joint,8.799999999999901,-0.244007131091327
mouse_head_joint,8.8199999999999,-0.23881072340200582
mouse_head_joint,8.8399999999999,-0.2402168027108793
mouse_head_joint,8.8599999999999,-0.24368630936494462
mouse_head_joint,8.8799999999999,-0.2435737248438521
mouse_head_joint,8.899999999999899,-0.23660542110763405
mouse_head_joint,8.919999999999899,-0.23195030513522497
mouse_head_joint,8.939999999999898,-0.2379794020614341
mouse_head_joint,8.959999999999898,-0.24234313819830255
mouse_head_joint,8.979999999999897,-0.2456201859088818
mouse_head_joint,8.999999999999897,-0.24894644347618922
mouse_head_joint,9.019999999999897,-0.2505507554747357
mouse_head_joint,9.039999999999896,-0.2544590778905995
mouse_head_joint,9.059999999999896,-0.25902873963742046
mouse_head_joint,9.079999999999895,-0.2590206591883568
mouse_head_joint,9.099999999999895,-0.25006461238976563
mouse_head_joint,9.119999999999894,-0.24369873431017552
mouse_head_joint,9.139999999999894,-0.24226256424103543
mouse_head_joint,9.159999999999894,-0.23750090348750597
mouse_head_joint,9.179999999999893,-0.22882140632316794
mouse_head_joint,9.199999999999893,-0.22561889333307406
mouse_head_joint,9.219999999999892,-0.2269614097159085
mouse_head_joint,9.239999999999892,-0.23014362143148936
mouse_head_joint,9.259999999999891,-0.2359574219760603
mouse_head_joint,9.279999999999891,-0.23753632333201136
mouse_head_joint,9.29999999999989,-0.23966547769736657
mouse_head_joint,9.31999999999989,-0.2428113966871841
mouse_head_joint,9.33999999999989,-0.24461628302277294
mouse_head_joint,9.35999999999989,-0.2472651014203615
mouse_head_joint,9.379999999999889,-0.25099218274550505
mouse_head_joint,9.399999999999888,-0.2557658580885196
mouse_head_joint,9.419999999999888,-0.2565618302402264
mouse_head_joint,9.439999999999888,-0.257137106199659
mouse_head_joint,9.459999999999887,-0.2568254696131236
mouse_head_joint,9.479999999999887,-0.25426828864466344
mouse_head_joint,9.499999999999886,-0.25354893493664044
mouse_head_joint,9.519999999999886,-0.25553016943305096
mouse_head_joint,9.539999999999885,-0.2506351045507431
mouse_head_joint,9.559999999999885,-0.2433904970658558
mouse_head_joint,9.579999999999885,-0.23667409190111588
mouse_head_joint,9.599999999999884,-0.23275928590793615
mouse_head_joint,9.619999999999884,-0.22995992293343814
mouse_head_joint,9.639999999999883,-0.22104932156237656
mouse_head_joint,9.659999999999883,-0.21809845285518836
mouse_head_joint,9.679999999999882,-0.21915803960699076
mouse_head_joint,9.699999999999882,-0.2185235178884506
mouse_head_joint,9.719999999999882,-0.21624670949600144
mouse_head_joint,9.739999999999881,-0.2138701010345594
mouse_head_joint,9.75999999999988,-0.21562286689351762
mouse_head_joint,9.77999999999988,-0.2170716959806418
mouse_head_joint,9.79999999999988,-0.21435913923262895
mouse_head_joint,9.81999999999988,-0.21796356277159923
mouse_head_joint,9.839999999999879,-0.2270756733519228
mouse_head_joint,9.859999999999879,-0.2364835538382124
mouse_head_joint,9.879999999999878,-0.24132408033618447
mouse_head_joint,9.899999999999878,-0.23756062471721773
mouse_head_joint,9.919999999999877,-0.23858027886078226
mouse_head_joint,9.939999999999877,-0.24681316035015577
mouse_head_joint,9.959999999999877,-0.2521487823625783
mouse_head_joint,9.979999999999876,-0.25650169760997876
mouse_head_joint,9.999999999999876,-0.26050608296452893
mouse_head_joint,10.019999999999875,-0.25932987877182967
mouse_head_joint,10.039999999999875,-0.2542129626403753
mouse_head_joint,10.059999999999874,-0.25328031772923154
mouse_head_joint,10.079999999999874,-0.25501814331134653
mouse_head_joint,10.099999999999874,-0.2573324786478981
mouse_head_joint,10.119999999999873,-0.26335302259585447
mouse_head_joint,10.139999999999873,-0.26630340480436043
mouse_head_joint,10.159999999999872,-0.2607603592280263
mouse_head_joint,10.179999999999872,-0.25503860574145953
mouse_head_joint,10.199999999999871,-0.253046708572219
mouse_head_joint,10.219999999999871,-0.25201330864807225
mouse_head_joint,10.23999999999987,-0.25096609632249667
mouse_head_joint,10.25999999999987,-0.2507422949081697
mouse_head_joint,10.27999999999987,-0.25117001412771955
mouse_head_joint,10.29999999999987,-0.2559554786013658
mouse_head_joint,10.319999999999869,-0.260929376443932
mouse_head_joint,10.339999999999868,-0.2566436879382774
mouse_head_joint,10.359999999999868,-0.25470599728751786
mouse_head_joint,10.379999999999868,-0.2555102579449642
mouse_head_joint,10.399999999999867,-0.24990492536675468
mouse_head_joint,10.419999999999867,-0.24716477267380377
mouse_head_joint,10.439999999999866,-0.245920177434094
mouse_head_joint,10.459999999999866,-0.24933639433906585
mouse_head_joint,10.479999999999865,-0.2530509365412019
mouse_head_joint,10.499999999999865,-0.2518853974271966
mouse_head_joint,10.519999999999865,-0.25828759537007606
mouse_head_joint,10.539999999999864,-0.2653987924386847
mouse_head_joint,10.559999999999864,-0.2692400810353366
mouse_head_joint,10.579999999999863,-0.2664610868520869
mouse_head_joint,10.599999999999863,-0.262232995029283
mouse_head_joint,10.619999999999862,-0.25930822601951853
mouse_head_joint,10.639999999999862,-0.2633311990820566
mouse_head_joint,10.659999999999862,-0.2690557701230656
mouse_head_joint,10.679999999999861,-0.271166110153624
mouse_head_joint,10.69999999999986,-0.2722014421354828
mouse_head_joint,10.71999999999986,-0.2733562072935172
mouse_head_joint,10.73999999999986,-0.27650929361082
mouse_head_joint,10.75999999999986,-0.2803760058294831
mouse_head_joint,10.779999999999859,-0.2824679261702636
mouse_head_joint,10.799999999999859,-0.28173326326353365
mouse_head_joint,10.819999999999858,-0.2791700198078315
mouse_head_joint,10.839999999999858,-0.2736505329441945
mouse_head_joint,10.859999999999857,-0.2702115014126356
mouse_head_joint,10.879999999999857,-0.2689735973494711
mouse_head_joint,10.899999999999856,-0.26786414214188436
mouse_head_joint,10.919999999999856,-0.26804359792983323
mouse_head_joint,10.939999999999856,-0.2689061018976
mouse_head_joint,10.959999999999855,-0.271477734485865
mouse_head_joint,10.979999999999855,-0.2728834542914216
mouse_head_joint,10.999999999999854,-0.2647372932302927
mouse_head_joint,11.019999999999854,-0.2570517112817017
mouse_head_joint,11.039999999999853,-0.2521362819059938
mouse_head_joint,11.059999999999853,-0.24930186185704173
mouse_head_joint,11.079999999999853,-0.2479714371198396
mouse_head_joint,11.099999999999852,-0.24713158606688435
mouse_head_joint,11.119999999999852,-0.24809797254136168
mouse_head_joint,11.139999999999851,-0.245553357279225
mouse_head_joint,11.159999999999851,-0.24435899881839251
mouse_head_joint,11.17999999999985,-0.24853984023348197
mouse_head_joint,11.19999999999985,-0.24770306128349429
mouse_head_joint,11.21999999999985,-0.2486484424881743
mouse_head_joint,11.23999999999985,-0.24789034242692587
mouse_head_joint,11.259999999999849,-0.24746799871560743
mouse_head_joint,11.279999999999848,-0.2478615866957954
mouse_head_joint,11.299999999999848,-0.24840283791600726
mouse_head_joint,11.319999999999848,-0.2533549683374492
mouse_head_joint,11.339999999999847,-0.25837628244737765
mouse_head_joint,11.359999999999847,-0.25461403024467977
mouse_head_joint,11.379999999999846,-0.2495660421183059
mouse_head_joint,11.399999999999846,-0.25544502338153574
mouse_head_joint,11.419999999999845,-0.25939358669766666
mouse_head_joint,11.439999999999845,-0.2590275264135311
mouse_head_joint,11.459999999999845,-0.25806580391698564
mouse_head_joint,11.479999999999844,-0.2570253501420927
mouse_head_joint,11.499999999999844,-0.25827958942783535
mouse_head_joint,11.519999999999843,-0.26128926822007603
mouse_head_joint,11.539999999999843,-0.2579576241000101
mouse_head_joint,11.559999999999842,-0.24908069570670044
mouse_head_joint,11.579999999999842,-0.2442652539892345
mouse_head_joint,11.599999999999842,-0.2397620102465181
mouse_head_joint,11.619999999999841,-0.2342244139924654
mouse_head_joint,11.63999999999984,-0.22787522760557888
mouse_head_joint,11.65999999999984,-0.22922583961868437
mouse_head_joint,11.67999999999984,-0.23253778792582036
mouse_head_joint,11.69999999999984,-0.23635549749008877
mouse_head_joint,11.719999999999839,-0.2470446707609666
mouse_head_joint,11.739999999999839,-0.25122101171284505
mouse_head_joint,11.759999999999838,-0.2521339545163661
mouse_head_joint,11.779999999999838,-0.25735328864478024
mouse_head_joint,11.799999999999837,-0.2581051943836403
mouse_head_joint,11.819999999999837,-0.2534747466945877
mouse_head_joint,11.839999999999836,-0.246887775127818
mouse_head_joint,11.859999999999836,-0.2439289124324242
mouse_head_joint,11.879999999999836,-0.2421623851657113
mouse_head_joint,11.899999999999835,-0.24011974567841143
mouse_head_joint,11.919999999999835,-0.23776604305431803
mouse_head_joint,11.939999999999834,-0.23722943745422143
mouse_head_joint,11.959999999999834,-0.24214834347583825
mouse_head_joint,11.979999999999833,-0.2476429488658214
mouse_head_joint,11.999999999999833,-0.2499700137145604
mouse_head_joint,12.019999999999833,-0.2548882860925792
mouse_head_joint,12.039999999999832,-0.25546580319843937
mouse_head_joint,12.059999999999832,-0.25301039926515934
mouse_head_joint,12.079999999999831,-0.2538535363434171
mouse_head_joint,12.099999999999831,-0.25345107146280643
mouse_head_joint,12.11999999999983,-0.2514963036454061
mouse_head_joint,12.13999999999983,-0.2493169272773983
mouse_head_joint,12.15999999999983,-0.2511586626289013
mouse_head_joint,12.17999999999983,-0.25481947483715217
mouse_head_joint,12.199999999999829,-0.2576402660967805
mouse_head_joint,12.219999999999828,-0.26250552775911906
mouse_head_joint,12.239999999999828,-0.2653097943973215
mouse_head_joint,12.259999999999827,-0.2670136576287394
mouse_head_joint,12.279999999999827,-0.26625494824850726
mouse_head_joint,12.299999999999827,-0.2590101803842444
mouse_head_joint,12.319999999999826,-0.25402569959260735
mouse_head_joint,12.339999999999826,-0.25388104847035997
mouse_head_joint,12.359999999999825,-0.2539111865888035
mouse_head_joint,12.379999999999825,-0.2503065013141086
mouse_head_joint,12.399999999999824,-0.2476609547510602
mouse_head_joint,12.419999999999824,-0.2462416192150405
mouse_head_joint,12.439999999999824,-0.2452576630888803
mouse_head_joint,12.459999999999823,-0.2426320245193887
mouse_head_joint,12.479999999999823,-0.23768584698969786
mouse_head_joint,12.499999999999822,-0.23353084417499925
mouse_head_joint,12.519999999999822,-0.23319433963572678
mouse_head_joint,12.539999999999822,-0.23471908514719964
mouse_head_joint,12.559999999999821,-0.23070580414384345
mouse_head_joint,12.57999999999982,-0.22507357844925036
mouse_head_joint,12.59999999999982,-0.23018700933631475
mouse_head_joint,12.61999999999982,-0.23443390166638967
mouse_head_joint,12.63999999999982,-0.2420113446784269
mouse_head_joint,12.659999999999819,-0.24299750752635685
mouse_head_joint,12.679999999999819,-0.2414477578514358
mouse_head_joint,12.699999999999818,-0.24846474918138384
mouse_head_joint,12.719999999999818,-0.2594357424041984
mouse_head_joint,12.739999999999817,-0.2606403907332835
mouse_head_joint,12.759999999999817,-0.2506591496570927
mouse_head_joint,12.779999999999816,-0.24044851969075953
mouse_head_joint,12.799999999999816,-0.23201225037887419
mouse_head_joint,12.819999999999816,-0.23289066954384818
mouse_head_joint,12.839999999999815,-0.23476304947746662
mouse_head_joint,12.859999999999815,-0.23421429069834154
mouse_head_joint,12.879999999999814,-0.23568167508937687
mouse_head_joint,12.899999999999814,-0.239395798434197
mouse_head_joint,12.919999999999813,-0.2389794306474764
mouse_head_joint,12.939999999999813,-0.24013486507985338
mouse_head_joint,12.959999999999813,-0.24456327490262542
mouse_head_joint,12.979999999999812,-0.25186489874360607
mouse_head_joint,12.999999999999812,-0.2562169302161328
mouse_head_joint,13.019999999999811,-0.25281957497011565
mouse_head_joint,13.03999999999981,-0.2530937022585862
mouse_head_joint,13.05999999999981,-0.26077411367242664
mouse_head_joint,13.07999999999981,-0.27144938814550645
mouse_head_joint,13.09999999999981,-0.27722271962066003
mouse_head_joint,13.11999999999981,-0.2806757709394745
mouse_head_joint,13.139999999999809,-0.2861955560906715
mouse_head_joint,13.159999999999808,-0.28464114566091414
mouse_head_joint,13.179999999999808,-0.27591438270568425
mouse_head_joint,13.199999999999807,-0.26741710207129543
mouse_head_joint,13.219999999999807,-0.2632042289743639
mouse_head_joint,13.239999999999807,-0.26550786010914695
mouse_head_joint,13.259999999999806,-0.2659307860152538
mouse_head_joint,13.279999999999806,-0.26555972259996086
mouse_head_joint,13.299999999999805,-0.26583611431264487
mouse_head_joint,13.319999999999805,-0.26448776507069205
mouse_head_joint,13.339999999999804,-0.2644132226888667
mouse_head_joint,13.359999999999804,-0.2660306577511484
mouse_head_joint,13.379999999999804,-0.26197133652874527
mouse_head_joint,13.399999999999803,-0.2645997016637125
mouse_head_joint,13.419999999999803,-0.2706309928317765
mouse_head_joint,13.439999999999802,-0.2694935500535456
mouse_head_joint,13.459999999999802,-0.2667197539163846
mouse_head_joint,13.479999999999801,-0.26677155348161374
mouse_head_joint,13.499999999999801,-0.26690872923560605
mouse_head_joint,13.5199999999998,-0.2631186565267054
mouse_head_joint,13.5399999999998,-0.261605482865952
mouse_head_joint,13.5599999999998,-0.2639603128317072
mouse_head_joint,13.5799999999998,-0.26807876961508104
mouse_head_joint,13.599999999999799,-0.26957485261689396
mouse_head_joint,13.619999999999798,-0.27119269029719284
mouse_head_joint,13.639999999999798,-0.27211086703784737
mouse_head_joint,13.659999999999798,-0.27347584174894557
mouse_head_joint,13.679999999999797,-0.27360333319945074
mouse_head_joint,13.699999999999797,-0.27374404707506894
mouse_head_joint,13.719999999999796,-0.27617437525433086
mouse_head_joint,13.739999999999796,-0.2766648775860894
mouse_head_joint,13.759999999999796,-0.2701444158922781
mouse_head_joint,13.779999999999795,-0.2650899411627732
mouse_head_joint,13.799999999999795,-0.2571295269067422
mouse_head_joint,13.819999999999794,-0.24936061172806845
mouse_head_joint,13.839999999999794,-0.2424900303564943
mouse_head_joint,13.859999999999793,-0.2400911479924357
mouse_head_joint,13.879999999999793,-0.24024196067305237
mouse_head_joint,13.899999999999793,-0.2442774781115835
mouse_head_joint,13.919999999999792,-0.24976235080388332
mouse_head_joint,13.939999999999792,-0.25534116363319814
mouse_head_joint,13.959999999999791,-0.25592327642686996
mouse_head_joint,13.97999999999979,-0.25139603461755566
mouse_head_joint,13.99999999999979,-0.25565770588814996
mouse_head_joint,14.01999999999979,-0.26256115591218165
mouse_head_joint,14.03999999999979,-0.264925938317476
mouse_head_joint,14.059999999999789,-0.26431765800335505
mouse_head_joint,14.079999999999789,-0.26241000895678646
mouse_head_joint,14.099999999999788,-0.2583382736607813
mouse_head_joint,14.119999999999788,-0.25636717451281577
mouse_head_joint,14.139999999999787,-0.25657395477909617
mouse_head_joint,14.159999999999787,-0.2583152327978695
mouse_head_joint,14.179999999999787,-0.25777696183976406
mouse_head_joint,14.199999999999786,-0.2582537111357217
mouse_head_joint,14.219999999999786,-0.26179237273088507
mouse_head_joint,14.239999999999785,-0.26380788168542146
mouse_head_joint,14.259999999999785,-0.25979006498375945
mouse_head_joint,14.279999999999784,-0.2550006015206172
mouse_head_joint,14.299999999999784,-0.25544959710939974
mouse_head_joint,14.319999999999784,-0.2512546314101538
mouse_head_joint,14.339999999999783,-0.25263045100373915
mouse_head_joint,14.359999999999783,-0.2543665047301653
mouse_head_joint,14.379999999999782,-0.2495196474326571
mouse_head_joint,14.399999999999782,-0.2485883341858539
mouse_head_joint,14.419999999999781,-0.2509637516244343
mouse_head_joint,14.439999999999781,-0.24985254061096285
mouse_head_joint,14.45999999999978,-0.24335833040285682
mouse_head_joint,14.47999999999978,-0.23627555999387884
mouse_head_joint,14.49999999999978,-0.23719585489044803
mouse_head_joint,14.51999999999978,-0.24046617073918153
mouse_head_joint,14.539999999999779,-0.24372057947111436
mouse_head_joint,14.559999999999778,-0.24393568161307222
mouse_head_joint,14.579999999999778,-0.240605223273473
mouse_head_joint,14.599999999999778,-0.23778436228264876
mouse_head_joint,14.619999999999777,-0.24068648901998113
mouse_head_joint,14.639999999999777,-0.24513471976615264
mouse_head_joint,14.659999999999776,-0.24789043485679052
mouse_head_joint,14.679999999999776,-0.25339618285782883
mouse_head_joint,14.699999999999775,-0.2558029274591389
mouse_head_joint,14.719999999999775,-0.25885794341497537
mouse_head_joint,14.739999999999775,-0.2628755620036918
mouse_head_joint,14.759999999999774,-0.2640001830735832
mouse_head_joint,14.779999999999774,-0.2664677148473311
mouse_head_joint,14.799999999999773,-0.26849110550102395
mouse_head_joint,14.819999999999773,-0.2628060426709915
mouse_head_joint,14.839999999999772,-0.251878537232642
mouse_head_joint,14.859999999999772,-0.24481030125104652
mouse_head_joint,14.879999999999772,-0.24654789808880562
mouse_head_joint,14.899999999999771,-0.24909975239620774
mouse_head_joint,14.91999999999977,-0.24731429706759922
mouse_head_joint,14.93999999999977,-0.24638326389501852
mouse_head_joint,14.95999999999977,-0.24695127058283362
mouse_head_joint,14.97999999999977,-0.24886673331438747
mouse_head_joint,14.999999999999769,-0.24822786569136301
mouse_head_joint,15.019999999999769,-0.25268168735439556
mouse_head_joint,15.039999999999768,-0.26204365089630866
mouse_head_joint,15.059999999999768,-0.2708217184336421
mouse_head_joint,15.079999999999767,-0.2792089590263229
mouse_head_joint,15.099999999999767,-0.28057153000702595
mouse_head_joint,15.119999999999767,-0.2781985204444739
mouse_head_joint,15.139999999999766,-0.2797881490445775
mouse_head_joint,15.159999999999766,-0.279819433917579
mouse_head_joint,15.179999999999765,-0.27765057027924467
mouse_head_joint,15.199999999999765,-0.2787878883137065
mouse_head_joint,15.219999999999764,-0.2747696267668598
mouse_head_joint,15.239999999999764,-0.27216828984549135
mouse_head_joint,15.259999999999764,-0.27416601737499047
mouse_head_joint,15.279999999999763,-0.27857191818944393
mouse_head_joint,15.299999999999763,-0.2747445962305939
mouse_head_joint,15.319999999999762,-0.26865446397524284
mouse_head_joint,15.339999999999762,-0.2666154566345176
mouse_head_joint,15.359999999999761,-0.26524090596482086
mouse_head_joint,15.379999999999761,-0.2659833987335736
mouse_head_joint,15.39999999999976,-0.2694591943637228
mouse_head_joint,15.41999999999976,-0.2664669408508624
mouse_head_joint,15.43999999999976,-0.2651301257213854
mouse_head_joint,15.45999999999976,-0.2660489985459895
mouse_head_joint,15.479999999999759,-0.2629704487666693
mouse_head_joint,15.499999999999758,-0.2615302690923924
mouse_head_joint,15.519999999999758,-0.2563103622893914
mouse_head_joint,15.539999999999758,-0.2512270854427596
mouse_head_joint,15.559999999999757,-0.2497291351911306
mouse_head_joint,15.579999999999757,-0.2498168123816118
mouse_head_joint,15.599999999999756,-0.24766991155561868
mouse_head_joint,15.619999999999756,-0.23792747360629196
mouse_head_joint,15.639999999999755,-0.22836042489901587
mouse_head_joint,15.659999999999755,-0.22576736990602875
mouse_head_joint,15.679999999999755,-0.22706103333380145
mouse_head_joint,15.699999999999754,-0.22900410178576536
mouse_head_joint,15.719999999999754,-0.22836607753820104
mouse_head_joint,15.739999999999753,-0.22506560647087426
mouse_head_joint,15.759999999999753,-0.22346537214039852
mouse_head_joint,15.779999999999752,-0.22560785829964036
mouse_head_joint,15.799999999999752,-0.22674291622454934
mouse_head_joint,15.819999999999752,-0.22860230442405882
mouse_head_joint,15.839999999999751,-0.2278672172050591
mouse_head_joint,15.85999999999975,-0.23043834975652722
mouse_head_joint,15.87999999999975,-0.23635530809831806
mouse_head_joint,15.89999999999975,-0.23731914155366862
mouse_head_joint,15.91999999999975,-0.23499705466756993
mouse_head_joint,15.939999999999749,-0.23376385186047788
mouse_head_joint,15.959999999999749,-0.23249845299487149
mouse_head_joint,15.979999999999748,-0.2314256470884919
mouse_head_joint,15.999999999999748,-0.23036097870466055
mouse_head_joint,16.019999999999747,-0.2290678497239318
mouse_head_joint,16.039999999999747,-0.22811340854292084
mouse_head_joint,16.059999999999746,-0.22693878069552298
mouse_head_joint,16.079999999999746,-0.22582312433050866
mouse_head_joint,16.099999999999746,-0.22471011253572204
mouse_head_joint,16.119999999999745,-0.2236000036332051
mouse_head_joint,16.139999999999745,-0.22221685356865173
mouse_head_joint,16.159999999999744,-0.22041770008738393
mouse_head_joint,16.179999999999744,-0.21888386780202485
mouse_head_joint,16.199999999999743,-0.21710387148531396
mouse_head_joint,16.219999999999743,-0.2152504469124059
mouse_head_joint,16.239999999999743,-0.2137423624608088
mouse_head_joint,16.259999999999742,-0.21207553978268123
mouse_head_joint,16.279999999999742,-0.21041796451411354
mouse_head_joint,16.29999999999974,-0.20876957753841374
mouse_head_joint,16.31999999999974,-0.2072120484136626
mouse_head_joint,16.33999999999974,-0.20550034374310133
mouse_head_joint,16.35999999999974,-0.2039600604626166
mouse_head_joint,16.37999999999974,-0.20226745471290286
mouse_head_joint,16.39999999999974,-0.20066453124075867
mouse_head_joint,16.41999999999974,-0.19914995894992593
mouse_head_joint,16.43999999999974,-0.19748558759941748
mouse_head_joint,16.459999999999738,-0.19583076035098568
mouse_head_joint,16.479999999999738,-0.19442022283341487
mouse_head_joint,16.499999999999737,-0.19278370628242847
mouse_head_joint,16.519999999999737,-0.1912340365458336
mouse_head_joint,16.539999999999736,-0.18976979766895052
mouse_head_joint,16.559999999999736,-0.18793158129479348
mouse_head_joint,16.579999999999735,-0.18663719647192956
mouse_head_joint,16.599999999999735,-0.18519760396765772
mouse_head_joint,16.619999999999735,-0.18361573230196893
mouse_head_joint,16.639999999999734,-0.1821178429340211
mouse_head_joint,16.659999999999734,-0.1807026341865301
mouse_head_joint,16.679999999999733,-0.17907359524208388
mouse_head_joint,16.699999999999733,-0.17767498623721778
mouse_head_joint,16.719999999999732,-0.17628371875178495
mouse_head_joint,16.739999999999732,-0.1748275090640341
mouse_head_joint,16.75999999999973,-0.17337960278969078
mouse_head_joint,16.77999999999973,-0.17186831844259043
mouse_head_joint,16.79999999999973,-0.170508565968845
mouse_head_joint,16.81999999999973,-0.16894344460312105
mouse_head_joint,16.83999999999973,-0.16759983780233512
mouse_head_joint,16.85999999999973,-0.16626331965177155
mouse_head_joint,16.87999999999973,-0.16479485059365118
mouse_head_joint,16.89999999999973,-0.16347364830134925
mouse_head_joint,16.919999999999728,-0.16209083896256882
mouse_head_joint,16.939999999999728,-0.16071597052676445
mouse_head_joint,16.959999999999727,-0.15934906960926476
mouse_head_joint,16.979999999999727,-0.15792240859579287
mouse_head_joint,16.999999999999726,-0.15663890700679328
mouse_head_joint,17.019999999999726,-0.15522872411756694
mouse_head_joint,17.039999999999726,-0.15389357524169167
mouse_head_joint,17.059999999999725,-0.15263224817013032
mouse_head_joint,17.079999999999725,-0.15118058627887976
mouse_head_joint,17.099999999999724,-0.14999979637044003
mouse_head_joint,17.119999999999724,-0.1486950337969164
mouse_head_joint,17.139999999999723,-0.1473979056096768
mouse_head_joint,17.159999999999723,-0.14585133595422484
mouse_head_joint,17.179999999999723,-0.14463477120265011
mouse_head_joint,17.199999999999722,-0.14348837919073976
mouse_head_joint,17.21999999999972,-0.14222168908386568
mouse_head_joint,17.23999999999972,-0.14096246523947809
mouse_head_joint,17.25999999999972,-0.1397728943641452
mouse_head_joint,17.27999999999972,-0.13846612723272855
mouse_head_joint,17.29999999999972,-0.1371056589426365
mouse_head_joint,17.31999999999972,-0.13606031235264204
mouse_head_joint,17.33999999999972,-0.13471544421227222
mouse_head_joint,17.35999999999972,-0.13343998242102284
mouse_head_joint,17.37999999999972,-0.13241308345549996
mouse_head_joint,17.399999999999718,-0.13109195579509691
mouse_head_joint,17.419999999999717,-0.12989841762392995
mouse_head_joint,17.439999999999717,-0.1287712255564637
mouse_head_joint,17.459999999999717,-0.12753257506026738
mouse_head_joint,17.479999999999716,-0.12641873677732285
mouse_head_joint,17.499999999999716,-0.12531101926228416
mouse_head_joint,17.519999999999715,-0.12397875177227657
mouse_head_joint,17.539999999999715,-0.12288486238290997
mouse_head_joint,17.559999999999715,-0.12185439431539535
mouse_head_joint,17.579999999999714,-0.12071596484657299
mouse_head_joint,17.599999999999714,-0.11947158501424138
mouse_head_joint,17.619999999999713,-0.11823541353792422
mouse_head_joint,17.639999999999713,-0.11734150897199225
mouse_head_joint,17.659999999999712,-0.11617490275065112
mouse_head_joint,17.679999999999712,-0.11512556478248737
mouse_head_joint,17.69999999999971,-0.11391820079240222
mouse_head_joint,17.71999999999971,-0.11293631536656967
mouse_head_joint,17.73999999999971,-0.11179766571100735
mouse_head_joint,17.75999999999971,-0.11077349817345894
mouse_head_joint,17.77999999999971,-0.10970191551162678
mouse_head_joint,17.79999999999971,-0.1085838510624555
mouse_head_joint,17.81999999999971,-0.10757825316905123
mouse_head_joint,17.83999999999971,-0.10647377237729927
mouse_head_joint,17.859999999999708,-0.10548036732574939
mouse_head_joint,17.879999999999708,-0.10438933145427143
mouse_head_joint,17.899999999999707,-0.10340803259530684
mouse_head_joint,17.919999999999707,-0.10238138517915907
mouse_head_joint,17.939999999999706,-0.10100549450857965
mouse_head_joint,17.959999999999706,-0.10034694354054441
mouse_head_joint,17.979999999999706,-0.09928893799642946
mouse_head_joint,17.999999999999705,-0.09833738595900421
mouse_head_joint,18.019999999999705,-0.09729241328474547
mouse_head_joint,18.039999999999704,-0.09630338359521584
mouse_head_joint,18.059999999999704,-0.0953693690586297
mouse_head_joint,18.079999999999703,-0.09434361195189034
mouse_head_joint,18.099999999999703,-0.09342112607119635
mouse_head_joint,18.119999999999703,-0.09235988331180867
mouse_head_joint,18.139999999999702,-0.09149701945620592
mouse_head_joint,18.1599999999997,-0.09011705228933398
mouse_head_joint,18.1799999999997,-0.08959674623599145
mouse_head_joint,18.1999999999997,-0.08856170919261963
mouse_head_joint,18.2199999999997,-0.08767363313359322
mouse_head_joint,18.2399999999997,-0.08674441785842468
mouse_head_joint,18.2599999999997,-0.08586693996629702
mouse_head_joint,18.2799999999997,-0.08485758178123515
mouse_head_joint,18.2999999999997,-0.08403693494592712
mouse_head_joint,18.3199999999997,-0.08308547341922434
mouse_head_joint,18.339999999999698,-0.08218508785387524
mouse_head_joint,18.359999999999697,-0.0812903854491136
mouse_head_joint,18.379999999999697,-0.08044553755840855
mouse_head_joint,18.399999999999697,-0.07951790192951069
mouse_head_joint,18.419999999999696,-0.07864004762099963
mouse_head_joint,18.439999999999696,-0.07776780797007543
mouse_head_joint,18.459999999999695,-0.0769441610217596
mouse_head_joint,18.479999999999695,-0.07608268578267108
mouse_head_joint,18.499999999999694,-0.07522669744734323
mouse_head_joint,18.519999999999694,-0.07433387776438316
mouse_head_joint,18.539999999999694,-0.07348894132677142
mouse_head_joint,18.559999999999693,-0.07264960382607377
mouse_head_joint,18.579999999999693,-0.07177393978983826
mouse_head_joint,18.599999999999692,-0.07073918690492498
mouse_head_joint,18.619999999999692,-0.07016344922712126
mouse_head_joint,18.63999999999969,-0.06930459800334443
mouse_head_joint,18.65999999999969,-0.06824940353778253
mouse_head_joint,18.67999999999969,-0.06776544921184424
mouse_head_joint,18.69999999999969,-0.06688266535449117
mouse_head_joint,18.71999999999969,-0.06612574007729854
mouse_head_joint,18.73999999999969,-0.06533363605623865
mouse_head_joint,18.75999999999969,-0.06450765819437798
mouse_head_joint,18.77999999999969,-0.06376529028309097
mouse_head_joint,18.799999999999688,-0.06302734887553996
mouse_head_joint,18.819999999999688,-0.062255611308665415
mouse_head_joint,18.839999999999687,-0.06148864937260612
mouse_head_joint,18.859999999999687,-0.060689159082953914
mouse_head_joint,18.879999999999686,-0.05993255803092623
mouse_head_joint,18.899999999999686,-0.0591811153184425
mouse_head_joint,18.919999999999686,-0.05847172222203234
mouse_head_joint,18.939999999999685,-0.05769271433110745
mouse_head_joint,18.959999999999685,-0.056956256876858014
mouse_head_joint,18.979999999999684,-0.056224216374114455
mouse_head_joint,18.999999999999684,-0.05546091267775388
mouse_head_joint,19.019999999999683,-0.05477480627936959
mouse_head_joint,19.039999999999683,-0.054093000798877355
mouse_head_joint,19.059999999999683,-0.05309643662471508
mouse_head_joint,19.079999999999682,-0.05267201784451192
mouse_head_joint,19.09999999999968,-0.05196852829241916
mouse_head_joint,19.11999999999968,-0.05123504026561321
mouse_head_joint,19.13999999999968,-0.05054095620438481
mouse_head_joint,19.15999999999968,-0.049817603279723066
mouse_head_joint,19.17999999999968,-0.04920127676529695
mouse_head_joint,19.19999999999968,-0.04852133804451064
mouse_head_joint,19.21999999999968,-0.04784556161624831
mouse_head_joint,19.23999999999968,-0.04710744204714956
mouse_head_joint,19.25999999999968,-0.04650784993531598
mouse_head_joint,19.279999999999678,-0.045812680636210246
mouse_head_joint,19.299999999999677,-0.04518828542924869
mouse_head_joint,19.319999999999677,-0.04453506100299709
mouse_head_joint,19.339999999999677,-0.043853992688612564
mouse_head_joint,19.359999999999676,-0.0432422627012663
mouse_head_joint,19.379999999999676,-0.042538520796335355
mouse_head_joint,19.399999999999675,-0.04196683911592913
mouse_head_joint,19.419999999999675,-0.04133574731459344
mouse_head_joint,19.439999999999674,-0.04064632959450254
mouse_head_joint,19.459999999999674,-0.04005527383521912
mouse_head_joint,19.479999999999674,-0.03943725513021423
mouse_head_joint,19.499999999999673,-0.03885396903238103
mouse_head_joint,19.519999999999673,-0.038244313904949756
mouse_head_joint,19.539999999999672,-0.037578553878096166
mouse_head_joint,19.559999999999672,-0.03700753770657528
mouse_head_joint,19.57999999999967,-0.03644029988760167
mouse_head_joint,19.59999999999967,-0.03584729837285128
mouse_head_joint,19.61999999999967,-0.0352583530822681
mouse_head_joint,19.63999999999967,-0.03467356887811501
mouse_head_joint,19.65999999999967,-0.0340638397920614
mouse_head_joint,19.67999999999967,-0.033516219286116034
mouse_head_joint,19.69999999999967,-0.032943587730376755
mouse_head_joint,19.71999999999967,-0.03234658553256686
mouse_head_joint,19.739999999999668,-0.031754194474764574
mouse_head_joint,19.759999999999668,-0.031193954739527463
mouse_head_joint,19.779999999999667,-0.030693171491485316
mouse_head_joint,19.799999999999667,-0.030085462178082167
mouse_head_joint,19.819999999999666,-0.02940059373308035
mouse_head_joint,19.839999999999666,-0.02901948312413527
mouse_head_joint,19.859999999999665,-0.028478714781450698
mouse_head_joint,19.879999999999665,-0.027941796836289612
mouse_head_joint,19.899999999999665,-0.02743528318356958
mouse_head_joint,19.919999999999664,-0.026879251790368208
mouse_head_joint,19.939999999999664,-0.02635371267122455
mouse_head_joint,19.959999999999663,-0.02580597637100901
mouse_head_joint,19.979999999999663,-0.025313850552573847
mouse_head_joint,19.999999999999662,-0.024825064211503545
mouse_head_joint,20.019999999999662,-0.024288959164942447
mouse_head_joint,20.03999999999966,-0.023807397983587997
mouse_head_joint,20.05999999999966,-0.023278822224285456
mouse_head_joint,20.07999999999966,-0.02277931937863631
mouse_head_joint,20.09999999999966,-0.02230807906053478
mouse_head_joint,20.11999999999966,-0.021815386106921686
mouse_head_joint,20.13999999999966,-0.02125364713558131
mouse_head_joint,20.15999999999966,-0.020816993468453227
mouse_head_joint,20.17999999999966,-0.020335473685238803
mouse_head_joint,20.19999999999966,-0.01985745357335489
mouse_head_joint,20.219999999999658,-0.01938272880531322
mouse_head_joint,20.239999999999657,-0.01891182424172566
mouse_head_joint,20.259999999999657,-0.018444285153118578
mouse_head_joint,20.279999999999657,-0.01800318029743142
mouse_head_joint,20.299999999999656,-0.01751928566848715
mouse_head_joint,20.319999999999656,-0.017084872631609294
mouse_head_joint,20.339999999999655,-0.016608145199205282
mouse_head_joint,20.359999999999655,-0.016180308125797183
mouse_head_joint,20.379999999999654,-0.01573292781778246
mouse_head_joint,20.399999999999654,-0.015266821742971004
mouse_head_joint,20.419999999999654,-0.014826717511107645
mouse_head_joint,20.439999999999653,-0.014389486054183998
mouse_head_joint,20.459999999999653,-0.01397724539137446
mouse_head_joint,20.479999999999652,-0.01354660619450243
mouse_head_joint,20.499999999999652,-0.013097849795239647
mouse_head_joint,20.51999999999965,-0.012673692394056246
mouse_head_joint,20.53999999999965,-0.012274029716696333
mouse_head_joint,20.55999999999965,-0.01183538045433874
mouse_head_joint,20.57999999999965,-0.011441684152718956
mouse_head_joint,20.59999999999965,-0.011030272962226917
mouse_head_joint,20.61999999999965,-0.010601602177741754
mouse_head_joint,20.63999999999965,-0.0102167026337181
