Name,time,Position
mouse_head_joint,0.0,0.0
mouse_head_joint,0.02,0.0
mouse_head_joint,0.04,0.0
mouse_head_joint,0.06,0.0
mouse_head_joint,0.08,0.0
mouse_head_joint,0.1,0.0
mouse_head_joint,0.12000000000000001,0.0
mouse_head_joint,0.14,0.0
mouse_head_joint,0.16,0.0
mouse_head_joint,0.18,0.0
mouse_head_joint,0.19999999999999998,0.0
mouse_head_joint,0.21999999999999997,-0.001882434036820868
mouse_head_joint,0.23999999999999996,-0.00019618625139283807
mouse_head_joint,0.25999999999999995,3.231963890915068e-05
mouse_head_joint,0.27999999999999997,7.04142522689466e-06
mouse_head_joint,0.3,6.526700548903364e-06
mouse_head_joint,0.32,-6.669979834228457e-06
mouse_head_joint,0.34,-7.621832122772787e-06
mouse_head_joint,0.36000000000000004,-8.420688910604213e-06
mouse_head_joint,0.38000000000000006,-9.757387898545744e-06
mouse_head_joint,0.4000000000000001,-1.1090257904911027e-05
mouse_head_joint,0.4200000000000001,-1.2729474419437281e-05
mouse_head_joint,0.4400000000000001,-1.4233680885489264e-05
mouse_head_joint,0.46000000000000013,-1.580810959644907e-05
mouse_head_joint,0.48000000000000015,-1.763545362543084e-05
mouse_head_joint,0.5000000000000001,-1.9375649544350892e-05
mouse_head_joint,0.5200000000000001,-2.1040204377875682e-05
mouse_head_joint,0.5400000000000001,-2.291601324522219e-05
mouse_head_joint,0.5600000000000002,-2.4600070667624152e-05
mouse_head_joint,0.5800000000000002,-2.6501549779567313e-05
mouse_head_joint,0.6000000000000002,-2.8529116407050026e-05
mouse_head_joint,0.6200000000000002,-2.9905893860870947e-05
mouse_head_joint,0.6400000000000002,-3.178936499725893e-05
mouse_head_joint,0.6600000000000003,-3.34666350649826e-05
mouse_head_joint,0.6800000000000003,-3.5257157608548084e-05
mouse_head_joint,0.7000000000000003,-3.690995933514074e-05
mouse_head_joint,0.7200000000000003,-3.886487768411939e-05
mouse_head_joint,0.7400000000000003,-4.050923114728988e-05
mouse_head_joint,0.7600000000000003,-4.230986572739681e-05
mouse_head_joint,0.7800000000000004,-4.377006868683253e-05
mouse_head_joint,0.8000000000000004,-4.5573324112702096e-05
mouse_head_joint,0.8200000000000004,-4.734909409886967e-05
mouse_head_joint,0.8400000000000004,-4.913493976133054e-05
mouse_head_joint,0.8600000000000004,-5.054544931404337e-05
mouse_head_joint,0.8800000000000004,-5.22899411423694e-05
mouse_head_joint,0.9000000000000005,-5.421955455631178e-05
mouse_head_joint,0.9200000000000005,-5.5768294186187006e-05
mouse_head_joint,0.9400000000000005,-5.730629238520635e-05
mouse_head_joint,0.9600000000000005,-5.88335032922771e-05
mouse_head_joint,0.9800000000000005,-6.04544660411932e-05
mouse_head_joint,1.0000000000000004,-6.195993825652835e-05
mouse_head_joint,1.0200000000000005,-6.34101063452519e-05
mouse_head_joint,1.0400000000000005,-6.518334118776892e-05
mouse_head_joint,1.0600000000000005,-6.665305426079016e-05
mouse_head_joint,1.0800000000000005,-6.811189868649592e-05
mouse_head_joint,1.1000000000000005,-6.969718751381748e-05
mouse_head_joint,1.1200000000000006,-7.110469265558805e-05
mouse_head_joint,1.1400000000000006,-7.268672063709403e-05
mouse_head_joint,1.1600000000000006,-7.408009513021341e-05
mouse_head_joint,1.1800000000000006,-7.565126467845573e-05
mouse_head_joint,1.2000000000000006,-7.702794528174906e-05
mouse_head_joint,1.2200000000000006,-7.858168578600555e-05
mouse_head_joint,1.2400000000000007,-8.010462267549201e-05
mouse_head_joint,1.2600000000000007,-8.147080462261869e-05
mouse_head_joint,1.2800000000000007,-8.297939337964522e-05
mouse_head_joint,1.3000000000000007,-8.430127896286166e-05
mouse_head_joint,1.3200000000000007,-8.579611928816178e-05
mouse_head_joint,1.3400000000000007,-8.710854015259173e-05
mouse_head_joint,1.3600000000000008,-8.85526689335947e-05
mouse_head_joint,1.3800000000000008,-8.972639912130376e-05
mouse_head_joint,1.4000000000000008,-9.11834592063343e-05
mouse_head_joint,1.4200000000000008,-9.245218677644829e-05
mouse_head_joint,1.4400000000000008,-9.393478522579102e-05
mouse_head_joint,1.4600000000000009,-9.518208893499747e-05
mouse_head_joint,1.4800000000000009,-9.641924375358712e-05
mouse_head_joint,1.5000000000000009,-9.774844745180644e-05
mouse_head_joint,1.520000000000001,-9.896429344280477e-05
mouse_head_joint,1.540000000000001,-0.00010012825555349991
mouse_head_joint,1.560000000000001,-0.00010145304946540534
mouse_head_joint,1.580000000000001,-0.00010277810353898076
mouse_head_joint,1.600000000000001,-0.000103951139780456
mouse_head_joint,1.620000000000001,-0.000105114403851303
mouse_head_joint,1.640000000000001,-0.00010643834043833067
mouse_head_joint,1.660000000000001,-0.00010755326959266398
mouse_head_joint,1.680000000000001,-0.00010885573517604996
mouse_head_joint,1.700000000000001,-0.00010994936605879246
mouse_head_joint,1.720000000000001,-0.00011131224874016965
mouse_head_joint,1.740000000000001,-0.00011241485329094303
mouse_head_joint,1.7600000000000011,-0.00011350803425358436
mouse_head_joint,1.7800000000000011,-0.00011450116742928174
mouse_head_joint,1.8000000000000012,-0.00011574170606820644
mouse_head_joint,1.8200000000000012,-0.00011693278267621565
mouse_head_joint,1.8400000000000012,-0.00011799832678338618
mouse_head_joint,1.8600000000000012,-0.00011904212501967493
mouse_head_joint,1.8800000000000012,-0.00012007681502090861
mouse_head_joint,1.9000000000000012,-0.00012124730609741619
mouse_head_joint,1.9200000000000013,-0.00012220654104844186
mouse_head_joint,1.9400000000000013,-0.00012332103845480447
mouse_head_joint,1.9600000000000013,-0.0001243177535759088
mouse_head_joint,1.9800000000000013,-0.00012546773389399135
mouse_head_joint,2.0000000000000013,-0.00012640285404064144
mouse_head_joint,2.0200000000000014,-0.0001274949023191141
mouse_head_joint,2.0400000000000014,-0.000128617936693054
mouse_head_joint,2.0600000000000014,-0.00012956868048874526
mouse_head_joint,2.0800000000000014,-0.00013046850216724692
mouse_head_joint,2.1000000000000014,-0.00013169720627193016
mouse_head_joint,2.1200000000000014,-0.00013255349112384351
mouse_head_joint,2.1400000000000015,-0.0001335231473200693
mouse_head_joint,2.1600000000000015,-0.00013442870243363103
mouse_head_joint,2.1800000000000015,-0.00013538075579866415
mouse_head_joint,2.2000000000000015,-0.00013639499513296016
mouse_head_joint,2.2200000000000015,-0.00013714876200587867
mouse_head_joint,2.2400000000000015,-0.00013806991785791922
mouse_head_joint,2.2600000000000016,-0.000138932586541074
mouse_head_joint,2.2800000000000016,-0.0001398563073014003
mouse_head_joint,2.3000000000000016,-0.0001408510141525099
mouse_head_joint,2.3200000000000016,-0.0001416882557423449
mouse_head_joint,2.3400000000000016,-0.00014245710914018161
mouse_head_joint,2.3600000000000017,-0.00014343303527031281
mouse_head_joint,2.3800000000000017,-0.00014434838576704578
mouse_head_joint,2.4000000000000017,-0.0001451523627213902
mouse_head_joint,2.4200000000000017,-0.0001460010361862274
mouse_head_joint,2.4400000000000017,-0.00014678822468550123
mouse_head_joint,2.4600000000000017,-0.00014756774366908587
mouse_head_joint,2.4800000000000018,-0.00014854718584622617
mouse_head_joint,2.5000000000000018,-0.00014919586181427746
mouse_head_joint,2.520000000000002,-0.00014995111047788612
mouse_head_joint,2.540000000000002,-0.00015084867165704452
mouse_head_joint,2.560000000000002,-0.00015170380964946162
mouse_head_joint,2.580000000000002,-0.00015248009003432372
mouse_head_joint,2.600000000000002,-0.00015308470222041848
mouse_head_joint,2.620000000000002,-0.0001539211162020493
mouse_head_joint,2.640000000000002,-0.00015459734115719215
mouse_head_joint,2.660000000000002,-0.0001552984753310227
mouse_head_joint,2.680000000000002,-0.00015613462959862545
mouse_head_joint,2.700000000000002,-0.00015675147491744923
mouse_head_joint,2.720000000000002,-0.00015757917680581102
mouse_head_joint,2.740000000000002,-0.0001582507998536542
mouse_head_joint,2.760000000000002,-0.00015900230311505226
mouse_head_joint,2.780000000000002,-0.00015965924029259781
mouse_head_joint,2.800000000000002,-0.00016039813462231933
mouse_head_joint,2.820000000000002,-0.00016104058062982318
mouse_head_joint,2.840000000000002,-0.00016188692977614494
mouse_head_joint,2.860000000000002,-0.00016251479459317153
mouse_head_joint,2.880000000000002,-0.00016313592744232608
mouse_head_joint,2.900000000000002,-0.00016354130729645533
mouse_head_joint,2.920000000000002,-0.0001642907353307521
mouse_head_joint,2.940000000000002,-0.0001648907873628147
mouse_head_joint,2.960000000000002,-0.00016550978320584164
mouse_head_joint,2.980000000000002,-0.00016620968230895983
mouse_head_joint,3.000000000000002,-0.00016678923708113302
mouse_head_joint,3.0200000000000022,-0.00016739229271323097
mouse_head_joint,3.0400000000000023,-0.00016787126619544068
mouse_head_joint,3.0600000000000023,-0.00016863191748051065
mouse_head_joint,3.0800000000000023,-0.00016911902224858721
mouse_head_joint,3.1000000000000023,-0.00016972959764061102
mouse_head_joint,3.1200000000000023,-0.00017026906969519473
mouse_head_joint,3.1400000000000023,-0.00017087522524139587
mouse_head_joint,3.1600000000000024,-0.00017140169208751388
mouse_head_joint,3.1800000000000024,-0.0001718526607996651
mouse_head_joint,3.2000000000000024,-0.0001725109041021966
mouse_head_joint,3.2200000000000024,-0.0001730921828055898
mouse_head_joint,3.2400000000000024,-0.0001737111760986565
mouse_head_joint,3.2600000000000025,-0.00017398287541237067
mouse_head_joint,3.2800000000000025,-0.00017460723098938757
mouse_head_joint,3.3000000000000025,-0.00017495331607264575
mouse_head_joint,3.3200000000000025,-0.0001755653401360746
mouse_head_joint,3.3400000000000025,-0.0001761393069612538
mouse_head_joint,3.3600000000000025,-0.00017651299622922778
mouse_head_joint,3.3800000000000026,-0.00017697738747557423
mouse_head_joint,3.4000000000000026,-0.0001774293662917259
mouse_head_joint,3.4200000000000026,-0.00017794596004971908
mouse_head_joint,3.4400000000000026,-0.00017838545787629556
mouse_head_joint,3.4600000000000026,-0.00017890442541279583
mouse_head_joint,3.4800000000000026,-0.0001793846688915579
mouse_head_joint,3.5000000000000027,-0.00017972866508930707
mouse_head_joint,3.5200000000000027,-0.00018014550110478922
mouse_head_joint,3.5400000000000027,-0.00018069613865812073
mouse_head_joint,3.5600000000000027,-0.000181165071214906
mouse_head_joint,3.5800000000000027,-0.00018156490456711083
mouse_head_joint,3.6000000000000028,-0.0001820212842913449
mouse_head_joint,3.6200000000000028,-0.0001825229749261581
mouse_head_joint,3.640000000000003,-0.00018267032087315727
mouse_head_joint,3.660000000000003,-0.00018304770037946838
mouse_head_joint,3.680000000000003,-0.00018341990289982846
mouse_head_joint,3.700000000000003,-0.00018391681041052266
mouse_head_joint,3.720000000000003,-0.0001842809819194713
mouse_head_joint,3.740000000000003,-0.00018463244463085005
mouse_head_joint,3.760000000000003,-0.00018509085498585875
mouse_head_joint,3.780000000000003,-0.00018532849109220706
mouse_head_joint,3.800000000000003,-0.00018578247823963778
mouse_head_joint,3.820000000000003,-0.00018601700793663412
mouse_head_joint,3.840000000000003,-0.00018638068854581746
mouse_head_joint,3.860000000000003,-0.0001868373097346776
mouse_head_joint,3.880000000000003,-0.00018715701571903054
mouse_head_joint,3.900000000000003,-0.00018738708006171834
mouse_head_joint,3.920000000000003,-0.00018783126247257087
mouse_head_joint,3.940000000000003,-0.00018805431790536176
mouse_head_joint,3.960000000000003,-0.00018840731950220402
mouse_head_joint,3.980000000000003,-0.00018870207448973275
mouse_head_joint,4.000000000000003,-0.00018923326415265507
mouse_head_joint,4.020000000000002,-0.00018941612357981086
mouse_head_joint,4.040000000000002,-0.0001896767222469009
mouse_head_joint,4.060000000000001,-0.00019004666163358053
mouse_head_joint,4.080000000000001,-0.0001903171464814335
mouse_head_joint,4.1000000000000005,-0.0001904817448723506
mouse_head_joint,4.12,-0.0001908414525857438
mouse_head_joint,4.14,-0.00019109813773621198
mouse_head_joint,4.159999999999999,-0.00019123691949740618
mouse_head_joint,4.179999999999999,-0.00019159341980135025
mouse_head_joint,4.199999999999998,-0.00019185070341620758
mouse_head_joint,4.219999999999998,-0.0001920891004019154
mouse_head_joint,4.2399999999999975,-0.00019235396515160375
mouse_head_joint,4.259999999999997,-0.00019258341453198824
mouse_head_joint,4.279999999999997,-0.00019284890536930277
mouse_head_joint,4.299999999999996,-0.00019311327674031986
mouse_head_joint,4.319999999999996,-0.0001931992355670431
mouse_head_joint,4.339999999999995,-0.00019354127678639088
mouse_head_joint,4.359999999999995,-0.00019366291082612008
mouse_head_joint,4.379999999999995,-0.000193992670233456
mouse_head_joint,4.399999999999994,-0.00019416302012054132
mouse_head_joint,4.419999999999994,-0.0001943865759024277
mouse_head_joint,4.439999999999993,-0.00019442748837850132
mouse_head_joint,4.459999999999993,-0.00019482529883951827
mouse_head_joint,4.479999999999992,-0.0001950078239145725
mouse_head_joint,4.499999999999992,-0.00019508034358572957
mouse_head_joint,4.519999999999992,-0.00019523113429098515
mouse_head_joint,4.539999999999991,-0.00019551269667594795
mouse_head_joint,4.559999999999991,-0.00019556226074790573
mouse_head_joint,4.57999999999999,-0.00019574021039669987
mouse_head_joint,4.59999999999999,-0.00019589845415346474
mouse_head_joint,4.6199999999999894,-0.0001961763295019736
mouse_head_joint,4.639999999999989,-0.000196326989065021
mouse_head_joint,4.659999999999989,-0.00019641533308512038
mouse_head_joint,4.679999999999988,-0.00019664896809423738
mouse_head_joint,4.699999999999988,-0.00019682356345285257
mouse_head_joint,4.719999999999987,-0.00019695898991312077
mouse_head_joint,4.739999999999987,-0.00019722611709660498
mouse_head_joint,4.7599999999999865,-0.00019735392367881133
mouse_head_joint,4.779999999999986,-0.00019747823315974244
mouse_head_joint,4.799999999999986,-0.00019748815998799074
mouse_head_joint,4.819999999999985,-0.000197451149190897
mouse_head_joint,4.839999999999985,-0.0001976813066271177
mouse_head_joint,4.859999999999984,-0.00019776845401597853
mouse_head_joint,4.879999999999984,-0.00019787476647525892
mouse_head_joint,4.8999999999999835,-0.0001979463634036449
mouse_head_joint,4.919999999999983,-0.0001980456625565452
mouse_head_joint,4.939999999999983,-0.00019812836520660682
mouse_head_joint,4.959999999999982,-0.00019834904951743226
mouse_head_joint,4.979999999999982,-0.00019842235317213408
mouse_head_joint,4.999999999999981,-0.00019842550497006783
mouse_head_joint,5.019999999999981,-0.00019860534635096627
mouse_head_joint,5.0399999999999805,-0.00019873811128956476
mouse_head_joint,5.05999999999998,-0.0001986903401967055
mouse_head_joint,5.07999999999998,-0.00019888551614055672
mouse_head_joint,5.099999999999979,-0.00019886077622111031
mouse_head_joint,5.119999999999979,-0.00019892659125542167
mouse_head_joint,5.139999999999978,-0.00019920806513606948
mouse_head_joint,5.159999999999978,-0.00019926750054555242
mouse_head_joint,5.1799999999999775,-0.00019905207909864941
mouse_head_joint,5.199999999999977,-0.00019910522005872622
mouse_head_joint,5.219999999999977,-0.00019935270219662016
mouse_head_joint,5.239999999999976,-0.00019939966448845325
mouse_head_joint,5.259999999999976,-0.0001994178127606716
mouse_head_joint,5.279999999999975,-0.00019931426770281035
mouse_head_joint,5.299999999999975,-0.00019946935649262088
mouse_head_joint,5.3199999999999745,-0.0011829280926720642
mouse_head_joint,5.339999999999974,-0.002580666624614203
mouse_head_joint,5.359999999999974,-0.004027387591032827
mouse_head_joint,5.379999999999973,-0.0075365299409293485
mouse_head_joint,5.399999999999973,-0.009477121531785038
mouse_head_joint,5.419999999999972,-0.010422277797204949
mouse_head_joint,5.439999999999972,-0.011017312406708335
mouse_head_joint,5.4599999999999715,-0.012050484685167895
mouse_head_joint,5.479999999999971,-0.013162104416770681
mouse_head_joint,5.499999999999971,-0.013297541108253874
mouse_head_joint,5.51999999999997,-0.013326217426491205
mouse_head_joint,5.53999999999997,-0.01386752120979029
mouse_head_joint,5.559999999999969,-0.014800727402092484
mouse_head_joint,5.579999999999969,-0.015921498232366993
mouse_head_joint,5.599999999999969,-0.01675199089307622
mouse_head_joint,5.619999999999968,-0.01687468863460584
mouse_head_joint,5.639999999999968,-0.018108255972937748
mouse_head_joint,5.659999999999967,-0.01996364759042013
mouse_head_joint,5.679999999999967,-0.0224738371253137
mouse_head_joint,5.699999999999966,-0.02401018854387882
mouse_head_joint,5.719999999999966,-0.024397216931855148
mouse_head_joint,5.739999999999966,-0.02569480155895132
mouse_head_joint,5.759999999999965,-0.028622368687579502
mouse_head_joint,5.779999999999965,-0.031126899958839438
mouse_head_joint,5.799999999999964,-0.032451556221929856
mouse_head_joint,5.819999999999964,-0.0349431573687875
mouse_head_joint,5.839999999999963,-0.03786526093799214
mouse_head_joint,5.859999999999963,-0.03987544485108696
mouse_head_joint,5.879999999999963,-0.040210930091372
mouse_head_joint,5.899999999999962,-0.042159266626950576
mouse_head_joint,5.919999999999962,-0.045873549769884114
mouse_head_joint,5.939999999999961,-0.04784668092342148
mouse_head_joint,5.959999999999961,-0.04811631310054931
mouse_head_joint,5.9799999999999605,-0.04818207407394315
mouse_head_joint,5.99999999999996,-0.048215623343067726
mouse_head_joint,6.01999999999996,-0.04874817256599062
mouse_head_joint,6.039999999999959,-0.050680302067394045
mouse_head_joint,6.059999999999959,-0.05227532714234595
mouse_head_joint,6.079999999999958,-0.05253439813126537
mouse_head_joint,6.099999999999958,-0.05317582474453442
mouse_head_joint,6.1199999999999575,-0.05428435053537495
mouse_head_joint,6.139999999999957,-0.055423792980016096
mouse_head_joint,6.159999999999957,-0.056305730582120184
mouse_head_joint,6.179999999999956,-0.056468185099649126
mouse_head_joint,6.199999999999956,-0.05651893009151987
mouse_head_joint,6.219999999999955,-0.05738967776791437
mouse_head_joint,6.239999999999955,-0.05847677460909129
mouse_head_joint,6.2599999999999545,-0.058669827714848743
mouse_head_joint,6.279999999999954,-0.06019564072383066
mouse_head_joint,6.299999999999954,-0.06374565150769396
mouse_head_joint,6.319999999999953,-0.06646000089419157
mouse_head_joint,6.339999999999953,-0.06695884631202542
mouse_head_joint,6.359999999999952,-0.06708379608839632
mouse_head_joint,6.379999999999952,-0.06793326314330717
mouse_head_joint,6.3999999999999515,-0.07089379769807191
mouse_head_joint,6.419999999999951,-0.0756483755175017
mouse_head_joint,6.439999999999951,-0.07858969988477416
mouse_head_joint,6.45999999999995,-0.07917211562104942
mouse_head_joint,6.47999999999995,-0.08078076240739929
mouse_head_joint,6.499999999999949,-0.08256651641289725
mouse_head_joint,6.519999999999949,-0.08298587600452567
mouse_head_joint,6.5399999999999485,-0.08540303573979369
mouse_head_joint,6.559999999999948,-0.0895449023417898
mouse_head_joint,6.579999999999948,-0.0931630849407954
mouse_head_joint,6.599999999999947,-0.0958925661067882
mouse_head_joint,6.619999999999947,-0.09874114059284533
mouse_head_joint,6.639999999999946,-0.10205768277361482
mouse_head_joint,6.659999999999946,-0.10636846726424576
mouse_head_joint,6.6799999999999455,-0.11005032303814932
mouse_head_joint,6.699999999999945,-0.11159779578417517
mouse_head_joint,6.719999999999945,-0.11312707681225209
mouse_head_joint,6.739999999999944,-0.11430289941522798
mouse_head_joint,6.759999999999944,-0.11453004102946718
mouse_head_joint,6.779999999999943,-0.11575738646607459
mouse_head_joint,6.799999999999943,-0.11841996417439393
mouse_head_joint,6.8199999999999426,-0.12173984096649182
mouse_head_joint,6.839999999999942,-0.12433404021408467
mouse_head_joint,6.859999999999942,-0.1253327471128598
mouse_head_joint,6.879999999999941,-0.12551899462285743
mouse_head_joint,6.899999999999941,-0.12705364056767987
mouse_head_joint,6.91999999999994,-0.13066356133153878
mouse_head_joint,6.93999999999994,-0.13365605469132458
mouse_head_joint,6.95999999999994,-0.13676552253430696
mouse_head_joint,6.979999999999939,-0.13968596589401638
mouse_head_joint,6.999999999999939,-0.1410140082967759
mouse_head_joint,7.019999999999938,-0.1418061041535834
mouse_head_joint,7.039999999999938,-0.14305991621024372
mouse_head_joint,7.059999999999937,-0.1439767205864646
mouse_head_joint,7.079999999999937,-0.1450624555372384
mouse_head_joint,7.099999999999937,-0.14582717569873527
mouse_head_joint,7.119999999999936,-0.14680728265289478
mouse_head_joint,7.139999999999936,-0.14958262459932126
mouse_head_joint,7.159999999999935,-0.15171219210886822
mouse_head_joint,7.179999999999935,-0.1538425829902268
mouse_head_joint,7.1999999999999345,-0.1560354318919588
mouse_head_joint,7.219999999999934,-0.15796170699919454
mouse_head_joint,7.239999999999934,-0.16069706531863748
mouse_head_joint,7.259999999999933,-0.1630224555985249
mouse_head_joint,7.279999999999933,-0.16362859585953782
mouse_head_joint,7.299999999999932,-0.16530120249042213
mouse_head_joint,7.319999999999932,-0.16774032280820528
mouse_head_joint,7.3399999999999315,-0.16839327715743835
mouse_head_joint,7.359999999999931,-0.1702533008956859
mouse_head_joint,7.379999999999931,-0.17388039051948034
mouse_head_joint,7.39999999999993,-0.1770159477461828
mouse_head_joint,7.41999999999993,-0.18040052088619696
mouse_head_joint,7.439999999999929,-0.1832576605549292
mouse_head_joint,7.459999999999929,-0.18713605707166536
mouse_head_joint,7.4799999999999285,-0.1897660221180626
mouse_head_joint,7.499999999999928,-0.19269791039533146
mouse_head_joint,7.519999999999928,-0.19666682793254964
mouse_head_joint,7.539999999999927,-0.1989417107082314
mouse_head_joint,7.559999999999927,-0.2019385131030731
mouse_head_joint,7.579999999999926,-0.2047550954271724
mouse_head_joint,7.599999999999926,-0.2045134757222833
mouse_head_joint,7.6199999999999255,-0.20347446460205454
mouse_head_joint,7.639999999999925,-0.20344281838323308
mouse_head_joint,7.659999999999925,-0.20421983945262578
mouse_head_joint,7.679999999999924,-0.2055218035221289
mouse_head_joint,7.699999999999924,-0.2061691424148906
mouse_head_joint,7.719999999999923,-0.20599306919273364
mouse_head_joint,7.739999999999923,-0.20531972367505436
mouse_head_joint,7.7599999999999225,-0.2071661857978837
mouse_head_joint,7.779999999999922,-0.20935284471581372
mouse_head_joint,7.799999999999922,-0.2095914282831126
mouse_head_joint,7.819999999999921,-0.20990312954130452
mouse_head_joint,7.839999999999921,-0.20898815368692247
mouse_head_joint,7.85999999999992,-0.20728384247275589
mouse_head_joint,7.87999999999992,-0.20703206739700608
mouse_head_joint,7.8999999999999195,-0.20605361039979186
mouse_head_joint,7.919999999999919,-0.20646059548525386
mouse_head_joint,7.939999999999919,-0.2086244096123604
mouse_head_joint,7.959999999999918,-0.2092737756253502
mouse_head_joint,7.979999999999918,-0.20983043497780152
mouse_head_joint,7.999999999999917,-0.2106486431380148
mouse_head_joint,8.019999999999918,-0.2133589908605611
mouse_head_joint,8.039999999999917,-0.2166986299683007
mouse_head_joint,8.059999999999917,-0.2186300290277856
mouse_head_joint,8.079999999999917,-0.21860029179391205
mouse_head_joint,8.099999999999916,-0.21807455896425498
mouse_head_joint,8.119999999999916,-0.21803174804591396
mouse_head_joint,8.139999999999915,-0.2180861550708455
mouse_head_joint,8.159999999999915,-0.2181455473603071
mouse_head_joint,8.179999999999914,-0.21820853038799104
mouse_head_joint,8.199999999999914,-0.2182735528748898
mouse_head_joint,8.219999999999914,-0.218482251445967
mouse_head_joint,8.239999999999913,-0.2191576868500933
mouse_head_joint,8.259999999999913,-0.2188741815225823
mouse_head_joint,8.279999999999912,-0.21871852582564077
mouse_head_joint,8.299999999999912,-0.22059363027887802
mouse_head_joint,8.319999999999911,-0.22346685604118743
mouse_head_joint,8.339999999999911,-0.22646029681162272
mouse_head_joint,8.35999999999991,-0.22839247238436844
mouse_head_joint,8.37999999999991,-0.2278000624218528
mouse_head_joint,8.39999999999991,-0.22693997493485174
mouse_head_joint,8.41999999999991,-0.2256349625036851
mouse_head_joint,8.439999999999909,-0.22438417205638927
mouse_head_joint,8.459999999999908,-0.2245773560296742
mouse_head_joint,8.479999999999908,-0.22469357362135156
mouse_head_joint,8.499999999999908,-0.22461421932362224
mouse_head_joint,8.519999999999907,-0.22563478693831573
mouse_head_joint,8.539999999999907,-0.22649705038566292
mouse_head_joint,8.559999999999906,-0.22808047152590216
mouse_head_joint,8.579999999999906,-0.22814131690809436
mouse_head_joint,8.599999999999905,-0.2262590506608113
mouse_head_joint,8.619999999999905,-0.22633046236758325
mouse_head_joint,8.639999999999905,-0.22799383186673872
mouse_head_joint,8.659999999999904,-0.22971724491199552
mouse_head_joint,8.679999999999904,-0.2314412798246579
mouse_head_joint,8.699999999999903,-0.23357729416462725
mouse_head_joint,8.719999999999903,-0.2366580398624869
mouse_head_joint,8.739999999999903,-0.24000306880201627
mouse_head_joint,8.759999999999902,-0.24222741313162288
mouse_head_joint,8.779999999999902,-0.24204334385335446
mouse_head_joint,8.799999999999901,-0.24095013984150349
mouse_head_joint,8.8199999999999,-0.2402969555380725
mouse_head_joint,8.8399999999999,-0.24024831737121577
mouse_head_joint,8.8599999999999,-0.23818362523450354
mouse_head_joint,8.8799999999999,-0.2351978902534011
mouse_head_joint,8.899999999999899,-0.23465655456635215
mouse_head_joint,8.919999999999899,-0.23597857332319894
mouse_head_joint,8.939999999999898,-0.2387639198074547
mouse_head_joint,8.959999999999898,-0.24057062244002925
mouse_head_joint,8.979999999999897,-0.24183098581691542
mouse_head_joint,8.999999999999897,-0.24336375056954385
mouse_head_joint,9.019999999999897,-0.2424826682605321
mouse_head_joint,9.039999999999896,-0.24234934353875648
mouse_head_joint,9.059999999999896,-0.2431598731773681
mouse_head_joint,9.079999999999895,-0.24393749252532881
mouse_head_joint,9.099999999999895,-0.2443758383816741
mouse_head_joint,9.119999999999894,-0.24421669843977778
mouse_head_joint,9.139999999999894,-0.24472107702517487
mouse_head_joint,9.159999999999894,-0.24366234722852553
mouse_head_joint,9.179999999999893,-0.24073399455105182
mouse_head_joint,9.199999999999893,-0.23943324340078487
mouse_head_joint,9.219999999999892,-0.23996890347735178
mouse_head_joint,9.239999999999892,-0.24054642125357528
mouse_head_joint,9.259999999999891,-0.24016145993453364
mouse_head_joint,9.279999999999891,-0.239551301862738
mouse_head_joint,9.29999999999989,-0.24046993688520324
mouse_head_joint,9.31999999999989,-0.24147703399203024
mouse_head_joint,9.33999999999989,-0.24301712361601524
mouse_head_joint,9.35999999999989,-0.2449095205402525
mouse_head_joint,9.379999999999889,-0.24618755485070487
mouse_head_joint,9.399999999999888,-0.24525525605575815
mouse_head_joint,9.419999999999888,-0.24347743319303206
mouse_head_joint,9.439999999999888,-0.24408091774089247
mouse_head_joint,9.459999999999887,-0.24537481971164699
mouse_head_joint,9.479999999999887,-0.24629418324147334
mouse_head_joint,9.499999999999886,-0.24607865738131274
mouse_head_joint,9.519999999999886,-0.2456279763468423
mouse_head_joint,9.539999999999885,-0.24522724906438675
mouse_head_joint,9.559999999999885,-0.24419022406445556
mouse_head_joint,9.579999999999885,-0.24323275271772182
mouse_head_joint,9.599999999999884,-0.2436057697982612
mouse_head_joint,9.619999999999884,-0.24476616965015907
mouse_head_joint,9.639999999999883,-0.244544283937282
mouse_head_joint,9.659999999999883,-0.24442216366740777
mouse_head_joint,9.679999999999882,-0.24623678669163862
mouse_head_joint,9.699999999999882,-0.24787104570543672
mouse_head_joint,9.719999999999882,-0.24733015122377733
mouse_head_joint,9.739999999999881,-0.24677055485470412
mouse_head_joint,9.75999999999988,-0.24776342422558617
mouse_head_joint,9.77999999999988,-0.24782729391387193
mouse_head_joint,9.79999999999988,-0.24797072844384527
mouse_head_joint,9.81999999999988,-0.25144689884464366
mouse_head_joint,9.839999999999879,-0.2549629095903656
mouse_head_joint,9.859999999999879,-0.2577267009395756
mouse_head_joint,9.879999999999878,-0.25774918813123815
mouse_head_joint,9.899999999999878,-0.25756677844876297
mouse_head_joint,9.919999999999877,-0.25751268756002865
mouse_head_joint,9.939999999999877,-0.25749616859873914
mouse_head_joint,9.959999999999877,-0.2575958717216782
mouse_head_joint,9.979999999999876,-0.2593483736435509
mouse_head_joint,9.999999999999876,-0.26091371904618654
mouse_head_joint,10.019999999999875,-0.25954614684436095
mouse_head_joint,10.039999999999875,-0.25751796572738606
mouse_head_joint,10.059999999999874,-0.25667747237923777
mouse_head_joint,10.079999999999874,-0.25470763653469763
mouse_head_joint,10.099999999999874,-0.2526026967556474
mouse_head_joint,10.119999999999873,-0.25153999857564635
mouse_head_joint,10.139999999999873,-0.25139987822070253
mouse_head_joint,10.159999999999872,-0.250473593683866
mouse_head_joint,10.179999999999872,-0.2510421809382155
mouse_head_joint,10.199999999999871,-0.25269954676684847
mouse_head_joint,10.219999999999871,-0.2536936288411109
mouse_head_joint,10.23999999999987,-0.2548834901774981
mouse_head_joint,10.25999999999987,-0.2546421513889392
mouse_head_joint,10.27999999999987,-0.2519323448391555
mouse_head_joint,10.29999999999987,-0.250960750764583
mouse_head_joint,10.319999999999869,-0.25211240603164153
mouse_head_joint,10.339999999999868,-0.25250431740051393
mouse_head_joint,10.359999999999868,-0.254163654828095
mouse_head_joint,10.379999999999868,-0.2563634600824303
mouse_head_joint,10.399999999999867,-0.2575404244467263
mouse_head_joint,10.419999999999867,-0.25746831257886615
mouse_head_joint,10.439999999999866,-0.25926050528429556
mouse_head_joint,10.459999999999866,-0.26101870327069854
mouse_head_joint,10.479999999999865,-0.26130328883582266
mouse_head_joint,10.499999999999865,-0.2600811488962025
mouse_head_joint,10.519999999999865,-0.2570699564116099
mouse_head_joint,10.539999999999864,-0.2548669289171208
mouse_head_joint,10.559999999999864,-0.25455713095755517
mouse_head_joint,10.579999999999863,-0.2559433471263457
mouse_head_joint,10.599999999999863,-0.2567934666794569
mouse_head_joint,10.619999999999862,-0.25621360803379734
mouse_head_joint,10.639999999999862,-0.2565418979000986
mouse_head_joint,10.659999999999862,-0.2571357985742173
mouse_head_joint,10.679999999999861,-0.25652103903711065
mouse_head_joint,10.69999999999986,-0.2544514104565012
mouse_head_joint,10.71999999999986,-0.2528012403570994
mouse_head_joint,10.73999999999986,-0.25151778008946124
mouse_head_joint,10.75999999999986,-0.25127577663372946
mouse_head_joint,10.779999999999859,-0.2510001509986184
mouse_head_joint,10.799999999999859,-0.25039938309303356
mouse_head_joint,10.819999999999858,-0.25014466968131277
mouse_head_joint,10.839999999999858,-0.2507804934792537
mouse_head_joint,10.859999999999857,-0.2510105457761309
mouse_head_joint,10.879999999999857,-0.24933355616217945
mouse_head_joint,10.899999999999856,-0.24799155345336654
mouse_head_joint,10.919999999999856,-0.2469751655826231
mouse_head_joint,10.939999999999856,-0.24637923290320973
mouse_head_joint,10.959999999999855,-0.24735105211311126
mouse_head_joint,10.979999999999855,-0.24887274524287495
mouse_head_joint,10.999999999999854,-0.2503606433982961
mouse_head_joint,11.019999999999854,-0.25107182131670935
mouse_head_joint,11.039999999999853,-0.25160840298960085
mouse_head_joint,11.059999999999853,-0.25086494250378255
mouse_head_joint,11.079999999999853,-0.2515834326640274
mouse_head_joint,11.099999999999852,-0.2536461432880035
mouse_head_joint,11.119999999999852,-0.2540738299061438
mouse_head_joint,11.139999999999851,-0.25406431241117744
mouse_head_joint,11.159999999999851,-0.25399457980277695
mouse_head_joint,11.17999999999985,-0.2539070914810715
mouse_head_joint,11.19999999999985,-0.25358945985771
mouse_head_joint,11.21999999999985,-0.2529363894712713
mouse_head_joint,11.23999999999985,-0.25171937921943766
mouse_head_joint,11.259999999999849,-0.2491560958434187
mouse_head_joint,11.279999999999848,-0.24688423234947443
mouse_head_joint,11.299999999999848,-0.24503754973775127
mouse_head_joint,11.319999999999848,-0.2431680519717192
mouse_head_joint,11.339999999999847,-0.24329150428396584
mouse_head_joint,11.359999999999847,-0.24439117838081614
mouse_head_joint,11.379999999999846,-0.24557845455808014
mouse_head_joint,11.399999999999846,-0.24780149209173885
mouse_head_joint,11.419999999999845,-0.25155943185850305
mouse_head_joint,11.439999999999845,-0.2547752756005206
mouse_head_joint,11.459999999999845,-0.2565410335493645
mouse_head_joint,11.479999999999844,-0.25827497269092703
mouse_head_joint,11.499999999999844,-0.25796119239736015
mouse_head_joint,11.519999999999843,-0.25855792163291724
mouse_head_joint,11.539999999999843,-0.2583188227852524
mouse_head_joint,11.559999999999842,-0.25684194096051094
mouse_head_joint,11.579999999999842,-0.2548809059306407
mouse_head_joint,11.599999999999842,-0.25320253800227555
mouse_head_joint,11.619999999999841,-0.2524637380383332
mouse_head_joint,11.63999999999984,-0.2520556769052851
mouse_head_joint,11.65999999999984,-0.25279282603730113
mouse_head_joint,11.67999999999984,-0.2521633883930461
mouse_head_joint,11.69999999999984,-0.2513487447063527
mouse_head_joint,11.719999999999839,-0.2525787981383276
mouse_head_joint,11.739999999999839,-0.2545031675160745
mouse_head_joint,11.759999999999838,-0.25542534271764605
mouse_head_joint,11.779999999999838,-0.25421280508607325
mouse_head_joint,11.799999999999837,-0.2516550186600863
mouse_head_joint,11.819999999999837,-0.25021022861028097
mouse_head_joint,11.839999999999836,-0.24993662886711032
mouse_head_joint,11.859999999999836,-0.25067161476486444
mouse_head_joint,11.879999999999836,-0.253003772986923
mouse_head_joint,11.899999999999835,-0.2560133034278893
mouse_head_joint,11.919999999999835,-0.2582795583586135
mouse_head_joint,11.939999999999834,-0.26002484798695047
mouse_head_joint,11.959999999999834,-0.26146646215908564
mouse_head_joint,11.979999999999833,-0.2600431003163859
mouse_head_joint,11.999999999999833,-0.25755439198657637
mouse_head_joint,12.019999999999833,-0.2580194854112179
mouse_head_joint,12.039999999999832,-0.2593308839542505
mouse_head_joint,12.059999999999832,-0.2581639328316303
mouse_head_joint,12.079999999999831,-0.25687586478492275
mouse_head_joint,12.099999999999831,-0.25660650225994086
mouse_head_joint,12.11999999999983,-0.256449196136348
mouse_head_joint,12.13999999999983,-0.25632223857027636
mouse_head_joint,12.15999999999983,-0.2561830667779823
mouse_head_joint,12.17999999999983,-0.25546377928395536
mouse_head_joint,12.199999999999829,-0.2557619332535941
mouse_head_joint,12.219999999999828,-0.2571299862487413
mouse_head_joint,12.239999999999828,-0.2567204126734479
mouse_head_joint,12.259999999999827,-0.2556102864908585
mouse_head_joint,12.279999999999827,-0.25490535237172374
mouse_head_joint,12.299999999999827,-0.2553137679497999
mouse_head_joint,12.319999999999826,-0.25647897143858867
mouse_head_joint,12.339999999999826,-0.25774307915146455
mouse_head_joint,12.359999999999825,-0.25721118627867234
mouse_head_joint,12.379999999999825,-0.2582012343873936
mouse_head_joint,12.399999999999824,-0.2614779670161633
mouse_head_joint,12.419999999999824,-0.26324746134883803
mouse_head_joint,12.439999999999824,-0.2612951773089369
mouse_head_joint,12.459999999999823,-0.2586601980838754
mouse_head_joint,12.479999999999823,-0.25631605022889037
mouse_head_joint,12.499999999999822,-0.25639262453919365
mouse_head_joint,12.519999999999822,-0.2577217204440121
mouse_head_joint,12.539999999999822,-0.25795168664820434
mouse_head_joint,12.559999999999821,-0.2583963979547832
mouse_head_joint,12.57999999999982,-0.2592484639283832
mouse_head_joint,12.59999999999982,-0.2596032617980262
mouse_head_joint,12.61999999999982,-0.2595416362555012
mouse_head_joint,12.63999999999982,-0.25912179187323403
mouse_head_joint,12.659999999999819,-0.2596605815935318
mouse_head_joint,12.679999999999819,-0.2613908658319781
mouse_head_joint,12.699999999999818,-0.26146663053908004
mouse_head_joint,12.719999999999818,-0.2606511241213001
mouse_head_joint,12.739999999999817,-0.26282679285372357
mouse_head_joint,12.759999999999817,-0.26497403130525843
mouse_head_joint,12.779999999999816,-0.26634298564274506
mouse_head_joint,12.799999999999816,-0.26831808644501276
mouse_head_joint,12.819999999999816,-0.2709275396388131
mouse_head_joint,12.839999999999815,-0.2724351307979118
mouse_head_joint,12.859999999999815,-0.2719747679730071
mouse_head_joint,12.879999999999814,-0.2701174207470727
mouse_head_joint,12.899999999999814,-0.267899547568641
mouse_head_joint,12.919999999999813,-0.26774882422785407
mouse_head_joint,12.939999999999813,-0.2684894599414589
mouse_head_joint,12.959999999999813,-0.26844897829446346
mouse_head_joint,12.979999999999812,-0.2700486608943855
mouse_head_joint,12.999999999999812,-0.2700691813134801
mouse_head_joint,13.019999999999811,-0.26824283976719787
mouse_head_joint,13.03999999999981,-0.26727353107246365
mouse_head_joint,13.05999999999981,-0.2663059960868228
mouse_head_joint,13.07999999999981,-0.26702292187323096
mouse_head_joint,13.09999999999981,-0.26946644442468326
mouse_head_joint,13.11999999999981,-0.2722560377713066
mouse_head_joint,13.139999999999809,-0.2734456829242875
mouse_head_joint,13.159999999999808,-0.27464538568615904
mouse_head_joint,13.179999999999808,-0.2744781572445536
mouse_head_joint,13.199999999999807,-0.2730908859437333
mouse_head_joint,13.219999999999807,-0.2726059110187906
mouse_head_joint,13.239999999999807,-0.2724057835101039
mouse_head_joint,13.259999999999806,-0.2728884723064766
mouse_head_joint,13.279999999999806,-0.27503652644903553
mouse_head_joint,13.299999999999805,-0.2764496810099857
mouse_head_joint,13.319999999999805,-0.27756223452029793
mouse_head_joint,13.339999999999804,-0.27803402158534496
mouse_head_joint,13.359999999999804,-0.2790064035798725
mouse_head_joint,13.379999999999804,-0.2815603319365838
mouse_head_joint,13.399999999999803,-0.2838939078783085
mouse_head_joint,13.419999999999803,-0.285858122609552
mouse_head_joint,13.439999999999802,-0.28524299336702974
mouse_head_joint,13.459999999999802,-0.2833788705189084
mouse_head_joint,13.479999999999801,-0.28042657076921174
mouse_head_joint,13.499999999999801,-0.2785224146085312
mouse_head_joint,13.5199999999998,-0.2772408274441691
mouse_head_joint,13.5399999999998,-0.2762871773027653
mouse_head_joint,13.5599999999998,-0.27666134261310393
mouse_head_joint,13.5799999999998,-0.2771890774318999
mouse_head_joint,13.599999999999799,-0.27631050959475445
mouse_head_joint,13.619999999999798,-0.276054348814605
mouse_head_joint,13.639999999999798,-0.2769345012247202
mouse_head_joint,13.659999999999798,-0.27636377222120245
mouse_head_joint,13.679999999999797,-0.27540986117592325
mouse_head_joint,13.699999999999797,-0.2771236743629224
mouse_head_joint,13.719999999999796,-0.279603980803822
mouse_head_joint,13.739999999999796,-0.27995705360191536
mouse_head_joint,13.759999999999796,-0.27837491103744494
mouse_head_joint,13.779999999999795,-0.27641366207613505
mouse_head_joint,13.799999999999795,-0.2759285418082831
mouse_head_joint,13.819999999999794,-0.27461612909917577
mouse_head_joint,13.839999999999794,-0.2736117954872048
mouse_head_joint,13.859999999999793,-0.27390945387722265
mouse_head_joint,13.879999999999793,-0.2723069858944802
mouse_head_joint,13.899999999999793,-0.272470242607711
mouse_head_joint,13.919999999999792,-0.2742699797553394
mouse_head_joint,13.939999999999792,-0.27440359909779133
mouse_head_joint,13.959999999999791,-0.2733094409688377
mouse_head_joint,13.97999999999979,-0.27300099836485536
mouse_head_joint,13.99999999999979,-0.27271788013666587
mouse_head_joint,14.01999999999979,-0.27136372313574064
mouse_head_joint,14.03999999999979,-0.2703006159211938
mouse_head_joint,14.059999999999789,-0.2701395643521671
mouse_head_joint,14.079999999999789,-0.2712529129769905
mouse_head_joint,14.099999999999788,-0.27189885597280394
mouse_head_joint,14.119999999999788,-0.2720676356149099
mouse_head_joint,14.139999999999787,-0.2705642747712673
mouse_head_joint,14.159999999999787,-0.2694911475201289
mouse_head_joint,14.179999999999787,-0.2695998439080425
mouse_head_joint,14.199999999999786,-0.2696475103101328
mouse_head_joint,14.219999999999786,-0.270391075265632
mouse_head_joint,14.239999999999785,-0.26977617553504984
mouse_head_joint,14.259999999999785,-0.26960534472530906
mouse_head_joint,14.279999999999784,-0.2708732261224229
mouse_head_joint,14.299999999999784,-0.27136401958339906
mouse_head_joint,14.319999999999784,-0.27162775816464535
mouse_head_joint,14.339999999999783,-0.2726514132642288
mouse_head_joint,14.359999999999783,-0.2729463351582746
mouse_head_joint,14.379999999999782,-0.27312080558956797
mouse_head_joint,14.399999999999782,-0.2730950341473237
mouse_head_joint,14.419999999999781,-0.27331192858131903
mouse_head_joint,14.439999999999781,-0.27376450572471533
mouse_head_joint,14.45999999999978,-0.2736488797008816
mouse_head_joint,14.47999999999978,-0.2734326285101769
mouse_head_joint,14.49999999999978,-0.2717850663238872
mouse_head_joint,14.51999999999978,-0.26844062413664727
mouse_head_joint,14.539999999999779,-0.26420211592969256
mouse_head_joint,14.559999999999778,-0.2616898296491428
mouse_head_joint,14.579999999999778,-0.2603559483052482
mouse_head_joint,14.599999999999778,-0.2595365994633507
mouse_head_joint,14.619999999999777,-0.25904510128971303
mouse_head_joint,14.639999999999777,-0.25989832722843786
mouse_head_joint,14.659999999999776,-0.26151589165903566
mouse_head_joint,14.679999999999776,-0.26286327235451523
mouse_head_joint,14.699999999999775,-0.2647626503160314
mouse_head_joint,14.719999999999775,-0.26741286236856254
mouse_head_joint,14.739999999999775,-0.26969838575919525
mouse_head_joint,14.759999999999774,-0.27069845981211493
mouse_head_joint,14.779999999999774,-0.27236347956964124
mouse_head_joint,14.799999999999773,-0.2735543862237817
mouse_head_joint,14.819999999999773,-0.2731174060079553
mouse_head_joint,14.839999999999772,-0.27404577308816336
mouse_head_joint,14.859999999999772,-0.2745901544750584
mouse_head_joint,14.879999999999772,-0.2731801209003599
mouse_head_joint,14.899999999999771,-0.2709652543966792
mouse_head_joint,14.91999999999977,-0.26840172057675815
mouse_head_joint,14.93999999999977,-0.2679585855912494
mouse_head_joint,14.95999999999977,-0.26826769283330076
mouse_head_joint,14.97999999999977,-0.26865068497169897
mouse_head_joint,14.999999999999769,-0.2678512049193129
mouse_head_joint,15.019999999999769,-0.2670758958554691
mouse_head_joint,15.039999999999768,-0.26673255972020193
mouse_head_joint,15.059999999999768,-0.2665437917567042
mouse_head_joint,15.079999999999767,-0.2668823141233503
mouse_head_joint,15.099999999999767,-0.2662336411978359
mouse_head_joint,15.119999999999767,-0.2649540628935352
mouse_head_joint,15.139999999999766,-0.2643664023484842
mouse_head_joint,15.159999999999766,-0.26314375345349816
mouse_head_joint,15.179999999999765,-0.26268793564199555
mouse_head_joint,15.199999999999765,-0.2616253290246293
mouse_head_joint,15.219999999999764,-0.2602340097423763
mouse_head_joint,15.239999999999764,-0.2594093053035502
mouse_head_joint,15.259999999999764,-0.25911330054205006
mouse_head_joint,15.279999999999763,-0.25884715208232567
mouse_head_joint,15.299999999999763,-0.2586120804945953
mouse_head_joint,15.319999999999762,-0.2583774009672011
mouse_head_joint,15.339999999999762,-0.2581295477766403
mouse_head_joint,15.359999999999761,-0.25788097402605015
mouse_head_joint,15.379999999999761,-0.2576069721055756
mouse_head_joint,15.39999999999976,-0.2573819836078961
mouse_head_joint,15.41999999999976,-0.257131664286816
mouse_head_joint,15.43999999999976,-0.25686739844796236
mouse_head_joint,15.45999999999976,-0.2557884758354705
mouse_head_joint,15.479999999999759,-0.25389985692882444
mouse_head_joint,15.499999999999758,-0.25211114165138504
mouse_head_joint,15.519999999999758,-0.2501456255904282
mouse_head_joint,15.539999999999758,-0.24819083509052575
mouse_head_joint,15.559999999999757,-0.24643184371240068
mouse_head_joint,15.579999999999757,-0.24468194397333054
mouse_head_joint,15.599999999999756,-0.24284963852856745
mouse_head_joint,15.619999999999756,-0.24075499236231135
mouse_head_joint,15.639999999999755,-0.2390346570632671
mouse_head_joint,15.659999999999755,-0.2373230708423808
mouse_head_joint,15.679999999999755,-0.23544161650978168
mouse_head_joint,15.699999999999754,-0.2337488466995561
mouse_head_joint,15.719999999999754,-0.23206459249729416
mouse_head_joint,15.739999999999753,-0.23030140704518143
mouse_head_joint,15.759999999999753,-0.22846029549701896
mouse_head_joint,15.779999999999752,-0.22662992358500844
mouse_head_joint,15.799999999999752,-0.22498275266993684
mouse_head_joint,15.819999999999752,-0.22317248395970957
mouse_head_joint,15.839999999999751,-0.22154346532274882
mouse_head_joint,15.85999999999975,-0.2196680771047106
mouse_head_joint,15.87999999999975,-0.21822665105526973
mouse_head_joint,15.89999999999975,-0.21637137387244554
mouse_head_joint,15.91999999999975,-0.2147780593236055
mouse_head_joint,15.939999999999749,-0.21294369210081676
mouse_head_joint,15.959999999999749,-0.21145114908135465
mouse_head_joint,15.979999999999748,-0.20988372803640587
mouse_head_joint,15.999999999999748,-0.2081611260621692
mouse_head_joint,16.019999999999747,-0.20652979010576722
mouse_head_joint,16.039999999999747,-0.20482660115051843
mouse_head_joint,16.059999999999746,-0.20337492843579508
mouse_head_joint,16.079999999999746,-0.20177026097012263
mouse_head_joint,16.099999999999746,-0.20001540513692895
mouse_head_joint,16.119999999999745,-0.1984295541428267
mouse_head_joint,16.139999999999745,-0.19700980386186817
mouse_head_joint,16.159999999999744,-0.19520623646210922
mouse_head_joint,16.179999999999744,-0.19380267134318352
mouse_head_joint,16.199999999999743,-0.1921742374033526
mouse_head_joint,16.219999999999743,-0.19078644956577762
mouse_head_joint,16.239999999999743,-0.18917565954042104
mouse_head_joint,16.259999999999742,-0.18757455490205377
mouse_head_joint,16.279999999999742,-0.18613427728893672
mouse_head_joint,16.29999999999974,-0.18455137967201551
mouse_head_joint,16.31999999999974,-0.1832017832015298
mouse_head_joint,16.33999999999974,-0.1817107398839033
mouse_head_joint,16.35999999999974,-0.18008013865380956
mouse_head_joint,16.37999999999974,-0.17867998129381224
mouse_head_joint,16.39999999999974,-0.1771413152221477
mouse_head_joint,16.41999999999974,-0.1758298646120684
mouse_head_joint,16.43999999999974,-0.17423582741458876
mouse_head_joint,16.459999999999738,-0.1727955831160104
mouse_head_joint,16.479999999999738,-0.1713635692545088
mouse_head_joint,16.499999999999737,-0.17001066713988244
mouse_head_joint,16.519999999999737,-0.16859430989217827
mouse_head_joint,16.539999999999736,-0.16725665334217954
mouse_head_joint,16.559999999999736,-0.1656469309551536
mouse_head_joint,16.579999999999735,-0.1643943138777093
mouse_head_joint,16.599999999999735,-0.16287258494296353
mouse_head_joint,16.619999999999735,-0.1615658795212891
mouse_head_joint,16.639999999999734,-0.16026630109463547
mouse_head_joint,16.659999999999734,-0.1589740431504092
mouse_head_joint,16.679999999999733,-0.15755399617922983
mouse_head_joint,16.699999999999733,-0.15627642443653045
mouse_head_joint,16.719999999999732,-0.15493926443789086
mouse_head_joint,16.739999999999732,-0.153609897011747
mouse_head_joint,16.75999999999973,-0.15222226109454873
mouse_head_joint,16.77999999999973,-0.15097416721978885
mouse_head_joint,16.79999999999973,-0.1496680409861506
mouse_head_joint,16.81999999999973,-0.14830431653701392
mouse_head_joint,16.83999999999973,-0.14701353249757432
mouse_head_joint,16.85999999999973,-0.14573025480447566
mouse_head_joint,16.87999999999973,-0.14451816738933054
mouse_head_joint,16.89999999999973,-0.14318615050609118
mouse_head_joint,16.919999999999728,-0.14192514182871818
mouse_head_joint,16.939999999999728,-0.14073427340312694
mouse_head_joint,16.959999999999727,-0.13936337115381026
mouse_head_joint,16.979999999999727,-0.13818659622957252
mouse_head_joint,16.999999999999726,-0.13701665507409277
mouse_head_joint,17.019999999999726,-0.13573094659345752
mouse_head_joint,17.039999999999726,-0.1345136727013969
mouse_head_joint,17.059999999999725,-0.13336421351348093
mouse_head_joint,17.079999999999725,-0.13216110832468253
mouse_head_joint,17.099999999999724,-0.13096516875095787
mouse_head_joint,17.119999999999724,-0.12977625125337688
mouse_head_joint,17.139999999999723,-0.1285944384139288
mouse_head_joint,17.159999999999723,-0.12741966290749307
mouse_head_joint,17.179999999999723,-0.12625174273284046
mouse_head_joint,17.199999999999722,-0.12474413562889897
mouse_head_joint,17.21999999999972,-0.12387942697139032
mouse_head_joint,17.23999999999972,-0.12278984042960062
mouse_head_joint,17.25999999999972,-0.12164993172234517
mouse_head_joint,17.27999999999972,-0.12051644019243124
mouse_head_joint,17.29999999999972,-0.11933364108578193
mouse_head_joint,17.31999999999972,-0.11826985473829144
mouse_head_joint,17.33999999999972,-0.11715695737440512
mouse_head_joint,17.35999999999972,-0.11605037169178356
mouse_head_joint,17.37999999999972,-0.11495083802171369
mouse_head_joint,17.399999999999718,-0.11385773827034651
mouse_head_joint,17.419999999999717,-0.11271700656974204
mouse_head_joint,17.439999999999717,-0.11169129051119508
mouse_head_joint,17.459999999999717,-0.11029703571895055
mouse_head_joint,17.479999999999716,-0.1095508593003407
mouse_head_joint,17.499999999999716,-0.10849050916894853
mouse_head_joint,17.519999999999715,-0.10733148306919205
mouse_head_joint,17.539999999999715,-0.10633685485857747
mouse_head_joint,17.559999999999715,-0.10529581108394925
mouse_head_joint,17.579999999999714,-0.10431298350114382
mouse_head_joint,17.599999999999714,-0.1032844706687035
mouse_head_joint,17.619999999999713,-0.10226231495093607
mouse_head_joint,17.639999999999713,-0.10119573293095652
mouse_head_joint,17.659999999999712,-0.10023658680747172
mouse_head_joint,17.679999999999712,-0.0991830404245313
mouse_head_joint,17.69999999999971,-0.09823566068968148
mouse_head_joint,17.71999999999971,-0.09724475325643045
mouse_head_joint,17.73999999999971,-0.09621034618359481
mouse_head_joint,17.75999999999971,-0.09523167661498366
mouse_head_joint,17.77999999999971,-0.09425902692602417
mouse_head_joint,17.79999999999971,-0.09334067700340132
mouse_head_joint,17.81999999999971,-0.0922838132015178
mouse_head_joint,17.83999999999971,-0.09109173137653492
mouse_head_joint,17.859999999999708,-0.0901919860268876
mouse_head_joint,17.879999999999708,-0.08929774001514978
mouse_head_joint,17.899999999999707,-0.08854847337512783
mouse_head_joint,17.919999999999707,-0.08761742907062064
mouse_head_joint,17.939999999999706,-0.08669214430359506
mouse_head_joint,17.959999999999706,-0.08577281723428865
mouse_head_joint,17.979999999999706,-0.0849043880363558
mouse_head_joint,17.999999999999705,-0.08395082668369724
mouse_head_joint,18.019999999999705,-0.08304859701783229
mouse_head_joint,18.039999999999704,-0.0821968035545586
mouse_head_joint,18.059999999999704,-0.08130547927269038
mouse_head_joint,18.079999999999703,-0.08037573710083201
mouse_head_joint,18.099999999999703,-0.07949585676807036
mouse_head_joint,18.119999999999703,-0.0786652333660145
mouse_head_joint,18.139999999999702,-0.07775295769945423
mouse_head_joint,18.1599999999997,-0.07693298583908614
mouse_head_joint,18.1799999999997,-0.0760749950764934
mouse_head_joint,18.1999999999997,-0.07522269691937122
mouse_head_joint,18.2199999999997,-0.07433344180089652
mouse_head_joint,18.2399999999997,-0.07345016206075794
mouse_head_joint,18.2599999999997,-0.07269765821259977
mouse_head_joint,18.2799999999997,-0.07186686678712118
mouse_head_joint,18.2999999999997,-0.07104130759790994
mouse_head_joint,18.3199999999997,-0.07022124093404791
mouse_head_joint,18.339999999999698,-0.06936542759660647
mouse_head_joint,18.359999999999697,-0.06855599560829528
mouse_head_joint,18.379999999999697,-0.06779181117813149
mouse_head_joint,18.399999999999697,-0.06691273864597314
mouse_head_joint,18.419999999999696,-0.06596112144990851
mouse_head_joint,18.439999999999696,-0.06537004690862958
mouse_head_joint,18.459999999999695,-0.06462551184430954
mouse_head_joint,18.479999999999695,-0.06376897090738343
mouse_head_joint,18.499999999999694,-0.0630729875586784
mouse_head_joint,18.519999999999694,-0.06226599177520864
mouse_head_joint,18.539999999999694,-0.06154040412336226
mouse_head_joint,18.559999999999693,-0.060781891962217394
mouse_head_joint,18.579999999999693,-0.06002828694949347
mouse_head_joint,18.599999999999692,-0.05924219522228835
mouse_head_joint,18.619999999999692,-0.05853540605616736
mouse_head_joint,18.63999999999969,-0.05772292500354226
mouse_head_joint,18.65999999999969,-0.057025847023573384
mouse_head_joint,18.67999999999969,-0.05629669302634621
mouse_head_joint,18.69999999999969,-0.05560853992814696
mouse_head_joint,18.71999999999969,-0.054638400151230115
mouse_head_joint,18.73999999999969,-0.05417397239114674
mouse_head_joint,18.75999999999969,-0.053463937353796176
mouse_head_joint,18.77999999999969,-0.05272336094331376
mouse_head_joint,18.799999999999688,-0.052057777746334466
mouse_head_joint,18.819999999999688,-0.0512922453460094
mouse_head_joint,18.839999999999687,-0.05063574431411233
mouse_head_joint,18.859999999999687,-0.04994929642024548
mouse_head_joint,18.879999999999686,-0.049301369683234064
mouse_head_joint,18.899999999999686,-0.04862366957134778
mouse_head_joint,18.919999999999686,-0.04791707945660484
mouse_head_joint,18.939999999999685,-0.04728210192364113
mouse_head_joint,18.959999999999685,-0.046584999845389774
mouse_head_joint,18.979999999999684,-0.04595861675433355
mouse_head_joint,18.999999999999684,-0.045270905552770024
mouse_head_joint,19.019999999999683,-0.044652916003797394
mouse_head_joint,19.039999999999683,-0.04394241348372052
mouse_head_joint,19.059999999999683,-0.043332755025073055
mouse_head_joint,19.079999999999682,-0.0427272533036307
mouse_head_joint,19.09999999999968,-0.04206260081873836
mouse_head_joint,19.11999999999968,-0.041434136990282866
mouse_head_joint,19.13999999999968,-0.040840961302899714
mouse_head_joint,19.15999999999968,-0.040035452471636646
mouse_head_joint,19.17999999999968,-0.03960479309161258
mouse_head_joint,19.19999999999968,-0.03896260965735632
mouse_head_joint,19.21999999999968,-0.038355205532001335
mouse_head_joint,19.23999999999968,-0.037782173337630454
mouse_head_joint,19.25999999999968,-0.03715319357007196
mouse_head_joint,19.279999999999678,-0.03655854893445465
mouse_head_joint,19.299999999999677,-0.03599735894873479
mouse_head_joint,19.319999999999677,-0.035381378347392634
mouse_head_joint,19.339999999999677,-0.034827973811771606
mouse_head_joint,19.359999999999676,-0.03422054577643685
mouse_head_joint,19.379999999999676,-0.0336460778643648
mouse_head_joint,19.399999999999675,-0.03304732370257479
mouse_head_joint,19.419999999999675,-0.032509459626988146
mouse_head_joint,19.439999999999674,-0.031975107856832885
mouse_head_joint,19.459999999999674,-0.031388669813602554
mouse_head_joint,19.479999999999674,-0.030834070082301324
mouse_head_joint,19.499999999999673,-0.03028361671557711
mouse_head_joint,19.519999999999673,-0.029709719388103295
mouse_head_joint,19.539999999999672,-0.029221059568961927
mouse_head_joint,19.559999999999672,-0.028682036083968576
mouse_head_joint,19.57999999999967,-0.028146613156337708
mouse_head_joint,19.59999999999967,-0.0275886538124821
mouse_head_joint,19.61999999999967,-0.027087426963616323
mouse_head_joint,19.63999999999967,-0.02653741118063646
mouse_head_joint,19.65999999999967,-0.026017534424680022
mouse_head_joint,19.67999999999967,-0.025527035792121566
mouse_head_joint,19.69999999999967,-0.024988778912461207
mouse_head_joint,19.71999999999967,-0.024454592832386268
mouse_head_joint,19.739999999999668,-0.023974812292908432
mouse_head_joint,19.759999999999668,-0.023473207459705492
mouse_head_joint,19.779999999999667,-0.02297540099600326
mouse_head_joint,19.799999999999667,-0.022481044998840183
mouse_head_joint,19.819999999999666,-0.021965934208960647
mouse_head_joint,19.839999999999666,-0.021479138984675572
mouse_head_joint,19.859999999999665,-0.0208993071877126
mouse_head_joint,19.879999999999665,-0.020563548155885236
mouse_head_joint,19.899999999999665,-0.02006314914769103
mouse_head_joint,19.919999999999664,-0.019614023375360112
mouse_head_joint,19.939999999999664,-0.0191442393134853
mouse_head_joint,19.959999999999663,-0.018654776886919855
mouse_head_joint,19.979999999999663,-0.0181923002761728
mouse_head_joint,19.999999999999662,-0.01773301989001652
mouse_head_joint,20.019999999999662,-0.017299941601131685
mouse_head_joint,20.03999999999966,-0.016802432292074343
