Name,time,Position
mouse_head_joint,0.0,0.0
mouse_head_joint,0.02,0.0
mouse_head_joint,0.04,0.0
mouse_head_joint,0.06,0.0
mouse_head_joint,0.08,0.0
mouse_head_joint,0.1,0.0
mouse_head_joint,0.12000000000000001,0.0
mouse_head_joint,0.14,0.0
mouse_head_joint,0.16,0.0
mouse_head_joint,0.18,0.0
mouse_head_joint,0.19999999999999998,0.0
mouse_head_joint,0.21999999999999997,-0.0019383634625862456
mouse_head_joint,0.23999999999999996,-0.00019618625139283807
mouse_head_joint,0.25999999999999995,2.7684641790592934e-05
mouse_head_joint,0.27999999999999997,7.0741377102834235e-06
mouse_head_joint,0.3,6.526700548903364e-06
mouse_head_joint,0.32,-6.7253120654697796e-06
mouse_head_joint,0.34,-7.610328476737038e-06
mouse_head_joint,0.36000000000000004,-8.531858064486642e-06
mouse_head_joint,0.38000000000000006,-9.583923892719781e-06
mouse_head_joint,0.4000000000000001,-1.1037211786302237e-05
mouse_head_joint,0.4200000000000001,-1.2441959310827144e-05
mouse_head_joint,0.4400000000000001,-1.41457232620823e-05
mouse_head_joint,0.46000000000000013,-1.601597352163253e-05
mouse_head_joint,0.48000000000000015,-1.7528585315673695e-05
mouse_head_joint,0.5000000000000001,-1.9375649544350892e-05
mouse_head_joint,0.5200000000000001,-2.123850348834111e-05
mouse_head_joint,0.5400000000000001,-2.303756649268962e-05
mouse_head_joint,0.5600000000000002,-2.4600070667624152e-05
mouse_head_joint,0.5800000000000002,-2.6420931687809457e-05
mouse_head_joint,0.6000000000000002,-2.8187979240534844e-05
mouse_head_joint,0.6200000000000002,-2.9905893860870947e-05
mouse_head_joint,0.6400000000000002,-3.178936499725893e-05
mouse_head_joint,0.6600000000000003,-3.34666350649826e-05
mouse_head_joint,0.6800000000000003,-3.5257157608548084e-05
mouse_head_joint,0.7000000000000003,-3.7036579555227434e-05
mouse_head_joint,0.7200000000000003,-3.868407713270017e-05
mouse_head_joint,0.7400000000000003,-4.06738042668664e-05
mouse_head_joint,0.7600000000000003,-4.212652774793213e-05
mouse_head_joint,0.7800000000000004,-4.41294911768253e-05
mouse_head_joint,0.8000000000000004,-4.555284374863078e-05
mouse_head_joint,0.8200000000000004,-4.734909409886967e-05
mouse_head_joint,0.8400000000000004,-4.913493976133054e-05
mouse_head_joint,0.8600000000000004,-5.0717691044255275e-05
mouse_head_joint,0.8800000000000004,-5.22899411423694e-05
mouse_head_joint,0.9000000000000005,-5.403739167419985e-05
mouse_head_joint,0.9200000000000005,-5.5768294186187006e-05
mouse_head_joint,0.9400000000000005,-5.713670466356291e-05
mouse_head_joint,0.9600000000000005,-5.8969228028615817e-05
mouse_head_joint,0.9800000000000005,-6.04544660411932e-05
mouse_head_joint,1.0000000000000004,-6.19174424336677e-05
mouse_head_joint,1.0200000000000005,-6.383889027983258e-05
mouse_head_joint,1.0400000000000005,-6.521317520036263e-05
mouse_head_joint,1.0600000000000005,-6.692097126315133e-05
mouse_head_joint,1.0800000000000005,-6.837872268317113e-05
mouse_head_joint,1.1000000000000005,-6.982558536705596e-05
mouse_head_joint,1.1200000000000006,-7.141268264554412e-05
mouse_head_joint,1.1400000000000006,-7.300028882539777e-05
mouse_head_joint,1.1600000000000006,-7.42370035462514e-05
mouse_head_joint,1.1800000000000006,-7.580430298226304e-05
mouse_head_joint,1.2000000000000006,-7.720242622166751e-05
mouse_head_joint,1.2200000000000006,-7.857123678256528e-05
mouse_head_joint,1.2400000000000007,-8.044139948815143e-05
mouse_head_joint,1.2600000000000007,-8.146031314471003e-05
mouse_head_joint,1.2800000000000007,-8.296778623950729e-05
mouse_head_joint,1.3000000000000007,-8.447323553273378e-05
mouse_head_joint,1.3200000000000007,-8.579611928816178e-05
mouse_head_joint,1.3400000000000007,-8.72506691278474e-05
mouse_head_joint,1.3600000000000008,-8.85526689335947e-05
mouse_head_joint,1.3800000000000008,-8.979769262751347e-05
mouse_head_joint,1.4000000000000008,-9.140954198816331e-05
mouse_head_joint,1.4200000000000008,-9.245218677644829e-05
mouse_head_joint,1.4400000000000008,-9.379780105245317e-05
mouse_head_joint,1.4600000000000009,-9.518208893499747e-05
mouse_head_joint,1.4800000000000009,-9.641924375358712e-05
mouse_head_joint,1.5000000000000009,-9.784165568582637e-05
mouse_head_joint,1.520000000000001,-9.892328005900453e-05
mouse_head_joint,1.540000000000001,-0.00010012825555349991
mouse_head_joint,1.560000000000001,-0.00010145304946540534
mouse_head_joint,1.580000000000001,-0.00010292378245768674
mouse_head_joint,1.600000000000001,-0.00010398019392976465
mouse_head_joint,1.620000000000001,-0.00010528510142471248
mouse_head_joint,1.640000000000001,-0.00010643834043833067
mouse_head_joint,1.660000000000001,-0.00010786249783212298
mouse_head_joint,1.680000000000001,-0.00010907857058040094
mouse_head_joint,1.700000000000001,-0.00010994936605879246
mouse_head_joint,1.720000000000001,-0.00011136929930444239
mouse_head_joint,1.740000000000001,-0.00011247244444323456
mouse_head_joint,1.7600000000000011,-0.00011350803425358436
mouse_head_joint,1.7800000000000011,-0.00011487318279179703
mouse_head_joint,1.8000000000000012,-0.000115869110620892
mouse_head_joint,1.8200000000000012,-0.00011709167481832594
mouse_head_joint,1.8400000000000012,-0.00011806175146222841
mouse_head_joint,1.8600000000000012,-0.0001191062122494202
mouse_head_joint,1.8800000000000012,-0.00012007681502090861
mouse_head_joint,1.9000000000000012,-0.00012124730609741619
mouse_head_joint,1.9200000000000013,-0.00012220654104844186
mouse_head_joint,1.9400000000000013,-0.00012336920470890078
mouse_head_joint,1.9600000000000013,-0.0001243177535759088
mouse_head_joint,1.9800000000000013,-0.0001255893114109341
mouse_head_joint,2.0000000000000013,-0.00012656706654734506
mouse_head_joint,2.0200000000000014,-0.00012753607409887735
mouse_head_joint,2.0400000000000014,-0.000128617936693054
mouse_head_joint,2.0600000000000014,-0.00012982379084736095
mouse_head_joint,2.0800000000000014,-0.00013046850216724692
mouse_head_joint,2.1000000000000014,-0.00013169720627193016
mouse_head_joint,2.1200000000000014,-0.00013245024371677516
mouse_head_joint,2.1400000000000015,-0.0001335795673877982
mouse_head_joint,2.1600000000000015,-0.00013427062666604428
mouse_head_joint,2.1800000000000015,-0.0001353259119944994
mouse_head_joint,2.2000000000000015,-0.00013639499513296016
mouse_head_joint,2.2200000000000015,-0.00013719909830900434
mouse_head_joint,2.2400000000000015,-0.00013806991785791922
mouse_head_joint,2.2600000000000016,-0.000138932586541074
mouse_head_joint,2.2800000000000016,-0.00014000576706330037
mouse_head_joint,2.3000000000000016,-0.0001408510141525099
mouse_head_joint,2.3200000000000016,-0.00014162835698350307
mouse_head_joint,2.3400000000000016,-0.00014261253810232688
mouse_head_joint,2.3600000000000017,-0.0001433787992777269
mouse_head_joint,2.3800000000000017,-0.00014419092260276045
mouse_head_joint,2.4000000000000017,-0.0001451523627213902
mouse_head_joint,2.4200000000000017,-0.0001460010361862274
mouse_head_joint,2.4400000000000017,-0.00014678822468550123
mouse_head_joint,2.4600000000000017,-0.00014756774366908587
mouse_head_joint,2.4800000000000018,-0.00014862322850195397
mouse_head_joint,2.5000000000000018,-0.00014931048118516088
mouse_head_joint,2.520000000000002,-0.00015006624314839456
mouse_head_joint,2.540000000000002,-0.00015084867165704452
mouse_head_joint,2.560000000000002,-0.00015170380964946162
mouse_head_joint,2.580000000000002,-0.0001524360449982609
mouse_head_joint,2.600000000000002,-0.00015320425543396965
mouse_head_joint,2.620000000000002,-0.0001539211162020493
mouse_head_joint,2.640000000000002,-0.00015454432267247853
mouse_head_joint,2.660000000000002,-0.00015544099627007313
mouse_head_joint,2.680000000000002,-0.00015613462959862545
mouse_head_joint,2.700000000000002,-0.00015675147491744923
mouse_head_joint,2.720000000000002,-0.00015743045659633026
mouse_head_joint,2.740000000000002,-0.0001582507998536542
mouse_head_joint,2.760000000000002,-0.00015909262299196314
mouse_head_joint,2.780000000000002,-0.00015965924029259781
mouse_head_joint,2.800000000000002,-0.00016024766023559067
mouse_head_joint,2.820000000000002,-0.00016104058062982318
mouse_head_joint,2.840000000000002,-0.0001617632415022996
mouse_head_joint,2.860000000000002,-0.00016239138480944604
mouse_head_joint,2.880000000000002,-0.0001630517290998057
mouse_head_joint,2.900000000000002,-0.00016368408024369785
mouse_head_joint,2.920000000000002,-0.0001642907353307521
mouse_head_joint,2.940000000000002,-0.0001648907873628147
mouse_head_joint,2.960000000000002,-0.00016559332076582223
mouse_head_joint,2.980000000000002,-0.00016609610677775777
mouse_head_joint,3.000000000000002,-0.00016678923708113302
mouse_head_joint,3.0200000000000022,-0.00016730563630940054
mouse_head_joint,3.0400000000000023,-0.00016795831628790836
mouse_head_joint,3.0600000000000023,-0.00016856132605003182
mouse_head_joint,3.0800000000000023,-0.00016911902224858721
mouse_head_joint,3.1000000000000023,-0.00016958707366576675
mouse_head_joint,3.1200000000000023,-0.00017019734948053866
mouse_head_joint,3.1400000000000023,-0.00017087522524139587
mouse_head_joint,3.1600000000000024,-0.00017133266947055859
mouse_head_joint,3.1800000000000024,-0.0001718526607996651
mouse_head_joint,3.2000000000000024,-0.00017244207292588243
mouse_head_joint,3.2200000000000024,-0.00017294932199263258
mouse_head_joint,3.2400000000000024,-0.00017362049069369334
mouse_head_joint,3.2600000000000025,-0.00017420593778894045
mouse_head_joint,3.2800000000000025,-0.00017460345779607422
mouse_head_joint,3.3000000000000025,-0.00017495331607264575
mouse_head_joint,3.3200000000000025,-0.00017566923255429856
mouse_head_joint,3.3400000000000025,-0.00017605633361661432
mouse_head_joint,3.3600000000000025,-0.00017662102180882044
mouse_head_joint,3.3800000000000026,-0.00017697738747557423
mouse_head_joint,3.4000000000000026,-0.00017754827326310618
mouse_head_joint,3.4200000000000026,-0.00017790001079998063
mouse_head_joint,3.4400000000000026,-0.00017852289134179244
mouse_head_joint,3.4600000000000026,-0.00017890442541279583
mouse_head_joint,3.4800000000000026,-0.0001793846688915579
mouse_head_joint,3.5000000000000027,-0.00017986841582828816
mouse_head_joint,3.5200000000000027,-0.00018014550110478922
mouse_head_joint,3.5400000000000027,-0.00018069613865812073
mouse_head_joint,3.5600000000000027,-0.00018102582229317932
mouse_head_joint,3.5800000000000027,-0.00018162732754944955
mouse_head_joint,3.6000000000000028,-0.00018203812372519224
mouse_head_joint,3.6200000000000028,-0.0001825229749261581
mouse_head_joint,3.640000000000003,-0.00018280918045832095
mouse_head_joint,3.660000000000003,-0.0001831868726656083
mouse_head_joint,3.680000000000003,-0.00018355002125503006
mouse_head_joint,3.700000000000003,-0.00018391681041052266
mouse_head_joint,3.720000000000003,-0.000184384184112929
mouse_head_joint,3.740000000000003,-0.000184637078184835
mouse_head_joint,3.760000000000003,-0.0001850969009415948
mouse_head_joint,3.780000000000003,-0.00018532849109220706
mouse_head_joint,3.800000000000003,-0.00018578247823963778
mouse_head_joint,3.820000000000003,-0.00018614188994714453
mouse_head_joint,3.840000000000003,-0.00018638068854581746
mouse_head_joint,3.860000000000003,-0.00018670546884624883
mouse_head_joint,3.880000000000003,-0.00018720724145993017
mouse_head_joint,3.900000000000003,-0.00018738708006171834
mouse_head_joint,3.920000000000003,-0.00018774969675305897
mouse_head_joint,3.940000000000003,-0.00018805431790536176
mouse_head_joint,3.960000000000003,-0.00018854038312987598
mouse_head_joint,3.980000000000003,-0.00018870207448973275
mouse_head_joint,4.000000000000003,-0.00018923326415265507
mouse_head_joint,4.020000000000002,-0.00018951833292124576
mouse_head_joint,4.040000000000002,-0.0001895514386802688
mouse_head_joint,4.060000000000001,-0.0001898268806792558
mouse_head_joint,4.080000000000001,-0.0001903171464814335
mouse_head_joint,4.1000000000000005,-0.0001905772735586453
mouse_head_joint,4.12,-0.0001908414525857438
mouse_head_joint,4.14,-0.00019109813773621198
mouse_head_joint,4.159999999999999,-0.00019123691949740618
mouse_head_joint,4.179999999999999,-0.00019159341980135025
mouse_head_joint,4.199999999999998,-0.00019173042734266232
mouse_head_joint,4.219999999999998,-0.0001920891004019154
mouse_head_joint,4.2399999999999975,-0.00019222663075968427
mouse_head_joint,4.259999999999997,-0.00019258341453198824
mouse_head_joint,4.279999999999997,-0.00019271875513560133
mouse_head_joint,4.299999999999996,-0.00019298297566905376
mouse_head_joint,4.319999999999996,-0.0001931992355670431
mouse_head_joint,4.339999999999995,-0.0001934552754709884
mouse_head_joint,4.359999999999995,-0.00019379149651221894
mouse_head_joint,4.379999999999995,-0.00019409922632984689
mouse_head_joint,4.399999999999994,-0.00019429838953488598
mouse_head_joint,4.419999999999994,-0.0001943865759024277
mouse_head_joint,4.439999999999993,-0.00019442748837850132
mouse_head_joint,4.459999999999993,-0.00019473471309083834
mouse_head_joint,4.479999999999992,-0.0001949019085536463
mouse_head_joint,4.499999999999992,-0.0001951746416377631
mouse_head_joint,4.519999999999992,-0.0001953490315784734
mouse_head_joint,4.539999999999991,-0.00019539611097485476
mouse_head_joint,4.559999999999991,-0.00019567274065401818
mouse_head_joint,4.57999999999999,-0.00019584935923688818
mouse_head_joint,4.59999999999999,-0.0001959992956175327
mouse_head_joint,4.6199999999999894,-0.0001961763295019736
mouse_head_joint,4.639999999999989,-0.00019639572393526095
mouse_head_joint,4.659999999999989,-0.00019637974063346775
mouse_head_joint,4.679999999999988,-0.00019664896809423738
mouse_head_joint,4.699999999999988,-0.00019673355484162158
mouse_head_joint,4.719999999999987,-0.0001968687864151164
mouse_head_joint,4.739999999999987,-0.00019712527638837685
mouse_head_joint,4.7599999999999865,-0.00019735392367881133
mouse_head_joint,4.779999999999986,-0.00019736750589327556
mouse_head_joint,4.799999999999986,-0.00019733413225075935
mouse_head_joint,4.819999999999985,-0.000197567888712058
mouse_head_joint,4.839999999999985,-0.0001976813066271177
mouse_head_joint,4.859999999999984,-0.00019776845401597853
mouse_head_joint,4.879999999999984,-0.00019787476647525892
mouse_head_joint,4.8999999999999835,-0.000198068223440373
mouse_head_joint,4.919999999999983,-0.00019814691350017455
mouse_head_joint,4.939999999999983,-0.0001982427504909623
mouse_head_joint,4.959999999999982,-0.00019822075599851274
mouse_head_joint,4.979999999999982,-0.0001983176947062404
mouse_head_joint,4.999999999999981,-0.00019857814730617207
mouse_head_joint,5.019999999999981,-0.0001985665920090085
mouse_head_joint,5.0399999999999805,-0.00019870925546072726
mouse_head_joint,5.05999999999998,-0.0001986903401967055
mouse_head_joint,5.07999999999998,-0.00019891367759772294
mouse_head_joint,5.099999999999979,-0.00019886077622111031
mouse_head_joint,5.119999999999979,-0.0001990480623286217
mouse_head_joint,5.139999999999978,-0.00019920806513606948
mouse_head_joint,5.159999999999978,-0.00019926750054555242
mouse_head_joint,5.1799999999999775,-0.00019905207909864941
mouse_head_joint,5.199999999999977,-0.00019910522005872622
mouse_head_joint,5.219999999999977,-0.00019920264902850704
mouse_head_joint,5.239999999999976,-0.00019928647494094065
mouse_head_joint,5.259999999999976,-0.00019938393399332455
mouse_head_joint,5.279999999999975,-0.00019933344691658306
mouse_head_joint,5.299999999999975,-0.0001993712984580398
mouse_head_joint,5.3199999999999745,-0.0001993865289584562
mouse_head_joint,5.339999999999974,-0.00019952790586597047
mouse_head_joint,5.359999999999974,-0.00019944897708956688
mouse_head_joint,5.379999999999973,-0.00019959177078998636
mouse_head_joint,5.399999999999973,-0.00019961492248476986
mouse_head_joint,5.419999999999972,-0.00019953426266994256
mouse_head_joint,5.439999999999972,-0.00019957386854763115
mouse_head_joint,5.4599999999999715,-0.00019970837979066403
mouse_head_joint,5.479999999999971,-0.0001997201946810634
mouse_head_joint,5.499999999999971,-0.00019963240266829274
mouse_head_joint,5.51999999999997,-0.00019985171536429647
mouse_head_joint,5.53999999999997,-0.00019985526759747074
mouse_head_joint,5.559999999999969,-0.0001997390353496442
mouse_head_joint,5.579999999999969,-0.00019976871587790157
mouse_head_joint,5.599999999999969,-0.00019976408202282414
mouse_head_joint,5.619999999999968,-0.00019975693755469592
mouse_head_joint,5.639999999999968,-0.00019958774740569396
mouse_head_joint,5.659999999999967,-0.00019967064927772782
mouse_head_joint,5.679999999999967,-0.000199560296429091
mouse_head_joint,5.699999999999966,-0.00019951759208947095
mouse_head_joint,5.719999999999966,-0.00019949754881398718
mouse_head_joint,5.739999999999966,-0.00019958533282427027
mouse_head_joint,5.759999999999965,-0.00019944608817556997
mouse_head_joint,5.779999999999965,-0.0001995326344390591
mouse_head_joint,5.799999999999964,-0.00019943463382166016
mouse_head_joint,5.819999999999964,-0.00019938359611693102
mouse_head_joint,5.839999999999963,-0.0001994660830897388
mouse_head_joint,5.859999999999963,-0.0001994288815367895
mouse_head_joint,5.879999999999963,-0.00019940590865719088
mouse_head_joint,5.899999999999962,-0.00019945592255687927
mouse_head_joint,5.919999999999962,-0.00019941167281167793
mouse_head_joint,5.939999999999961,-0.00019924554590744492
mouse_head_joint,5.959999999999961,-0.00019922100695968226
mouse_head_joint,5.9799999999999605,-0.00019916979049394712
mouse_head_joint,5.99999999999996,-0.00019911643829484404
mouse_head_joint,6.01999999999996,-0.00019889409318629703
mouse_head_joint,6.039999999999959,-0.000198836186907414
mouse_head_joint,6.059999999999959,-0.00019877620043562416
mouse_head_joint,6.079999999999958,-0.00019880689536044827
mouse_head_joint,6.099999999999958,-0.00019873320417662654
mouse_head_joint,6.1199999999999575,-0.00019854490696591398
mouse_head_joint,6.139999999999957,-0.0001984763520717081
mouse_head_joint,6.159999999999957,-0.00019851744471033328
mouse_head_joint,6.179999999999956,-0.00019845377215244042
mouse_head_joint,6.199999999999956,-0.00019837898622476757
mouse_head_joint,6.219999999999955,-0.00019831484369969843
mouse_head_joint,6.239999999999955,-0.00019833824766113395
mouse_head_joint,6.2599999999999545,-0.00019816740327360804
mouse_head_joint,6.279999999999954,-0.00019808457074876884
mouse_head_joint,6.299999999999954,-0.00019780292872528804
mouse_head_joint,6.319999999999953,-0.00019782214140828813
mouse_head_joint,6.339999999999953,-0.00019781057971179905
mouse_head_joint,6.359999999999952,-0.0001977198988756257
mouse_head_joint,6.379999999999952,-0.00019742138291523048
mouse_head_joint,6.3999999999999515,-0.0001973600774940465
mouse_head_joint,6.419999999999951,-0.00019735462794390202
mouse_head_joint,6.439999999999951,-0.0001971656932440169
mouse_head_joint,6.45999999999995,-0.00019703191134112785
mouse_head_joint,6.47999999999995,-0.00019703255806557962
mouse_head_joint,6.499999999999949,-0.00019692994257525243
mouse_head_joint,6.519999999999949,-0.00019681886249856007
mouse_head_joint,6.5399999999999485,-0.00019671183390901348
mouse_head_joint,6.559999999999948,-0.0001966083514846062
mouse_head_joint,6.579999999999948,-0.00019639373979885022
mouse_head_joint,6.599999999999947,-0.00019640347392968494
mouse_head_joint,6.619999999999947,-0.0001961775104089014
mouse_head_joint,6.639999999999946,-0.00019606194829879797
mouse_head_joint,6.659999999999946,-0.00019602089995895966
mouse_head_joint,6.6799999999999455,-0.0001959019384738525
mouse_head_joint,6.699999999999945,-0.00019578143127052527
mouse_head_joint,6.719999999999945,-0.0001954928058243155
mouse_head_joint,6.739999999999944,-0.0001954733106730444
mouse_head_joint,6.759999999999944,-0.0001953011468032173
mouse_head_joint,6.779999999999943,-0.00019525234778416944
mouse_head_joint,6.799999999999943,-0.0001949529742342193
mouse_head_joint,6.8199999999999426,-0.00019494898182603748
mouse_head_joint,6.839999999999942,-0.00019467555893015742
mouse_head_joint,6.859999999999942,-0.00019465902010740166
mouse_head_joint,6.879999999999941,-0.0001945245739785051
mouse_head_joint,6.899999999999941,-0.00019438055522158493
mouse_head_joint,6.91999999999994,-0.0001942431816122081
mouse_head_joint,6.93999999999994,-0.00019410652346074642
mouse_head_joint,6.95999999999994,-0.00019386075710681183
mouse_head_joint,6.979999999999939,-0.00019383050577914673
mouse_head_joint,6.999999999999939,-0.00019369307311745132
mouse_head_joint,7.019999999999938,-0.00019350990203559348
mouse_head_joint,7.039999999999938,-0.00019336394675040225
mouse_head_joint,7.059999999999937,-0.00019321670455330064
mouse_head_joint,7.079999999999937,-0.0001930681882802432
mouse_head_joint,7.099999999999937,-0.0001929274356582411
mouse_head_joint,7.119999999999936,-0.00019272913248702395
mouse_head_joint,7.139999999999936,-0.00019262378359918841
mouse_head_joint,7.159999999999935,-0.00019237513339565027
mouse_head_joint,7.179999999999935,-0.0001921324699711846
mouse_head_joint,7.1999999999999345,-0.00019206366242841
mouse_head_joint,7.219999999999934,-0.00019190614807396145
mouse_head_joint,7.239999999999934,-0.00019171921521188295
mouse_head_joint,7.259999999999933,-0.00019154851125069428
mouse_head_joint,7.279999999999933,-0.00019138740403157328
mouse_head_joint,7.299999999999932,-0.00019122505447644045
mouse_head_joint,7.319999999999932,-0.0001909545602805096
mouse_head_joint,7.3399999999999315,-0.0001908998428676867
mouse_head_joint,7.359999999999931,-0.00019073716983530886
mouse_head_joint,7.379999999999931,-0.0001905669677988442
mouse_head_joint,7.39999999999993,-0.00019040191816888097
mouse_head_joint,7.41999999999993,-0.00019023270134077563
mouse_head_joint,7.439999999999929,-0.00019014686755181032
mouse_head_joint,7.459999999999929,-0.00018968077911107883
mouse_head_joint,7.4799999999999285,-0.0001896827132314982
mouse_head_joint,7.499999999999928,-0.000189436337961979
mouse_head_joint,7.519999999999928,-0.00018933452907443638
mouse_head_joint,7.539999999999927,-0.00018903404971659654
mouse_head_joint,7.559999999999927,-0.0001887961467632593
mouse_head_joint,7.579999999999926,-0.00018861847536477683
mouse_head_joint,7.599999999999926,-0.00018852595478691114
mouse_head_joint,7.6199999999999255,-0.0001883159808739876
mouse_head_joint,7.639999999999925,-0.00018813533649275627
mouse_head_joint,7.659999999999925,-0.00018783563196755892
mouse_head_joint,7.679999999999924,-0.0001876474589135313
mouse_head_joint,7.699999999999924,-0.00018746506111178007
mouse_head_joint,7.719999999999923,-0.00018728059671424546
mouse_head_joint,7.739999999999923,-0.00018709525943272354
mouse_head_joint,7.7599999999999225,-0.00018701772441787057
mouse_head_joint,7.779999999999922,-0.00018672411795961352
mouse_head_joint,7.799999999999922,-0.00018664357276687582
mouse_head_joint,7.819999999999921,-0.00018624166055225544
mouse_head_joint,7.839999999999921,-0.00018615251304598956
mouse_head_joint,7.85999999999992,-0.00018603366735536753
mouse_head_joint,7.87999999999992,-0.00018577038564071557
mouse_head_joint,7.8999999999999195,-0.00018554630340172906
mouse_head_joint,7.919999999999919,-0.0001854047652907198
mouse_head_joint,7.939999999999919,-0.00018507391025845976
mouse_head_joint,7.959999999999918,-0.00018487918544085602
mouse_head_joint,7.979999999999918,-0.0001847687375615692
mouse_head_joint,7.999999999999917,-0.000184443651680688
mouse_head_joint,8.019999999999918,-0.00018422475043244901
mouse_head_joint,8.039999999999917,-0.0001841312497496972
mouse_head_joint,8.059999999999917,-0.00018393269618854902
mouse_head_joint,8.079999999999917,-0.00018362221630763287
mouse_head_joint,8.099999999999916,-0.00018352933714638198
mouse_head_joint,8.119999999999916,-0.0001832206465381958
mouse_head_joint,8.139999999999915,-0.00018312689597532739
mouse_head_joint,8.159999999999915,-0.00018292422657495422
mouse_head_joint,8.179999999999914,-0.0001828034746393925
mouse_head_joint,8.199999999999914,-0.00018230273555897014
mouse_head_joint,8.219999999999914,-0.00018209856206752306
mouse_head_joint,8.239999999999913,-0.00018199365051074778
mouse_head_joint,8.259999999999913,-0.00018178821011449742
mouse_head_joint,8.279999999999912,-0.0001816530661802318
mouse_head_joint,8.299999999999912,-0.00018139264878325179
mouse_head_joint,8.319999999999911,-0.00018118530868971305
mouse_head_joint,8.339999999999911,-0.00018092416440662618
mouse_head_joint,8.35999999999991,-0.00018068246928582
mouse_head_joint,8.37999999999991,-0.00018037733607378925
mouse_head_joint,8.39999999999991,-0.00018014458105675146
mouse_head_joint,8.41999999999991,-0.00018003775860986337
mouse_head_joint,8.439999999999909,-0.00017982692812168466
mouse_head_joint,8.459999999999908,-0.00017960884556522672
mouse_head_joint,8.479999999999908,-0.0001792900350929827
mouse_head_joint,8.499999999999908,-0.00017918438867070563
mouse_head_joint,8.519999999999907,-0.0001788640630815408
mouse_head_joint,8.539999999999907,-0.00017875615228657438
mouse_head_joint,8.559999999999906,-0.0001783253521532302
mouse_head_joint,8.579999999999906,-0.00017840868343910188
mouse_head_joint,8.599999999999905,-0.000178065497222768
mouse_head_joint,8.619999999999905,-0.00017777964495202525
mouse_head_joint,8.639999999999905,-0.0001775636998466723
mouse_head_joint,8.659999999999904,-0.00017741753690980744
mouse_head_joint,8.679999999999904,-0.00017700794147579302
mouse_head_joint,8.699999999999903,-0.00017687404449517885
mouse_head_joint,8.719999999999903,-0.0001765728285487711
mouse_head_joint,8.739999999999903,-0.00017643803508438083
mouse_head_joint,8.759999999999902,-0.00017618536588859257
mouse_head_joint,8.779999999999902,-0.0001759663236153841
mouse_head_joint,8.799999999999901,-0.000175730451140943
mouse_head_joint,8.8199999999999,-0.00017539861774640286
mouse_head_joint,8.8399999999999,-0.0001752842365316809
mouse_head_joint,8.8599999999999,-0.00017506125383270899
mouse_head_joint,8.8799999999999,-0.00017473419157010284
mouse_head_joint,8.899999999999899,-0.00017461888630165845
mouse_head_joint,8.919999999999899,-0.00017439452721923487
mouse_head_joint,8.939999999999898,-0.0001742526491401719
mouse_head_joint,8.959999999999898,-0.0001740302069839217
mouse_head_joint,8.979999999999897,-0.00017350929355153255
mouse_head_joint,8.999999999999897,-0.0001733851430607558
mouse_head_joint,9.019999999999897,-0.0001732314386364564
mouse_head_joint,9.039999999999896,-0.0001728967387277791
mouse_head_joint,9.059999999999896,-0.00017272747595420412
mouse_head_joint,9.079999999999895,-0.00017236542532739207
mouse_head_joint,9.099999999999895,-0.0001722235911634229
mouse_head_joint,9.119999999999894,-0.00017186936209512282
mouse_head_joint,9.139999999999894,-0.00017173886377541692
mouse_head_joint,9.159999999999894,-0.0001715133820088255
mouse_head_joint,9.179999999999893,-0.0001712706782397433
mouse_head_joint,9.199999999999893,-0.0001710446778036001
mouse_head_joint,9.219999999999892,-0.0001708117279344279
mouse_head_joint,9.239999999999892,-0.00017047681470305776
mouse_head_joint,9.259999999999891,-0.00017025009914029
mouse_head_joint,9.279999999999891,-0.00017020484934437974
mouse_head_joint,9.29999999999989,-0.00016979394374061485
mouse_head_joint,9.31999999999989,-0.00016967073365492524
mouse_head_joint,9.33999999999989,-0.00016939381220471006
mouse_head_joint,9.35999999999989,-0.0001689966087052852
mouse_head_joint,9.379999999999889,-0.0001689365482775429
mouse_head_joint,9.399999999999888,-0.0001687083157548841
mouse_head_joint,9.419999999999888,-0.00016842289632368335
mouse_head_joint,9.439999999999888,-0.00016812393684872973
mouse_head_joint,9.459999999999887,-0.00016796549658693039
mouse_head_joint,9.479999999999887,-0.00016755215931496537
mouse_head_joint,9.499999999999886,-0.0001674521598555856
mouse_head_joint,9.519999999999886,-0.0001671880613214327
mouse_head_joint,9.539999999999885,-0.00016683974454512196
mouse_head_joint,9.559999999999885,-0.00016671189067096748
mouse_head_joint,9.579999999999885,-0.00016637046303280556
mouse_head_joint,9.599999999999884,-0.00016614067315057213
mouse_head_joint,9.619999999999884,-0.00016590489334866731
mouse_head_joint,9.639999999999883,-0.0001657821285894201
mouse_head_joint,9.659999999999883,-0.0001655519647822956
mouse_head_joint,9.679999999999882,-0.00016521444444350664
mouse_head_joint,9.699999999999882,-0.0001651664992650126
mouse_head_joint,9.719999999999882,-0.0001648072297149028
mouse_head_joint,9.739999999999881,-0.00016440771807069154
mouse_head_joint,9.75999999999988,-0.00016421713471981292
mouse_head_joint,9.77999999999988,-0.000164044894159332
mouse_head_joint,9.79999999999988,-0.00016388301625980262
mouse_head_joint,9.81999999999988,-0.00016359447866687304
mouse_head_joint,9.839999999999879,-0.00016322616172637083
mouse_head_joint,9.859999999999879,-0.00016294829009044776
mouse_head_joint,9.879999999999878,-0.00016284599705951308
mouse_head_joint,9.899999999999878,-0.00016256278225590393
mouse_head_joint,9.919999999999877,-0.00016221411507100214
mouse_head_joint,9.939999999999877,-0.00016209339193551386
mouse_head_joint,9.959999999999877,-0.00016175175770971606
mouse_head_joint,9.979999999999876,-0.00016163094874332984
mouse_head_joint,9.999999999999876,-0.00016121345768738138
mouse_head_joint,10.019999999999875,-0.00016105804939403612
mouse_head_joint,10.039999999999875,-0.0001609337367929342
mouse_head_joint,10.059999999999874,-0.0001605196004632603
mouse_head_joint,10.079999999999874,-0.00016028830789061033
mouse_head_joint,10.099999999999874,-0.00016007096446823965
mouse_head_joint,10.119999999999873,-0.00015975799054679385
mouse_head_joint,10.139999999999873,-0.0001596531528988976
mouse_head_joint,10.159999999999872,-0.00015924869410710585
mouse_head_joint,10.179999999999872,-0.00015913198997896671
mouse_head_joint,10.199999999999871,-0.00015890078530755858
mouse_head_joint,10.219999999999871,-0.0001585551081673131
mouse_head_joint,10.23999999999987,-0.00015845228706279357
mouse_head_joint,10.25999999999987,-0.0001580928830158257
mouse_head_joint,10.27999999999987,-0.00015795543939933765
mouse_head_joint,10.29999999999987,-0.000157700394840532
mouse_head_joint,10.319999999999869,-0.00015736192002702154
mouse_head_joint,10.339999999999868,-0.0001571345554225445
mouse_head_joint,10.359999999999868,-0.00015690374460408663
mouse_head_joint,10.379999999999868,-0.00015677365788580033
mouse_head_joint,10.399999999999867,-0.00015653931466541593
mouse_head_joint,10.419999999999867,-0.00015630870663940755
mouse_head_joint,10.439999999999866,-0.0001559753214781523
mouse_head_joint,10.459999999999866,-0.0001558477218308596
mouse_head_joint,10.479999999999865,-0.00015556636575375649
mouse_head_joint,10.499999999999865,-0.00015520825431725171
mouse_head_joint,10.519999999999865,-0.0001551052974475553
mouse_head_joint,10.539999999999864,-0.00015487521980439567
mouse_head_joint,10.559999999999864,-0.00015464524102792865
mouse_head_joint,10.579999999999863,-0.00015435699381516343
mouse_head_joint,10.599999999999863,-0.00015407204895723225
mouse_head_joint,10.619999999999862,-0.00015384239402038702
mouse_head_joint,10.639999999999862,-0.00015361285278192582
mouse_head_joint,10.659999999999862,-0.00015325575816937942
mouse_head_joint,10.679999999999861,-0.00015309648411587773
mouse_head_joint,10.69999999999986,-0.00015287402999053512
mouse_head_joint,10.71999999999986,-0.00015264502410872183
mouse_head_joint,10.73999999999986,-0.0001524095249525459
mouse_head_joint,10.75999999999986,-0.00015217425955427188
mouse_head_joint,10.779999999999859,-0.00015184533850387538
mouse_head_joint,10.799999999999859,-0.00015172073513447515
mouse_head_joint,10.819999999999858,-0.0001514890313902839
mouse_head_joint,10.839999999999858,-0.0001513380392390573
mouse_head_joint,10.859999999999857,-0.00015091349706519708
mouse_head_joint,10.879999999999857,-0.0001505870298457168
mouse_head_joint,10.899999999999856,-0.00015035941122931717
mouse_head_joint,10.919999999999856,-0.00015029900843277488
mouse_head_joint,10.939999999999856,-0.0001499583831270357
mouse_head_joint,10.959999999999855,-0.00014978608491311718
mouse_head_joint,10.979999999999855,-0.00014955913019054634
mouse_head_joint,10.999999999999854,-0.00014927758894867083
mouse_head_joint,11.019999999999854,-0.00014892398605326207
mouse_head_joint,11.039999999999853,-0.00014869762199332115
mouse_head_joint,11.059999999999853,-0.0001484386809664784
mouse_head_joint,11.079999999999853,-0.000148322506011489
mouse_head_joint,11.099999999999852,-0.00014798699640383717
mouse_head_joint,11.119999999999852,-0.00014775864434568575
mouse_head_joint,11.139999999999851,-0.00014753145313406435
mouse_head_joint,11.159999999999851,-0.000147411739547465
mouse_head_joint,11.17999999999985,-0.0001471867912146152
mouse_head_joint,11.19999999999985,-0.00014695897324745744
mouse_head_joint,11.21999999999985,-0.00014673445552659814
mouse_head_joint,11.23999999999985,-0.0001462927457325236
mouse_head_joint,11.259999999999849,-0.00014623463538665504
mouse_head_joint,11.279999999999848,-0.00014584485093926958
mouse_head_joint,11.299999999999848,-0.00014578838926304627
mouse_head_joint,11.319999999999848,-0.00014543838023950428
mouse_head_joint,11.339999999999847,-0.00014514795262776659
mouse_head_joint,11.359999999999847,-0.00014506033127936746
mouse_head_joint,11.379999999999846,-0.0001446570723402374
mouse_head_joint,11.399999999999846,-0.00014452781083651445
mouse_head_joint,11.419999999999845,-0.00014430562049394524
mouse_head_joint,11.439999999999845,-0.0001440836656891875
mouse_head_joint,11.459999999999845,-0.0001437459310844602
mouse_head_joint,11.479999999999844,-0.00014361931712603138
mouse_head_joint,11.499999999999844,-0.00014329481174435443
mouse_head_joint,11.519999999999843,-0.00014307166357774292
mouse_head_joint,11.539999999999843,-0.00014284966730926385
mouse_head_joint,11.559999999999842,-0.0001426293058379713
mouse_head_joint,11.579999999999842,-0.0001424091967914265
mouse_head_joint,11.599999999999842,-0.00014229135960519557
mouse_head_joint,11.619999999999841,-0.00014202026927634392
mouse_head_joint,11.63999999999984,-0.0001416359627661734
mouse_head_joint,11.65999999999984,-0.00014151608802315252
mouse_head_joint,11.67999999999984,-0.00014123924889108963
mouse_head_joint,11.69999999999984,-0.00014114700490885923
mouse_head_joint,11.719999999999839,-0.00014073568563333083
mouse_head_joint,11.739999999999839,-0.00014059868215809956
mouse_head_joint,11.759999999999838,-0.0001403810326143784
mouse_head_joint,11.779999999999838,-0.00014003823781116864
mouse_head_joint,11.799999999999837,-0.00013991427283333024
mouse_head_joint,11.819999999999837,-0.00013969749342113147
mouse_head_joint,11.839999999999836,-0.0001394661905465
mouse_head_joint,11.859999999999836,-0.0001391418312577386
mouse_head_joint,11.879999999999836,-0.00013892598021403302
mouse_head_joint,11.899999999999835,-0.00013870881965960535
mouse_head_joint,11.919999999999835,-0.0001385967461953186
mouse_head_joint,11.939999999999834,-0.00013838178526714984
mouse_head_joint,11.959999999999834,-0.00013806323731646586
mouse_head_joint,11.979999999999833,-0.00013802654022931904
mouse_head_joint,11.999999999999833,-0.000137521228323223
mouse_head_joint,12.019999999999833,-0.0001374751175964306
mouse_head_joint,12.039999999999832,-0.00013719359870467684
mouse_head_joint,12.059999999999832,-0.00013693722902718974
mouse_head_joint,12.079999999999831,-0.00013671007245985578
mouse_head_joint,12.099999999999831,-0.00013656504452708162
mouse_head_joint,12.11999999999983,-0.00013635288520763567
mouse_head_joint,12.13999999999983,-0.0001360881314589335
mouse_head_joint,12.15999999999983,-0.00013575210803828952
mouse_head_joint,12.17999999999983,-0.00013554096190038223
mouse_head_joint,12.199999999999829,-0.00013540916532672753
mouse_head_joint,12.219999999999828,-0.00013509838072423008
mouse_head_joint,12.239999999999828,-0.0001349885289645414
mouse_head_joint,12.259999999999827,-0.00013477448619791943
mouse_head_joint,12.279999999999827,-0.00013446105716941048
mouse_head_joint,12.299999999999827,-0.00013435494267532988
mouse_head_joint,12.319999999999826,-0.0001341461377597497
mouse_head_joint,12.339999999999826,-0.0001338847790259834
mouse_head_joint,12.359999999999825,-0.00013367665970065445
mouse_head_joint,12.379999999999825,-0.0001335957165551349
mouse_head_joint,12.399999999999824,-0.00013319841607817295
mouse_head_joint,12.419999999999824,-0.00013305946908559463
mouse_head_joint,12.439999999999824,-0.00013278462914456668
mouse_head_joint,12.459999999999823,-0.00013258816201489054
mouse_head_joint,12.479999999999823,-0.00013238211018773427
mouse_head_joint,12.499999999999822,-0.00013204345270967366
mouse_head_joint,12.519999999999822,-0.0001318381157524584
mouse_head_joint,12.539999999999822,-0.00013171389694477398
mouse_head_joint,12.559999999999821,-0.00013138571667070664
mouse_head_joint,12.57999999999982,-0.00013116110245459112
mouse_head_joint,12.59999999999982,-0.0001310574790487351
mouse_head_joint,12.61999999999982,-0.00013085393722711558
mouse_head_joint,12.63999999999982,-0.00013064735127699123
mouse_head_joint,12.659999999999819,-0.00013044454108346315
mouse_head_joint,12.679999999999819,-0.0001302419170867708
mouse_head_joint,12.699999999999818,-0.00013003983942461161
mouse_head_joint,12.719999999999818,-0.0001298373617641957
mouse_head_joint,12.739999999999817,-0.00012971105892667367
mouse_head_joint,12.759999999999817,-0.00012951004749783834
mouse_head_joint,12.779999999999816,-0.00012902144991500109
mouse_head_joint,12.799999999999816,-0.0001289315104839872
mouse_head_joint,12.819999999999816,-0.00012866478933215575
mouse_head_joint,12.839999999999815,-0.00012846532255661458
mouse_head_joint,12.859999999999815,-0.00012833306988646598
mouse_head_joint,12.879999999999814,-0.00012800224220210765
mouse_head_joint,12.899999999999814,-0.00012780387941724314
mouse_head_joint,12.919999999999813,-0.00012756404860247983
mouse_head_joint,12.939999999999813,-0.00012736645517996692
mouse_head_joint,12.959999999999813,-0.00012726226984050015
mouse_head_joint,12.979999999999812,-0.00012705327744466643
mouse_head_joint,12.999999999999812,-0.0001268542514578641
mouse_head_joint,13.019999999999811,-0.00012655532746119746
mouse_head_joint,13.03999999999981,-0.00012636038013180695
mouse_head_joint,13.05999999999981,-0.0001262678272277995
mouse_head_joint,13.07999999999981,-0.0001260729175980302
mouse_head_joint,13.09999999999981,-0.0001258783558748533
mouse_head_joint,13.11999999999981,-0.00012547248329131122
mouse_head_joint,13.139999999999809,-0.00012543921750651776
mouse_head_joint,13.159999999999808,-0.00012524582783957072
mouse_head_joint,13.179999999999808,-0.00012489250092162507
mouse_head_joint,13.199999999999807,-0.0001247603013387888
mouse_head_joint,13.219999999999807,-0.00012461868626534311
mouse_head_joint,13.239999999999807,-0.00012436029618090316
mouse_head_joint,13.259999999999806,-0.00012410430173925846
mouse_head_joint,13.279999999999806,-0.00012391329170302612
mouse_head_joint,13.299999999999805,-0.0001238033740227351
mouse_head_joint,13.319999999999805,-0.0001235846858245182
mouse_head_joint,13.339999999999804,-0.0001232834795237281
mouse_head_joint,13.359999999999804,-0.00012319427715112852
mouse_head_joint,13.379999999999804,-0.00012300525460418044
mouse_head_joint,13.399999999999803,-0.00012281498774147082
mouse_head_joint,13.419999999999803,-0.00012252558208381004
mouse_head_joint,13.439999999999802,-0.00012244037509745453
mouse_head_joint,13.459999999999802,-0.00012232796367417365
mouse_head_joint,13.479999999999801,-0.00012214094883500337
mouse_head_joint,13.499999999999801,-0.00012195431600670048
mouse_head_joint,13.5199999999998,-0.00012164271909043123
mouse_head_joint,13.5399999999998,-0.00012129776443892126
mouse_head_joint,13.5599999999998,-0.00012121331943504288
mouse_head_joint,13.5799999999998,-0.00012102833052907158
mouse_head_joint,13.599999999999799,-0.000120788070203659
mouse_head_joint,13.619999999999798,-0.00012067019117889544
mouse_head_joint,13.639999999999798,-0.00012048637198436296
mouse_head_joint,13.659999999999798,-0.0001201727788391338
mouse_head_joint,13.679999999999797,-0.00012004307040136553
mouse_head_joint,13.699999999999797,-0.00011976743435049286
mouse_head_joint,13.719999999999796,-0.00011956801147317009
mouse_head_joint,13.739999999999796,-0.00011948645668002911
mouse_head_joint,13.759999999999796,-0.0001192016620787939
mouse_head_joint,13.779999999999795,-0.00011902075947745061
mouse_head_joint,13.799999999999795,-0.00011894294899850166
mouse_head_joint,13.819999999999794,-0.0001186626592781792
mouse_head_joint,13.839999999999794,-0.00011858541350218132
mouse_head_joint,13.859999999999793,-0.00011840763506310026
mouse_head_joint,13.879999999999793,-0.0001183026271984744
mouse_head_joint,13.899999999999793,-0.00011784141823767413
mouse_head_joint,13.919999999999792,-0.00011766339775931556
mouse_head_joint,13.939999999999792,-0.0001175319770867489
mouse_head_joint,13.959999999999791,-0.00011740991301145698
mouse_head_joint,13.97999999999979,-0.00011724404537538646
mouse_head_joint,13.99999999999979,-0.00011706762856622532
mouse_head_joint,14.01999999999979,-0.00011689160455841119
mouse_head_joint,14.03999999999979,-0.00011658677446657606
mouse_head_joint,14.059999999999789,-0.00011637285826537891
mouse_head_joint,14.079999999999789,-0.0001161981160020531
mouse_head_joint,14.099999999999788,-0.00011600760385732656
mouse_head_joint,14.119999999999788,-0.00011583370419820938
mouse_head_joint,14.139999999999787,-0.00011576035124249984
mouse_head_joint,14.159999999999787,-0.00011548822478779641
mouse_head_joint,14.179999999999787,-0.00011541482230370548
mouse_head_joint,14.199999999999786,-0.00011514338010165659
mouse_head_joint,14.219999999999786,-0.00011507385821918348
mouse_head_joint,14.239999999999785,-0.00011497822741191044
mouse_head_joint,14.259999999999785,-0.00011468322693541921
mouse_head_joint,14.279999999999784,-0.00011446500143286187
mouse_head_joint,14.299999999999784,-0.00011430518818400515
mouse_head_joint,14.319999999999784,-0.00011401729368465396
mouse_head_joint,14.339999999999783,-0.00011382624860090118
mouse_head_joint,14.359999999999783,-0.00011364837371008463
mouse_head_joint,14.379999999999782,-0.00011361119334729608
mouse_head_joint,14.399999999999782,-0.00011339792508202606
mouse_head_joint,14.419999999999781,-0.00011319560480060886
mouse_head_joint,14.439999999999781,-0.00011295769763375318
mouse_head_joint,14.45999999999978,-0.00011287800045245433
mouse_head_joint,14.47999999999978,-0.0001127044247741793
mouse_head_joint,14.49999999999978,-0.0001124397867435789
mouse_head_joint,14.51999999999978,-0.00011247414104786913
mouse_head_joint,14.539999999999779,-0.00011214063793474338
mouse_head_joint,14.559999999999778,-0.00011200149101764367
mouse_head_joint,14.579999999999778,-0.00011182063921388874
mouse_head_joint,14.599999999999778,-0.00011164883535563774
mouse_head_joint,14.619999999999777,-0.00011150636793910707
mouse_head_joint,14.639999999999777,-0.00011130197071107517
mouse_head_joint,14.659999999999776,-0.00011111176776612552
mouse_head_joint,14.679999999999776,-0.00011100907994521236
mouse_head_joint,14.699999999999775,-0.0001108194426615583
mouse_head_joint,14.719999999999775,-0.00011063674156641667
mouse_head_joint,14.739999999999775,-0.00011047541212239054
mouse_head_joint,14.759999999999774,-0.0001103379232905155
mouse_head_joint,14.779999999999774,-0.00010998031356113103
mouse_head_joint,14.799999999999773,-0.00010988903857267474
mouse_head_joint,14.819999999999773,-0.00010972730757430327
mouse_head_joint,14.839999999999772,-0.000109631713867131
mouse_head_joint,14.859999999999772,-0.0001094825630634233
mouse_head_joint,14.879999999999772,-0.00010922494194876009
mouse_head_joint,14.899999999999771,-0.00010926058103954972
mouse_head_joint,14.91999999999977,-0.00010893658969290954
mouse_head_joint,14.93999999999977,-0.00010881062542988928
mouse_head_joint,14.95999999999977,-0.00010856017107840898
mouse_head_joint,14.97999999999977,-0.00010848470365587559
mouse_head_joint,14.999999999999769,-0.0001082513879708813
mouse_head_joint,15.019999999999769,-0.00010814741465736688
mouse_head_joint,15.039999999999768,-0.00010785752626762957
mouse_head_joint,15.059999999999768,-0.00010775478083768775
mouse_head_joint,15.079999999999767,-0.00010753085719894528
mouse_head_joint,15.099999999999767,-0.00010753108050565174
mouse_head_joint,15.119999999999767,-0.00010727332522186828
mouse_head_joint,15.139999999999766,-0.0001073124298356376
mouse_head_joint,15.159999999999766,-0.000106995201393012
mouse_head_joint,15.179999999999765,-0.00010682434115860673
mouse_head_joint,15.199999999999765,-0.00010669914228422783
mouse_head_joint,15.219999999999764,-0.00010644128244319262
mouse_head_joint,15.239999999999764,-0.00010645022797906023
mouse_head_joint,15.259999999999764,-0.00010609528861582618
mouse_head_joint,15.279999999999763,-0.00010612530282383403
mouse_head_joint,15.299999999999763,-0.00010578675266703641
mouse_head_joint,15.319999999999762,-0.00010563270821517534
mouse_head_joint,15.339999999999762,-0.0001055521715311869
mouse_head_joint,15.359999999999761,-0.00010549956077987588
mouse_head_joint,15.379999999999761,-0.00010533365768861103
mouse_head_joint,15.39999999999976,-0.00010502192133543531
mouse_head_joint,15.41999999999976,-0.00010485442187491145
mouse_head_joint,15.43999999999976,-0.00010485577947783042
mouse_head_joint,15.45999999999976,-0.00010478195599272766
mouse_head_joint,15.479999999999759,-0.0001045414061691119
mouse_head_joint,15.499999999999758,-0.00010435214839521478
mouse_head_joint,15.519999999999758,-0.00010424062368841192
mouse_head_joint,15.539999999999758,-0.00010407769910614206
mouse_head_joint,15.559999999999757,-0.00010382707827449877
mouse_head_joint,15.579999999999757,-0.00010389136844413116
mouse_head_joint,15.599999999999756,-0.00010362844453304376
mouse_head_joint,15.619999999999756,-0.00010347683705891342
mouse_head_joint,15.639999999999755,-0.00010332620113562285
mouse_head_joint,15.659999999999755,-0.00010316766138807054
mouse_head_joint,15.679999999999755,-0.00010296068392623425
mouse_head_joint,15.699999999999754,-0.0001029921972541814
mouse_head_joint,15.719999999999754,-0.00010271340195711076
mouse_head_joint,15.739999999999753,-0.00010260383946292251
mouse_head_joint,15.759999999999753,-0.00010243816106569881
mouse_head_joint,15.779999999999752,-0.0001022027417283411
mouse_head_joint,15.799999999999752,-0.00010207193785838342
mouse_head_joint,15.819999999999752,-0.0001019714976102648
mouse_head_joint,15.839999999999751,-0.00010183543652164673
mouse_head_joint,15.85999999999975,-0.00010167700152052817
mouse_head_joint,15.87999999999975,-0.0001014722547498792
mouse_head_joint,15.89999999999975,-0.00010133002616807829
mouse_head_joint,15.91999999999975,-0.00010123640448878035
mouse_head_joint,15.939999999999749,-0.00010114960955931451
mouse_head_joint,15.959999999999749,-0.00010096923202596031
mouse_head_joint,15.979999999999748,-0.00010085478829324757
mouse_head_joint,15.999999999999748,-0.00010060387732746534
mouse_head_joint,16.019999999999747,-0.00010060941210898733
mouse_head_joint,16.039999999999747,-0.00010043072879906134
mouse_head_joint,16.059999999999746,-0.00010017999193223659
mouse_head_joint,16.079999999999746,-0.00010017168847831215
mouse_head_joint,16.099999999999746,-9.999384774417308e-05
mouse_head_joint,16.119999999999745,-9.979431778361914e-05
mouse_head_joint,16.139999999999745,-9.972282308723379e-05
mouse_head_joint,16.159999999999744,-9.974201479412415e-05
mouse_head_joint,16.179999999999744,-9.939709311979072e-05
mouse_head_joint,16.199999999999743,-9.935386391379808e-05
mouse_head_joint,16.219999999999743,-9.909970391408507e-05
mouse_head_joint,16.239999999999743,-9.906500955914055e-05
mouse_head_joint,16.259999999999742,-9.904631900781169e-05
mouse_head_joint,16.279999999999742,-9.864918871294037e-05
mouse_head_joint,16.29999999999974,-9.866314343742744e-05
mouse_head_joint,16.31999999999974,-9.851751862033353e-05
mouse_head_joint,16.33999999999974,-9.837528375999938e-05
mouse_head_joint,16.35999999999974,-9.819215315154395e-05
mouse_head_joint,16.37999999999974,-9.823341589054735e-05
mouse_head_joint,16.39999999999974,-9.797212666473598e-05
mouse_head_joint,16.41999999999974,-9.779866751102873e-05
mouse_head_joint,16.43999999999974,-9.76993434385065e-05
mouse_head_joint,16.459999999999738,-9.75052246632302e-05
mouse_head_joint,16.479999999999738,-9.738835182115935e-05
mouse_head_joint,16.499999999999737,-9.719912814620812e-05
mouse_head_joint,16.519999999999737,-9.72019881242403e-05
mouse_head_joint,16.539999999999736,-9.70942830349486e-05
mouse_head_joint,16.559999999999736,-9.684588552172357e-05
mouse_head_joint,16.579999999999735,-9.681289705465446e-05
mouse_head_joint,16.599999999999735,-9.663766167467003e-05
mouse_head_joint,16.619999999999735,-9.652279053007362e-05
mouse_head_joint,16.639999999999734,-9.649439960934814e-05
mouse_head_joint,16.659999999999734,-9.629877467887127e-05
mouse_head_joint,16.679999999999733,-9.616236676990297e-05
mouse_head_joint,16.699999999999733,-9.60813303478858e-05
mouse_head_joint,16.719999999999732,-9.59167402747596e-05
mouse_head_joint,16.739999999999732,-9.584994092737276e-05
mouse_head_joint,16.75999999999973,-9.568586753161412e-05
mouse_head_joint,16.77999999999973,-9.554131295175239e-05
mouse_head_joint,16.79999999999973,-9.543641103526568e-05
mouse_head_joint,16.81999999999973,-9.540016446774047e-05
mouse_head_joint,16.83999999999973,-9.531059407574816e-05
mouse_head_joint,16.85999999999973,-9.5053926786548e-05
mouse_head_joint,16.87999999999973,-9.495201523712637e-05
mouse_head_joint,16.89999999999973,-9.480673494444147e-05
mouse_head_joint,16.919999999999728,-9.468569345294497e-05
mouse_head_joint,16.939999999999728,-9.461736681437571e-05
mouse_head_joint,16.959999999999727,-9.430521742093134e-05
mouse_head_joint,16.979999999999727,-9.438701642139335e-05
mouse_head_joint,16.999999999999726,-9.411465380182449e-05
mouse_head_joint,17.019999999999726,-9.397137528743826e-05
mouse_head_joint,17.039999999999726,-9.399594823555901e-05
mouse_head_joint,17.059999999999725,-9.39568176017147e-05
mouse_head_joint,17.079999999999725,-9.371170963046183e-05
mouse_head_joint,17.099999999999724,-9.354976831499329e-05
mouse_head_joint,17.119999999999724,-9.346545054711441e-05
mouse_head_joint,17.139999999999723,-9.339272662156617e-05
mouse_head_joint,17.159999999999723,-9.328343282977158e-05
mouse_head_joint,17.179999999999723,-9.315186336600334e-05
mouse_head_joint,17.199999999999722,-9.306321159829878e-05
mouse_head_joint,17.21999999999972,-9.280726631555325e-05
mouse_head_joint,17.23999999999972,-9.269390451382975e-05
mouse_head_joint,17.25999999999972,-9.26741117721619e-05
mouse_head_joint,17.27999999999972,-9.268176084997748e-05
mouse_head_joint,17.29999999999972,-9.230773697943562e-05
mouse_head_joint,17.31999999999972,-9.239525367377155e-05
mouse_head_joint,17.33999999999972,-9.211049797919202e-05
mouse_head_joint,17.35999999999972,-9.199385559721662e-05
mouse_head_joint,17.37999999999972,-9.193467250234733e-05
mouse_head_joint,17.399999999999718,-9.19914547221623e-05
mouse_head_joint,17.419999999999717,-9.181955181425394e-05
mouse_head_joint,17.439999999999717,-9.159776628742122e-05
mouse_head_joint,17.459999999999717,-9.142848484522403e-05
mouse_head_joint,17.479999999999716,-9.14464181915875e-05
mouse_head_joint,17.499999999999716,-9.12520715381504e-05
mouse_head_joint,17.519999999999715,-9.122609899137046e-05
mouse_head_joint,17.539999999999715,-9.103379174035808e-05
mouse_head_joint,17.559999999999715,-9.09740959658123e-05
mouse_head_joint,17.579999999999714,-9.088250908462214e-05
mouse_head_joint,17.599999999999714,-9.078334300749447e-05
mouse_head_joint,17.619999999999713,-9.062153110495075e-05
mouse_head_joint,17.639999999999713,-9.042187235586141e-05
mouse_head_joint,17.659999999999712,-9.039853809689191e-05
mouse_head_joint,17.679999999999712,-9.03397162161923e-05
mouse_head_joint,17.69999999999971,-9.022472155439942e-05
mouse_head_joint,17.71999999999971,-9.016416417662043e-05
mouse_head_joint,17.73999999999971,-9.0065312363663e-05
mouse_head_joint,17.75999999999971,-8.990637724437534e-05
mouse_head_joint,17.77999999999971,-8.975578161063424e-05
mouse_head_joint,17.79999999999971,-8.970022669529953e-05
mouse_head_joint,17.81999999999971,-8.961759837067262e-05
mouse_head_joint,17.83999999999971,-8.952993226252204e-05
mouse_head_joint,17.859999999999708,-8.952791251282122e-05
mouse_head_joint,17.879999999999708,-8.927225991595122e-05
mouse_head_joint,17.899999999999707,-8.917025138277523e-05
mouse_head_joint,17.919999999999707,-8.908492218751007e-05
mouse_head_joint,17.939999999999706,-8.889223090324805e-05
mouse_head_joint,17.959999999999706,-8.888504742721182e-05
mouse_head_joint,17.979999999999706,-8.87842513570547e-05
mouse_head_joint,17.999999999999705,-8.874156729365978e-05
mouse_head_joint,18.019999999999705,-8.8572939752396e-05
mouse_head_joint,18.039999999999704,-8.846417063868017e-05
mouse_head_joint,18.059999999999704,-8.831070841797128e-05
mouse_head_joint,18.079999999999703,-8.827087164497982e-05
mouse_head_joint,18.099999999999703,-8.805993108484955e-05
mouse_head_joint,18.119999999999703,-8.80892295294089e-05
mouse_head_joint,18.139999999999702,-8.797012201977594e-05
mouse_head_joint,18.1599999999997,-8.78944291127226e-05
mouse_head_joint,18.1799999999997,-8.780144758091524e-05
mouse_head_joint,18.1999999999997,-8.78159918986654e-05
mouse_head_joint,18.2199999999997,-8.76287094460082e-05
mouse_head_joint,18.2399999999997,-8.7508459850838e-05
mouse_head_joint,18.2599999999997,-8.739184646078257e-05
mouse_head_joint,18.2799999999997,-8.72959281741359e-05
mouse_head_joint,18.2999999999997,-8.71565399780394e-05
mouse_head_joint,18.3199999999997,-8.696937185348474e-05
mouse_head_joint,18.339999999999698,-8.701833125179803e-05
mouse_head_joint,18.359999999999697,-8.682556326444768e-05
mouse_head_joint,18.379999999999697,-8.67110951725536e-05
mouse_head_joint,18.399999999999697,-8.666005424995404e-05
mouse_head_joint,18.419999999999696,-8.667222699898502e-05
mouse_head_joint,18.439999999999696,-8.642087387755737e-05
mouse_head_joint,18.459999999999695,-8.645528742246e-05
mouse_head_joint,18.479999999999695,-8.634199472457027e-05
mouse_head_joint,18.499999999999694,-8.628380519581924e-05
mouse_head_joint,18.519999999999694,-8.619808849985588e-05
mouse_head_joint,18.539999999999694,-8.620534172898431e-05
mouse_head_joint,18.559999999999693,-8.602451916406295e-05
mouse_head_joint,18.579999999999693,-8.590937424735046e-05
mouse_head_joint,18.599999999999692,-8.570496704507491e-05
mouse_head_joint,18.619999999999692,-8.562004342316243e-05
mouse_head_joint,18.63999999999969,-8.557614768722743e-05
mouse_head_joint,18.65999999999969,-8.553307249137276e-05
mouse_head_joint,18.67999999999969,-8.550227734094307e-05
mouse_head_joint,18.69999999999969,-8.534549560401672e-05
mouse_head_joint,18.71999999999969,-8.52484959086297e-05
mouse_head_joint,18.73999999999969,-8.520763956898492e-05
mouse_head_joint,18.75999999999969,-8.512568745899785e-05
mouse_head_joint,18.77999999999969,-8.498595409367482e-05
mouse_head_joint,18.799999999999688,-8.491954628198073e-05
mouse_head_joint,18.819999999999688,-8.479974822162006e-05
mouse_head_joint,18.839999999999687,-8.466143630947442e-05
mouse_head_joint,18.859999999999687,-8.466735809697923e-05
mouse_head_joint,18.879999999999686,-8.454242304622994e-05
mouse_head_joint,18.899999999999686,-8.440880347659885e-05
mouse_head_joint,18.919999999999686,-8.43712937435015e-05
mouse_head_joint,18.939999999999685,-8.420905172812354e-05
mouse_head_joint,18.959999999999685,-8.423027169346398e-05
mouse_head_joint,18.979999999999684,-8.409179811152967e-05
mouse_head_joint,18.999999999999684,-8.405324505389444e-05
mouse_head_joint,19.019999999999683,-8.3913988278006e-05
mouse_head_joint,19.039999999999683,-8.379305088013211e-05
mouse_head_joint,19.059999999999683,-8.369145054576421e-05
mouse_head_joint,19.079999999999682,-8.375054188647368e-05
mouse_head_joint,19.09999999999968,-8.367377715323698e-05
mouse_head_joint,19.11999999999968,-8.353993383014569e-05
mouse_head_joint,19.13999999999968,-8.340961382291567e-05
mouse_head_joint,19.15999999999968,-8.337561458304776e-05
mouse_head_joint,19.17999999999968,-8.33191847808834e-05
mouse_head_joint,19.19999999999968,-8.32424930106157e-05
mouse_head_joint,19.21999999999968,-8.315488002708094e-05
mouse_head_joint,19.23999999999968,-8.304300170003387e-05
mouse_head_joint,19.25999999999968,-8.288364697328632e-05
mouse_head_joint,19.279999999999678,-8.280562009144177e-05
mouse_head_joint,19.299999999999677,-8.273292662952514e-05
mouse_head_joint,19.319999999999677,-8.279694464796705e-05
mouse_head_joint,19.339999999999677,-8.266520369470953e-05
mouse_head_joint,19.359999999999676,-8.253175683581304e-05
mouse_head_joint,19.379999999999676,-8.241576982825904e-05
mouse_head_joint,19.399999999999675,-8.241326397051552e-05
mouse_head_joint,19.419999999999675,-8.228526228393207e-05
mouse_head_joint,19.439999999999674,-8.238177581976203e-05
mouse_head_joint,19.459999999999674,-8.218424069816876e-05
mouse_head_joint,19.479999999999674,-8.201978600030913e-05
mouse_head_joint,19.499999999999673,-8.192710985710505e-05
mouse_head_joint,19.519999999999673,-8.188016415289212e-05
mouse_head_joint,19.539999999999672,-8.199032543476648e-05
mouse_head_joint,19.559999999999672,-8.182426008129795e-05
mouse_head_joint,19.57999999999967,-8.177778827445081e-05
mouse_head_joint,19.59999999999967,-8.156358678057529e-05
mouse_head_joint,19.61999999999967,-8.158474319941433e-05
mouse_head_joint,19.63999999999967,-8.142366668550949e-05
mouse_head_joint,19.65999999999967,-8.155826988609505e-05
mouse_head_joint,19.67999999999967,-8.122997024440082e-05
mouse_head_joint,19.69999999999967,-8.123701819240381e-05
mouse_head_joint,19.71999999999967,-8.120930126054304e-05
mouse_head_joint,19.739999999999668,-8.114697814054495e-05
mouse_head_joint,19.759999999999668,-8.111748912487116e-05
mouse_head_joint,19.779999999999667,-8.09641193537658e-05
mouse_head_joint,19.799999999999667,-8.080849876535012e-05
mouse_head_joint,19.819999999999666,-8.086112632543774e-05
mouse_head_joint,19.839999999999666,-8.066747438828514e-05
mouse_head_joint,19.859999999999665,-8.062544266795868e-05
mouse_head_joint,19.879999999999665,-8.065693044034816e-05
mouse_head_joint,19.899999999999665,-8.069494333717842e-05
mouse_head_joint,19.919999999999664,-8.047803859767555e-05
mouse_head_joint,19.939999999999664,-8.03281924133259e-05
mouse_head_joint,19.959999999999663,-8.026512171177558e-05
mouse_head_joint,19.979999999999663,-8.01985833209784e-05
mouse_head_joint,19.999999999999662,-8.017459080988942e-05
mouse_head_joint,20.019999999999662,-8.001444571181793e-05
mouse_head_joint,20.03999999999966,-8.002577112620202e-05
mouse_head_joint,20.05999999999966,-7.991901847148597e-05
mouse_head_joint,20.07999999999966,-7.992621263408495e-05
mouse_head_joint,20.09999999999966,-7.99079999262986e-05
mouse_head_joint,20.11999999999966,-7.984546496864198e-05
mouse_head_joint,20.13999999999966,-7.972776744491483e-05
mouse_head_joint,20.15999999999966,-7.961040723269974e-05
mouse_head_joint,20.17999999999966,-7.948998741191815e-05
mouse_head_joint,20.19999999999966,-7.94523414864301e-05
mouse_head_joint,20.219999999999658,-7.948823787362613e-05
mouse_head_joint,20.239999999999657,-7.944988241170847e-05
mouse_head_joint,20.259999999999657,-7.937790040823955e-05
mouse_head_joint,20.279999999999657,-7.928509349142132e-05
mouse_head_joint,20.299999999999656,-7.910999302396249e-05
mouse_head_joint,20.319999999999656,-7.905371615279932e-05
mouse_head_joint,20.339999999999655,-7.913098120138073e-05
mouse_head_joint,20.359999999999655,-7.898639692527354e-05
mouse_head_joint,20.379999999999654,-7.889406716632408e-05
